Lab 12/oscilloscope_data/Vg15.csv

X,CH1,CH2,CH3,CH4,Start,Increment,
Sequence,Volt,Volt,Volt,Volt,-3.000000e-05,4.000000e-09
0,-7.90e-03,1.60e+01,-2.00e-01,-4.00e-01,
1,-1.59e-02,1.60e+01,-2.00e-01,-4.30e-05,
2,-7.90e-03,1.60e+01,-6.00e-01,-4.00e-01,
3,-1.59e-02,1.60e+01,-2.00e-01,-4.00e-01,
4,-7.90e-03,1.52e+01,-2.00e-01,-4.00e-01,
5,-1.59e-02,1.52e+01,-2.00e-01,-4.00e-01,
6,-7.90e-03,1.52e+01,-6.00e-01,-4.30e-05,
7,-1.59e-02,1.52e+01,-2.00e-01,-4.00e-01,
8,-7.90e-03,1.52e+01,-2.00e-01,-4.00e-01,
9,-1.59e-02,1.52e+01,-2.00e-01,-4.00e-01,
10,-7.90e-03,1.52e+01,-2.00e-01,-4.00e-01,
11,-1.59e-02,1.52e+01,-6.00e-01,-4.30e-05,
12,-7.90e-03,1.52e+01,-2.00e-01,-4.00e-01,
13,-7.90e-03,1.36e+01,-2.00e-01,-4.00e-01,
14,-7.90e-03,1.36e+01,-6.00e-01,-4.00e-01,
15,-1.59e-02,1.36e+01,-6.00e-01,-4.00e-01,
16,-7.90e-03,1.36e+01,-2.00e-01,-4.00e-01,
17,-7.90e-03,1.36e+01,-2.00e-01,-4.30e-05,
18,-7.90e-03,1.36e+01,-6.00e-01,-4.30e-05,
19,-1.59e-02,1.36e+01,-6.00e-01,-4.00e-01,
20,-7.90e-03,1.36e+01,-2.00e-01,-4.00e-01,
21,-1.59e-02,1.36e+01,-2.00e-01,-4.30e-05,
22,-7.90e-03,1.28e+01,-6.00e-01,-4.00e-01,
23,-1.59e-02,1.28e+01,-6.00e-01,-4.00e-01,
24,-7.90e-03,1.28e+01,-2.00e-01,-4.00e-01,
25,-7.90e-03,1.28e+01,-6.00e-01,-4.30e-05,
26,-7.90e-03,1.28e+01,-6.00e-01,-4.00e-01,
27,-1.59e-02,1.28e+01,-2.00e-01,-4.30e-05,
28,-7.90e-03,1.28e+01,-2.00e-01,-4.00e-01,
29,-7.90e-03,1.28e+01,-6.00e-01,-4.30e-05,
30,-7.90e-03,1.12e+01,-2.00e-01,-4.30e-05,
31,-1.59e-02,1.12e+01,-2.00e-01,-4.30e-05,
32,-7.90e-03,1.12e+01,-2.00e-01,-4.00e-01,
33,-1.59e-02,1.12e+01,-2.00e-01,-4.00e-01,
34,-7.90e-03,1.12e+01,-2.00e-01,-4.00e-01,
35,-1.59e-02,1.12e+01,-6.00e-01,-4.30e-05,
36,-7.90e-03,1.12e+01,-2.00e-01,-4.00e-01,
37,-7.90e-03,1.12e+01,-2.00e-01,-4.30e-05,
38,-7.90e-03,1.12e+01,-2.00e-01,-4.30e-05,
39,-7.90e-03,1.12e+01,-2.00e-01,-4.00e-01,
40,-7.90e-03,1.12e+01,-2.00e-01,-4.00e-01,
41,-1.59e-02,1.04e+01,-6.00e-01,-4.30e-05,
42,-7.90e-03,1.04e+01,-2.00e-01,-4.00e-01,
43,-7.90e-03,1.04e+01,-6.00e-01,-4.30e-05,
44,-7.90e-03,1.04e+01,-2.00e-01,-4.00e-01,
45,-7.90e-03,1.04e+01,-2.00e-01,-4.30e-05,
46,-7.90e-03,1.04e+01,-2.00e-01,-4.00e-01,
47,-7.90e-03,1.04e+01,-6.00e-01,-4.00e-01,
48,-7.90e-03,1.04e+01,-2.00e-01,-4.00e-01,
49,-7.90e-03,1.04e+01,-2.00e-01,-4.30e-05,
50,-7.90e-03,1.04e+01,-2.00e-01,-4.00e-01,
51,-7.90e-03,1.04e+01,-2.00e-01,-4.30e-05,
52,-7.90e-03,1.04e+01,-2.00e-01,-4.00e-01,
53,-7.90e-03,1.04e+01,-6.00e-01,-4.30e-05,
54,-7.90e-03,1.04e+01,-2.00e-01,-4.00e-01,
55,-7.90e-03,1.04e+01,-2.00e-01,-4.00e-01,
56,-7.90e-03,8.80e+00,-2.00e-01,-4.00e-01,
57,-7.90e-03,8.80e+00,-2.00e-01,-4.00e-01,
58,-7.90e-03,8.80e+00,-6.00e-01,-4.00e-01,
59,-7.90e-03,8.80e+00,-2.00e-01,-4.00e-01,
60,-7.90e-03,8.80e+00,-2.00e-01,-4.00e-01,
61,-7.90e-03,8.80e+00,-6.00e-01,-4.30e-05,
62,-7.90e-03,8.80e+00,-6.00e-01,-4.30e-05,
63,-7.90e-03,8.80e+00,-2.00e-01,-4.30e-05,
64,-7.90e-03,8.80e+00,-2.00e-01,-4.00e-01,
65,-7.90e-03,8.80e+00,-6.00e-01,-4.00e-01,
66,-7.90e-03,8.80e+00,-2.00e-01,-4.00e-01,
67,-7.90e-03,8.80e+00,-2.00e-01,-4.00e-01,
68,-7.90e-03,8.80e+00,-2.00e-01,-4.00e-01,
69,-7.90e-03,8.80e+00,-2.00e-01,-4.00e-01,
70,-7.90e-03,8.80e+00,-6.00e-01,-4.00e-01,
71,-7.90e-03,8.80e+00,-2.00e-01,-4.30e-05,
72,-7.90e-03,8.80e+00,-2.00e-01,-4.00e-01,
73,-7.90e-03,8.80e+00,-2.00e-01,-4.30e-05,
74,-7.90e-03,8.80e+00,-2.00e-01,-4.00e-01,
75,-1.59e-02,8.80e+00,-2.00e-01,-4.00e-01,
76,-7.90e-03,8.80e+00,-2.00e-01,-4.00e-01,
77,-7.90e-03,8.80e+00,-2.00e-01,-4.30e-05,
78,-7.90e-03,8.80e+00,-6.00e-01,-4.30e-05,
79,-7.90e-03,8.80e+00,-2.00e-01,-4.30e-05,
80,-7.90e-03,8.00e+00,-2.00e-01,-4.00e-01,
81,-7.90e-03,8.80e+00,-2.00e-01,-4.30e-05,
82,-7.90e-03,8.00e+00,-2.00e-01,-4.00e-01,
83,-7.90e-03,8.80e+00,-2.00e-01,-4.30e-05,
84,-7.90e-03,8.00e+00,-2.00e-01,-4.00e-01,
85,-7.90e-03,8.00e+00,-2.00e-01,-4.30e-05,
86,-7.90e-03,8.00e+00,-2.00e-01,-4.30e-05,
87,-7.90e-03,8.00e+00,-2.00e-01,-4.00e-01,
88,-7.90e-03,8.00e+00,-2.00e-01,-4.00e-01,
89,-7.90e-03,8.00e+00,-2.00e-01,-4.00e-01,
90,-7.90e-03,8.00e+00,-2.00e-01,-4.00e-01,
91,-7.90e-03,8.00e+00,-2.00e-01,-4.00e-01,
92,-7.90e-03,8.00e+00,-2.00e-01,-4.00e-01,
93,-7.90e-03,8.00e+00,-2.00e-01,-4.30e-05,
94,-7.90e-03,8.00e+00,-2.00e-01,-4.00e-01,
95,-7.90e-03,8.00e+00,-2.00e-01,-4.30e-05,
96,-7.90e-03,8.00e+00,-2.00e-01,-4.00e-01,
97,-7.90e-03,8.00e+00,-2.00e-01,-4.30e-05,
98,-7.90e-03,8.80e+00,-2.00e-01,-4.00e-01,
99,-7.90e-03,8.80e+00,-2.00e-01,-4.00e-01,
100,-7.90e-03,8.80e+00,-2.00e-01,-4.00e-01,
101,-7.90e-03,8.80e+00,-2.00e-01,-4.30e-05,
102,-7.90e-03,8.80e+00,-2.00e-01,-4.30e-05,
103,-7.90e-03,8.80e+00,-2.00e-01,-4.30e-05,
104,-7.90e-03,8.80e+00,-2.00e-01,-4.00e-01,
105,-7.90e-03,8.80e+00,-2.00e-01,-4.30e-05,
106,-7.90e-03,8.80e+00,-2.00e-01,-4.00e-01,
107,-7.90e-03,8.80e+00,-2.00e-01,-4.30e-05,
108,-7.90e-03,8.80e+00,-2.00e-01,-4.00e-01,
109,-7.90e-03,8.80e+00,-2.00e-01,-4.30e-05,
110,-7.90e-03,8.80e+00,-2.00e-01,-4.00e-01,
111,-7.90e-03,8.80e+00,-2.00e-01,-4.30e-05,
112,-7.90e-03,8.80e+00,-2.00e-01,-4.30e-05,
113,-7.90e-03,8.80e+00,-2.00e-01,-4.30e-05,
114,-7.90e-03,8.80e+00,-2.00e-01,-4.30e-05,
115,-7.90e-03,8.80e+00,-2.00e-01,-4.30e-05,
116,-7.90e-03,8.80e+00,-2.00e-01,-4.00e-01,
117,-7.90e-03,8.80e+00,-2.00e-01,-4.30e-05,
118,-7.90e-03,8.80e+00,-2.00e-01,-4.00e-01,
119,-7.90e-03,8.80e+00,-2.00e-01,-4.30e-05,
120,-7.90e-03,8.80e+00,-2.00e-01,-4.00e-01,
121,-7.90e-03,8.80e+00,-2.00e-01,-4.30e-05,
122,-7.90e-03,8.80e+00,-2.00e-01,-4.00e-01,
123,-7.90e-03,8.80e+00,-2.00e-01,-4.30e-05,
124,-7.90e-03,1.04e+01,-2.00e-01,-4.00e-01,
125,-7.90e-03,1.04e+01,-2.00e-01,-4.30e-05,
126,-7.90e-03,1.04e+01,-2.00e-01,-4.30e-05,
127,-7.90e-03,1.04e+01,-2.00e-01,-4.30e-05,
128,-7.90e-03,1.04e+01,-2.00e-01,-4.30e-05,
129,-7.90e-03,1.04e+01,-2.00e-01,-4.00e-01,
130,-7.90e-03,1.04e+01,-2.00e-01,-4.30e-05,
131,-7.90e-03,1.04e+01,-2.00e-01,-4.30e-05,
132,-7.90e-03,1.04e+01,-2.00e-01,-4.00e-01,
133,-7.90e-03,1.04e+01,-2.00e-01,-4.30e-05,
134,-7.90e-03,1.04e+01,-2.00e-01,-4.30e-05,
135,-7.90e-03,1.04e+01,-2.00e-01,-4.30e-05,
136,-7.90e-03,1.04e+01,-2.00e-01,-4.00e-01,
137,-7.90e-03,1.04e+01,-2.00e-01,-4.30e-05,
138,-7.90e-03,1.04e+01,-2.00e-01,-4.30e-05,
139,-7.90e-03,1.12e+01,-2.00e-01,-4.30e-05,
140,-7.90e-03,1.12e+01,-2.00e-01,-4.00e-01,
141,-7.90e-03,1.12e+01,-2.00e-01,-4.00e-01,
142,-7.90e-03,1.12e+01,-2.00e-01,-4.30e-05,
143,-7.90e-03,1.12e+01,-2.00e-01,-4.30e-05,
144,-7.90e-03,1.12e+01,-2.00e-01,-4.00e-01,
145,-7.90e-03,1.12e+01,-4.35e-05,-4.30e-05,
146,-7.90e-03,1.12e+01,-2.00e-01,-4.30e-05,
147,-7.90e-03,1.12e+01,-2.00e-01,-4.30e-05,
148,-7.90e-03,1.12e+01,-2.00e-01,-4.00e-01,
149,-7.90e-03,1.12e+01,-4.35e-05,-4.30e-05,
150,-7.90e-03,1.28e+01,-2.00e-01,-4.00e-01,
151,-7.90e-03,1.28e+01,-2.00e-01,-4.30e-05,
152,-7.90e-03,1.28e+01,-2.00e-01,-4.30e-05,
153,-7.90e-03,1.28e+01,-2.00e-01,-4.30e-05,
154,-7.90e-03,1.28e+01,-2.00e-01,-4.30e-05,
155,-7.90e-03,1.28e+01,-2.00e-01,-4.00e-01,
156,-7.90e-03,1.28e+01,-2.00e-01,-4.00e-01,
157,-7.90e-03,1.28e+01,-2.00e-01,-4.30e-05,
158,-7.90e-03,1.28e+01,-2.00e-01,-4.30e-05,
159,-7.90e-03,1.28e+01,-2.00e-01,-4.30e-05,
160,-7.90e-03,1.36e+01,-2.00e-01,-4.00e-01,
161,-7.90e-03,1.36e+01,-4.35e-05,-4.30e-05,
162,-7.90e-03,1.36e+01,-2.00e-01,-4.00e-01,
163,-7.90e-03,1.36e+01,-4.35e-05,-4.30e-05,
164,-7.90e-03,1.36e+01,-2.00e-01,-4.00e-01,
165,-7.90e-03,1.36e+01,-2.00e-01,-4.30e-05,
166,-7.90e-03,1.36e+01,-2.00e-01,-4.30e-05,
167,-7.90e-03,1.36e+01,-2.00e-01,-4.30e-05,
168,-7.90e-03,1.36e+01,-2.00e-01,-4.00e-01,
169,-7.90e-03,1.52e+01,-2.00e-01,-4.30e-05,
170,-7.90e-03,1.52e+01,-2.00e-01,-4.30e-05,
171,-7.90e-03,1.52e+01,-2.00e-01,-4.30e-05,
172,-7.90e-03,1.52e+01,-2.00e-01,-4.00e-01,
173,-7.90e-03,1.52e+01,-2.00e-01,-4.30e-05,
174,-7.90e-03,1.52e+01,-2.00e-01,-4.30e-05,
175,-7.90e-03,1.52e+01,-2.00e-01,-4.30e-05,
176,-7.90e-03,1.52e+01,-4.35e-05,-4.30e-05,
177,-7.90e-03,1.52e+01,-2.00e-01,-4.00e-01,
178,-7.90e-03,1.60e+01,-2.00e-01,-4.30e-05,
179,-7.90e-03,1.60e+01,-2.00e-01,-4.30e-05,
180,-7.90e-03,1.60e+01,-2.00e-01,-4.30e-05,
181,-7.90e-03,1.60e+01,-2.00e-01,-4.30e-05,
182,-7.90e-03,1.60e+01,-2.00e-01,-4.30e-05,
183,-7.90e-03,1.60e+01,-2.00e-01,-4.30e-05,
184,-7.90e-03,1.60e+01,-4.35e-05,-4.30e-05,
185,-7.90e-03,1.60e+01,-2.00e-01,-4.30e-05,
186,-7.90e-03,1.76e+01,-2.00e-01,-4.30e-05,
187,-7.90e-03,1.76e+01,-2.00e-01,-4.30e-05,
188,-7.90e-03,1.76e+01,-2.00e-01,-4.00e-01,
189,-7.90e-03,1.76e+01,-2.00e-01,-4.30e-05,
190,-7.90e-03,1.76e+01,-2.00e-01,-4.00e-01,
191,-7.90e-03,1.76e+01,-2.00e-01,-4.30e-05,
192,-7.90e-03,1.76e+01,-2.00e-01,-4.30e-05,
193,-7.90e-03,1.76e+01,-2.00e-01,-4.00e-01,
194,-7.90e-03,1.92e+01,-2.00e-01,-4.30e-05,
195,-7.90e-03,1.92e+01,-2.00e-01,-4.30e-05,
196,-7.90e-03,1.92e+01,-2.00e-01,-4.30e-05,
197,-7.90e-03,1.92e+01,-2.00e-01,-4.30e-05,
198,-7.90e-03,1.92e+01,-2.00e-01,-4.30e-05,
199,-7.90e-03,1.92e+01,-2.00e-01,-4.30e-05,
200,-7.90e-03,1.92e+01,-2.00e-01,-4.00e-01,
201,-7.90e-03,1.92e+01,-2.00e-01,-4.00e-01,
202,-7.90e-03,1.92e+01,-2.00e-01,-4.00e-01,
203,-7.90e-03,2.00e+01,-4.35e-05,-4.30e-05,
204,-7.90e-03,2.00e+01,-2.00e-01,-4.00e-01,
205,-7.90e-03,2.00e+01,-2.00e-01,-4.30e-05,
206,-7.90e-03,2.00e+01,-2.00e-01,-4.30e-05,
207,-7.90e-03,2.00e+01,-2.00e-01,-4.30e-05,
208,-7.90e-03,2.00e+01,-2.00e-01,-4.30e-05,
209,-7.90e-03,2.00e+01,-2.00e-01,-4.30e-05,
210,-7.90e-03,2.00e+01,-2.00e-01,-4.30e-05,
211,-7.90e-03,2.00e+01,-2.00e-01,-4.30e-05,
212,-7.90e-03,2.16e+01,-2.00e-01,-4.00e-01,
213,-7.90e-03,2.16e+01,-2.00e-01,-4.30e-05,
214,-7.90e-03,2.16e+01,-2.00e-01,-4.00e-01,
215,-7.90e-03,2.16e+01,-2.00e-01,-4.30e-05,
216,-7.90e-03,2.16e+01,-2.00e-01,-4.00e-01,
217,-7.90e-03,2.16e+01,-2.00e-01,-4.30e-05,
218,-7.90e-03,2.16e+01,-2.00e-01,-4.30e-05,
219,-7.90e-03,2.16e+01,-2.00e-01,-4.30e-05,
220,-7.90e-03,2.16e+01,-2.00e-01,-4.00e-01,
221,-7.90e-03,2.16e+01,-2.00e-01,-4.30e-05,
222,-7.90e-03,2.16e+01,-2.00e-01,-4.30e-05,
223,-7.90e-03,2.24e+01,-2.00e-01,-4.30e-05,
224,-7.90e-03,2.24e+01,-2.00e-01,-4.30e-05,
225,-7.90e-03,2.24e+01,-2.00e-01,-4.30e-05,
226,-7.90e-03,2.24e+01,-2.00e-01,-4.30e-05,
227,-7.90e-03,2.24e+01,-2.00e-01,-4.30e-05,
228,-7.90e-03,2.24e+01,-2.00e-01,-4.00e-01,
229,-7.90e-03,2.24e+01,-2.00e-01,-4.30e-05,
230,-7.90e-03,2.24e+01,-2.00e-01,-4.30e-05,
231,-7.90e-03,2.24e+01,-2.00e-01,-4.30e-05,
232,-7.90e-03,2.24e+01,-2.00e-01,-4.30e-05,
233,-7.90e-03,2.24e+01,-2.00e-01,-4.30e-05,
234,-7.90e-03,2.24e+01,-2.00e-01,-4.30e-05,
235,-7.90e-03,2.40e+01,-2.00e-01,-4.00e-01,
236,-7.90e-03,2.40e+01,-2.00e-01,-4.30e-05,
237,-7.90e-03,2.40e+01,-2.00e-01,-4.30e-05,
238,-7.90e-03,2.40e+01,-2.00e-01,-4.30e-05,
239,-7.90e-03,2.40e+01,-2.00e-01,-4.30e-05,
240,-7.90e-03,2.40e+01,-2.00e-01,-4.00e-01,
241,-1.59e-02,2.40e+01,-2.00e-01,-4.30e-05,
242,-7.90e-03,2.40e+01,-2.00e-01,-4.00e-01,
243,-7.90e-03,2.40e+01,-2.00e-01,-4.30e-05,
244,-7.90e-03,2.40e+01,-2.00e-01,-4.00e-01,
245,-7.90e-03,2.40e+01,-2.00e-01,-4.30e-05,
246,-7.90e-03,2.40e+01,-2.00e-01,-4.30e-05,
247,-7.90e-03,2.40e+01,-2.00e-01,-4.00e-01,
248,-7.90e-03,2.40e+01,-2.00e-01,-4.00e-01,
249,-7.90e-03,2.48e+01,-2.00e-01,-4.30e-05,
250,-7.90e-03,2.48e+01,-2.00e-01,-4.00e-01,
251,-7.90e-03,2.40e+01,-2.00e-01,-4.30e-05,
252,-7.90e-03,2.48e+01,-4.35e-05,-4.00e-01,
253,-7.90e-03,2.48e+01,-2.00e-01,-4.30e-05,
254,-7.90e-03,2.48e+01,-6.00e-01,-4.00e-01,
255,-7.90e-03,2.48e+01,-2.00e-01,-4.30e-05,
256,-7.90e-03,2.48e+01,-2.00e-01,-4.00e-01,
257,-7.90e-03,2.48e+01,-2.00e-01,-4.30e-05,
258,-7.90e-03,2.48e+01,-2.00e-01,-4.30e-05,
259,-7.90e-03,2.48e+01,-2.00e-01,-4.30e-05,
260,-7.90e-03,2.48e+01,-2.00e-01,-4.00e-01,
261,-7.90e-03,2.48e+01,-2.00e-01,-4.30e-05,
262,-7.90e-03,2.48e+01,-2.00e-01,-4.30e-05,
263,-1.59e-02,2.48e+01,-2.00e-01,-4.30e-05,
264,-7.90e-03,2.48e+01,-2.00e-01,-4.00e-01,
265,-7.90e-03,2.48e+01,-2.00e-01,-4.30e-05,
266,-7.90e-03,2.48e+01,-2.00e-01,-4.00e-01,
267,-7.90e-03,2.48e+01,-2.00e-01,-4.30e-05,
268,-7.90e-03,2.48e+01,-2.00e-01,-4.00e-01,
269,-7.90e-03,2.48e+01,-2.00e-01,-4.00e-01,
270,-7.90e-03,2.48e+01,-2.00e-01,-4.30e-05,
271,-7.90e-03,2.48e+01,-2.00e-01,-4.30e-05,
272,-7.90e-03,2.48e+01,-2.00e-01,-4.00e-01,
273,-7.90e-03,2.48e+01,-2.00e-01,-4.30e-05,
274,-7.90e-03,2.48e+01,-2.00e-01,-4.00e-01,
275,-1.59e-02,2.48e+01,-2.00e-01,-4.30e-05,
276,-7.90e-03,2.48e+01,-2.00e-01,-4.00e-01,
277,-7.90e-03,2.48e+01,-2.00e-01,-4.30e-05,
278,-7.90e-03,2.48e+01,-2.00e-01,-4.00e-01,
279,-7.90e-03,2.48e+01,-2.00e-01,-4.30e-05,
280,-7.90e-03,2.48e+01,-2.00e-01,-4.00e-01,
281,-7.90e-03,2.48e+01,-2.00e-01,-4.00e-01,
282,-7.90e-03,2.48e+01,-2.00e-01,-4.00e-01,
283,-1.59e-02,2.48e+01,-2.00e-01,-4.00e-01,
284,-7.90e-03,2.48e+01,-2.00e-01,-4.00e-01,
285,-7.90e-03,2.48e+01,-2.00e-01,-4.30e-05,
286,-7.90e-03,2.48e+01,-2.00e-01,-4.00e-01,
287,-1.59e-02,2.48e+01,-2.00e-01,-4.30e-05,
288,-7.90e-03,2.48e+01,-2.00e-01,-4.00e-01,
289,-7.90e-03,2.48e+01,-2.00e-01,-4.30e-05,
290,-7.90e-03,2.48e+01,-2.00e-01,-4.00e-01,
291,-7.90e-03,2.48e+01,-2.00e-01,-4.30e-05,
292,-7.90e-03,2.48e+01,-2.00e-01,-4.30e-05,
293,-7.90e-03,2.48e+01,-2.00e-01,-4.30e-05,
294,-7.90e-03,2.48e+01,-2.00e-01,-4.30e-05,
295,-7.90e-03,2.48e+01,-2.00e-01,-4.00e-01,
296,-7.90e-03,2.48e+01,-2.00e-01,-4.00e-01,
297,-7.90e-03,2.48e+01,-2.00e-01,-4.30e-05,
298,-7.90e-03,2.48e+01,-2.00e-01,-4.00e-01,
299,-7.90e-03,2.48e+01,-2.00e-01,-4.30e-05,
300,-7.90e-03,2.48e+01,-2.00e-01,-4.00e-01,
301,-7.90e-03,2.48e+01,-2.00e-01,-4.30e-05,
302,-7.90e-03,2.48e+01,-2.00e-01,-4.30e-05,
303,-1.59e-02,2.48e+01,-2.00e-01,-4.30e-05,
304,-7.90e-03,2.48e+01,-2.00e-01,-4.00e-01,
305,-7.90e-03,2.40e+01,-2.00e-01,-4.30e-05,
306,-7.90e-03,2.48e+01,-2.00e-01,-4.00e-01,
307,-7.90e-03,2.40e+01,-2.00e-01,-4.30e-05,
308,-7.90e-03,2.40e+01,-2.00e-01,-4.00e-01,
309,-7.90e-03,2.40e+01,-2.00e-01,-4.30e-05,
310,-7.90e-03,2.40e+01,-2.00e-01,-4.30e-05,
311,-1.59e-02,2.40e+01,-2.00e-01,-4.30e-05,
312,-7.90e-03,2.40e+01,-2.00e-01,-4.00e-01,
313,-1.59e-02,2.40e+01,-2.00e-01,-4.30e-05,
314,-7.90e-03,2.40e+01,-2.00e-01,-4.30e-05,
315,-7.90e-03,2.40e+01,-2.00e-01,-4.30e-05,
316,-7.90e-03,2.40e+01,-2.00e-01,-4.00e-01,
317,-7.90e-03,2.40e+01,-2.00e-01,-4.00e-01,
318,-7.90e-03,2.40e+01,-2.00e-01,-4.00e-01,
319,-7.90e-03,2.40e+01,-2.00e-01,-4.30e-05,
320,-7.90e-03,2.40e+01,-2.00e-01,-4.00e-01,
321,-7.90e-03,2.40e+01,-2.00e-01,-4.00e-01,
322,-7.90e-03,2.40e+01,-6.00e-01,-4.00e-01,
323,-7.90e-03,2.24e+01,-2.00e-01,-4.30e-05,
324,-7.90e-03,2.24e+01,-2.00e-01,-4.00e-01,
325,-1.59e-02,2.24e+01,-2.00e-01,-4.30e-05,
326,-7.90e-03,2.24e+01,-2.00e-01,-4.00e-01,
327,-7.90e-03,2.24e+01,-2.00e-01,-4.00e-01,
328,-7.90e-03,2.24e+01,-2.00e-01,-4.00e-01,
329,-7.90e-03,2.24e+01,-6.00e-01,-4.30e-05,
330,-7.90e-03,2.24e+01,-2.00e-01,-4.00e-01,
331,-7.90e-03,2.24e+01,-2.00e-01,-4.00e-01,
332,-7.90e-03,2.24e+01,-2.00e-01,-4.00e-01,
333,-1.59e-02,2.24e+01,-2.00e-01,-4.00e-01,
334,-7.90e-03,2.24e+01,-2.00e-01,-4.00e-01,
335,-7.90e-03,2.16e+01,-2.00e-01,-4.00e-01,
336,-7.90e-03,2.16e+01,-2.00e-01,-4.00e-01,
337,-7.90e-03,2.16e+01,-2.00e-01,-4.00e-01,
338,-7.90e-03,2.16e+01,-2.00e-01,-4.00e-01,
339,-1.59e-02,2.16e+01,-2.00e-01,-4.30e-05,
340,-7.90e-03,2.16e+01,-2.00e-01,-4.00e-01,
341,-7.90e-03,2.16e+01,-2.00e-01,-4.30e-05,
342,-7.90e-03,2.16e+01,-6.00e-01,-4.30e-05,
343,-7.90e-03,2.16e+01,-2.00e-01,-4.30e-05,
344,-7.90e-03,2.16e+01,-2.00e-01,-4.00e-01,
345,-7.90e-03,2.16e+01,-2.00e-01,-4.30e-05,
346,-7.90e-03,2.00e+01,-6.00e-01,-4.00e-01,
347,-1.59e-02,2.00e+01,-2.00e-01,-4.00e-01,
348,-7.90e-03,2.00e+01,-2.00e-01,-4.00e-01,
349,-7.90e-03,2.00e+01,-2.00e-01,-4.00e-01,
350,-7.90e-03,2.00e+01,-6.00e-01,-4.00e-01,
351,-7.90e-03,2.00e+01,-2.00e-01,-4.30e-05,
352,-7.90e-03,2.00e+01,-2.00e-01,-4.00e-01,
353,-7.90e-03,2.00e+01,-2.00e-01,-4.30e-05,
354,-7.90e-03,2.00e+01,-6.00e-01,-4.00e-01,
355,-1.59e-02,2.00e+01,-2.00e-01,-4.30e-05,
356,-7.90e-03,2.00e+01,-2.00e-01,-4.00e-01,
357,-7.90e-03,1.92e+01,-2.00e-01,-4.30e-05,
358,-7.90e-03,1.92e+01,-6.00e-01,-4.00e-01,
359,-7.90e-03,1.92e+01,-2.00e-01,-4.30e-05,
360,-7.90e-03,1.92e+01,-2.00e-01,-4.00e-01,
361,-7.90e-03,1.92e+01,-2.00e-01,-4.30e-05,
362,-7.90e-03,1.92e+01,-2.00e-01,-4.00e-01,
363,-7.90e-03,1.92e+01,-2.00e-01,-4.30e-05,
364,-7.90e-03,1.92e+01,-2.00e-01,-4.00e-01,
365,-1.59e-02,1.92e+01,-6.00e-01,-4.30e-05,
366,-7.90e-03,1.76e+01,-2.00e-01,-4.00e-01,
367,-1.59e-02,1.76e+01,-6.00e-01,-4.00e-01,
368,-7.90e-03,1.76e+01,-2.00e-01,-4.00e-01,
369,-7.90e-03,1.76e+01,-6.00e-01,-4.00e-01,
370,-7.90e-03,1.76e+01,-6.00e-01,-4.00e-01,
371,-7.90e-03,1.76e+01,-6.00e-01,-4.00e-01,
372,-7.90e-03,1.76e+01,-2.00e-01,-4.00e-01,
373,-7.90e-03,1.76e+01,-2.00e-01,-4.30e-05,
374,-7.90e-03,1.76e+01,-2.00e-01,-4.00e-01,
375,-1.59e-02,1.76e+01,-2.00e-01,-4.00e-01,
376,-7.90e-03,1.76e+01,-2.00e-01,-4.00e-01,
377,-7.90e-03,1.60e+01,-2.00e-01,-4.00e-01,
378,-7.90e-03,1.60e+01,-2.00e-01,-4.30e-05,
379,-1.59e-02,1.60e+01,-2.00e-01,-4.30e-05,
380,-7.90e-03,1.60e+01,-2.00e-01,-4.00e-01,
381,-7.90e-03,1.60e+01,-2.00e-01,-4.30e-05,
382,-7.90e-03,1.60e+01,-6.00e-01,-4.30e-05,
383,-7.90e-03,1.60e+01,-2.00e-01,-4.00e-01,
384,-7.90e-03,1.60e+01,-2.00e-01,-4.00e-01,
385,-7.90e-03,1.60e+01,-2.00e-01,-4.30e-05,
386,-7.90e-03,1.60e+01,-2.00e-01,-4.00e-01,
387,-7.90e-03,1.60e+01,-2.00e-01,-4.00e-01,
388,-7.90e-03,1.52e+01,-2.00e-01,-4.00e-01,
389,-1.59e-02,1.52e+01,-2.00e-01,-4.30e-05,
390,-7.90e-03,1.52e+01,-6.00e-01,-4.00e-01,
391,-1.59e-02,1.52e+01,-2.00e-01,-4.00e-01,
392,-7.90e-03,1.52e+01,-2.00e-01,-4.00e-01,
393,-7.90e-03,1.52e+01,-2.00e-01,-4.00e-01,
394,-7.90e-03,1.52e+01,-2.00e-01,-4.00e-01,
395,-7.90e-03,1.52e+01,-6.00e-01,-4.00e-01,
396,-7.90e-03,1.52e+01,-2.00e-01,-4.00e-01,
397,-7.90e-03,1.52e+01,-6.00e-01,-4.30e-05,
398,-7.90e-03,1.52e+01,-2.00e-01,-4.00e-01,
399,-7.90e-03,1.52e+01,-2.00e-01,-4.00e-01,
400,-7.90e-03,1.52e+01,-2.00e-01,-4.00e-01,
401,-7.90e-03,1.36e+01,-2.00e-01,-4.00e-01,
402,-7.90e-03,1.36e+01,-2.00e-01,-4.00e-01,
403,-1.59e-02,1.36e+01,-2.00e-01,-4.30e-05,
404,-7.90e-03,1.36e+01,-6.00e-01,-4.00e-01,
405,-7.90e-03,1.36e+01,-2.00e-01,-4.30e-05,
406,-7.90e-03,1.36e+01,-2.00e-01,-4.30e-05,
407,-7.90e-03,1.36e+01,-2.00e-01,-4.00e-01,
408,-7.90e-03,1.36e+01,-2.00e-01,-4.30e-05,
409,-7.90e-03,1.36e+01,-6.00e-01,-4.30e-05,
410,-7.90e-03,1.36e+01,-6.00e-01,-4.00e-01,
411,-7.90e-03,1.36e+01,-2.00e-01,-4.30e-05,
412,-7.90e-03,1.36e+01,-2.00e-01,-4.00e-01,
413,-7.90e-03,1.36e+01,-2.00e-01,-4.00e-01,
414,-7.90e-03,1.36e+01,-2.00e-01,-4.30e-05,
415,-7.90e-03,1.28e+01,-2.00e-01,-4.00e-01,
416,-7.90e-03,1.28e+01,-2.00e-01,-4.00e-01,
417,-7.90e-03,1.28e+01,-2.00e-01,-4.30e-05,
418,-7.90e-03,1.28e+01,-2.00e-01,-4.00e-01,
419,-7.90e-03,1.28e+01,-2.00e-01,-4.00e-01,
420,-7.90e-03,1.28e+01,-2.00e-01,-4.00e-01,
421,-7.90e-03,1.28e+01,-2.00e-01,-4.00e-01,
422,-7.90e-03,1.28e+01,-2.00e-01,-4.00e-01,
423,-7.90e-03,1.28e+01,-2.00e-01,-4.30e-05,
424,-7.90e-03,1.28e+01,-2.00e-01,-4.00e-01,
425,-7.90e-03,1.28e+01,-2.00e-01,-4.00e-01,
426,-7.90e-03,1.28e+01,-6.00e-01,-4.00e-01,
427,-7.90e-03,1.28e+01,-2.00e-01,-4.30e-05,
428,-7.90e-03,1.28e+01,-2.00e-01,-4.00e-01,
429,-7.90e-03,1.28e+01,-2.00e-01,-4.00e-01,
430,-7.90e-03,1.28e+01,-6.00e-01,-4.00e-01,
431,-7.90e-03,1.28e+01,-6.00e-01,-4.00e-01,
432,-7.90e-03,1.28e+01,-2.00e-01,-4.30e-05,
433,-7.90e-03,1.12e+01,-2.00e-01,-4.30e-05,
434,-7.90e-03,1.12e+01,-6.00e-01,-4.00e-01,
435,-7.90e-03,1.12e+01,-2.00e-01,-4.30e-05,
436,-7.90e-03,1.12e+01,-2.00e-01,-4.00e-01,
437,-7.90e-03,1.12e+01,-2.00e-01,-4.30e-05,
438,-7.90e-03,1.12e+01,-6.00e-01,-4.00e-01,
439,-7.90e-03,1.12e+01,-2.00e-01,-4.00e-01,
440,-7.90e-03,1.12e+01,-2.00e-01,-4.00e-01,
441,-7.90e-03,1.12e+01,-2.00e-01,-4.30e-05,
442,-7.90e-03,1.12e+01,-2.00e-01,-4.00e-01,
443,-7.90e-03,1.12e+01,-2.00e-01,-4.00e-01,
444,-7.90e-03,1.12e+01,-2.00e-01,-4.00e-01,
445,-7.90e-03,1.12e+01,-2.00e-01,-4.30e-05,
446,-7.90e-03,1.12e+01,-2.00e-01,-4.00e-01,
447,-7.90e-03,1.12e+01,-2.00e-01,-4.30e-05,
448,-7.90e-03,1.12e+01,-2.00e-01,-4.00e-01,
449,-7.90e-03,1.12e+01,-2.00e-01,-4.30e-05,
450,-7.90e-03,1.12e+01,-2.00e-01,-4.00e-01,
451,-7.90e-03,1.12e+01,-2.00e-01,-4.00e-01,
452,-7.90e-03,1.12e+01,-2.00e-01,-4.00e-01,
453,-7.90e-03,1.12e+01,-2.00e-01,-4.00e-01,
