Lab 5/scope_data/Task2-1.csv

X,CH1,CH2,Start,Increment,
Sequence,Volt,Volt,-3.000000e-05,2.000000e-09
0,4.80e-03,4.00e-01,
1,7.20e-03,3.60e-01,
2,7.20e-03,4.00e-01,
3,7.20e-03,4.00e-01,
4,6.40e-03,4.00e-01,
5,8.00e-03,3.60e-01,
6,6.40e-03,4.00e-01,
7,7.20e-03,4.00e-01,
8,4.80e-03,4.00e-01,
9,7.20e-03,3.60e-01,
10,8.00e-03,4.00e-01,
11,7.20e-03,3.60e-01,
12,4.80e-03,4.00e-01,
13,7.20e-03,3.60e-01,
14,6.40e-03,4.00e-01,
15,6.40e-03,3.60e-01,
16,6.40e-03,4.00e-01,
17,6.40e-03,3.60e-01,
18,7.20e-03,3.60e-01,
19,7.20e-03,3.60e-01,
20,6.40e-03,4.00e-01,
21,9.60e-03,3.60e-01,
22,6.40e-03,4.00e-01,
23,7.20e-03,3.60e-01,
24,4.00e-03,4.00e-01,
25,6.40e-03,3.60e-01,
26,6.40e-03,3.60e-01,
27,7.20e-03,3.60e-01,
28,6.40e-03,4.00e-01,
29,7.20e-03,3.60e-01,
30,6.40e-03,3.60e-01,
31,7.20e-03,3.60e-01,
32,4.00e-03,3.60e-01,
33,6.40e-03,3.60e-01,
34,4.80e-03,3.60e-01,
35,7.20e-03,3.60e-01,
36,7.20e-03,3.60e-01,
37,6.40e-03,3.60e-01,
38,4.80e-03,3.60e-01,
39,6.40e-03,3.60e-01,
40,4.80e-03,3.60e-01,
41,6.40e-03,3.60e-01,
42,7.20e-03,3.60e-01,
43,6.40e-03,3.60e-01,
44,4.80e-03,3.60e-01,
45,6.40e-03,3.60e-01,
46,6.40e-03,3.60e-01,
47,4.80e-03,3.60e-01,
48,4.00e-03,3.60e-01,
49,4.00e-03,3.60e-01,
50,4.80e-03,3.60e-01,
51,4.80e-03,3.60e-01,
52,4.00e-03,3.60e-01,
53,7.20e-03,3.60e-01,
54,4.00e-03,3.60e-01,
55,4.00e-03,3.60e-01,
56,3.20e-03,3.60e-01,
57,4.00e-03,3.60e-01,
58,4.80e-03,3.60e-01,
59,6.40e-03,3.60e-01,
60,4.80e-03,3.60e-01,
61,3.20e-03,3.60e-01,
62,4.00e-03,3.60e-01,
63,4.80e-03,3.60e-01,
64,4.00e-03,3.60e-01,
65,3.20e-03,3.60e-01,
66,4.00e-03,3.60e-01,
67,6.40e-03,3.60e-01,
68,4.00e-03,3.60e-01,
69,6.40e-03,3.60e-01,
70,4.00e-03,3.60e-01,
71,3.20e-03,3.60e-01,
72,3.20e-03,3.60e-01,
73,0.00e+00,3.60e-01,
74,3.20e-03,3.60e-01,
75,6.40e-03,3.60e-01,
76,4.00e-03,3.60e-01,
77,4.80e-03,3.60e-01,
78,3.20e-03,3.60e-01,
79,4.80e-03,3.60e-01,
80,3.20e-03,3.60e-01,
81,3.20e-03,3.60e-01,
82,4.00e-03,3.60e-01,
83,4.00e-03,3.60e-01,
84,4.00e-03,3.60e-01,
85,6.40e-03,3.60e-01,
86,3.20e-03,3.60e-01,
87,3.20e-03,3.40e-01,
88,1.60e-03,3.60e-01,
89,4.00e-03,3.40e-01,
90,4.80e-03,3.60e-01,
91,4.00e-03,3.40e-01,
92,3.20e-03,3.60e-01,
93,4.00e-03,3.40e-01,
94,4.00e-03,3.60e-01,
95,1.60e-03,3.40e-01,
96,3.20e-03,3.60e-01,
97,3.20e-03,3.40e-01,
98,4.00e-03,3.60e-01,
99,4.80e-03,3.40e-01,
100,8.00e-04,3.60e-01,
101,4.00e-03,3.40e-01,
102,4.00e-03,3.60e-01,
103,4.00e-03,3.40e-01,
104,3.20e-03,3.60e-01,
105,1.60e-03,3.40e-01,
106,4.00e-03,3.60e-01,
107,4.00e-03,3.40e-01,
108,4.00e-03,3.60e-01,
109,1.60e-03,3.40e-01,
110,4.00e-03,3.40e-01,
111,4.80e-03,3.40e-01,
112,4.00e-03,3.60e-01,
113,3.20e-03,3.40e-01,
114,4.00e-03,3.60e-01,
115,4.00e-03,3.40e-01,
116,3.20e-03,3.60e-01,
117,4.80e-03,3.40e-01,
118,1.60e-03,3.40e-01,
119,3.20e-03,3.40e-01,
120,3.20e-03,3.60e-01,
121,4.00e-03,3.40e-01,
122,4.00e-03,3.40e-01,
123,3.20e-03,3.40e-01,
124,4.80e-03,3.60e-01,
125,4.00e-03,3.40e-01,
126,3.20e-03,3.40e-01,
127,3.20e-03,3.40e-01,
128,1.60e-03,3.40e-01,
129,1.60e-03,3.40e-01,
130,4.00e-03,3.40e-01,
131,6.40e-03,3.40e-01,
132,3.20e-03,3.40e-01,
133,3.20e-03,3.40e-01,
134,3.20e-03,3.40e-01,
135,4.00e-03,3.40e-01,
136,3.20e-03,3.40e-01,
137,4.00e-03,3.40e-01,
138,4.80e-03,3.40e-01,
139,4.00e-03,3.40e-01,
140,3.20e-03,3.40e-01,
141,4.00e-03,3.40e-01,
142,3.20e-03,3.40e-01,
143,4.00e-03,3.40e-01,
144,3.20e-03,3.40e-01,
145,3.20e-03,3.40e-01,
146,1.60e-03,3.40e-01,
147,4.00e-03,3.40e-01,
148,4.00e-03,3.40e-01,
149,4.00e-03,3.40e-01,
150,3.20e-03,3.40e-01,
151,3.20e-03,3.40e-01,
152,3.20e-03,3.40e-01,
153,4.00e-03,3.40e-01,
154,4.00e-03,3.40e-01,
155,4.00e-03,3.40e-01,
156,1.60e-03,3.40e-01,
157,3.20e-03,3.40e-01,
158,4.00e-03,3.40e-01,
159,4.00e-03,3.40e-01,
160,3.20e-03,3.40e-01,
161,4.00e-03,3.40e-01,
162,4.80e-03,3.40e-01,
163,4.80e-03,3.40e-01,
164,4.00e-03,3.40e-01,
165,4.00e-03,3.40e-01,
166,3.20e-03,3.40e-01,
167,3.20e-03,3.40e-01,
168,3.20e-03,3.40e-01,
169,3.20e-03,3.40e-01,
170,4.00e-03,3.40e-01,
171,4.00e-03,3.40e-01,
172,4.00e-03,3.40e-01,
173,4.80e-03,3.40e-01,
174,4.00e-03,3.40e-01,
175,4.00e-03,3.40e-01,
176,1.60e-03,3.40e-01,
177,4.80e-03,3.40e-01,
178,4.00e-03,3.40e-01,
179,4.80e-03,3.40e-01,
180,3.20e-03,3.40e-01,
181,4.00e-03,3.40e-01,
182,3.20e-03,3.40e-01,
183,4.00e-03,3.40e-01,
184,4.00e-03,3.40e-01,
185,1.60e-03,3.20e-01,
186,4.00e-03,3.40e-01,
187,4.80e-03,3.40e-01,
188,4.00e-03,3.40e-01,
189,4.00e-03,3.40e-01,
190,3.20e-03,3.40e-01,
191,4.00e-03,3.20e-01,
192,1.60e-03,3.40e-01,
193,3.20e-03,3.40e-01,
194,4.00e-03,3.40e-01,
195,4.00e-03,3.20e-01,
196,3.20e-03,3.40e-01,
197,4.00e-03,3.20e-01,
198,4.00e-03,3.40e-01,
199,4.00e-03,3.20e-01,
200,3.20e-03,3.40e-01,
201,4.00e-03,3.20e-01,
202,4.00e-03,3.40e-01,
203,4.80e-03,3.20e-01,
204,3.20e-03,3.40e-01,
205,7.20e-03,3.20e-01,
206,3.20e-03,3.40e-01,
207,7.20e-03,3.20e-01,
208,3.20e-03,3.40e-01,
209,3.20e-03,3.20e-01,
210,4.00e-03,3.40e-01,
211,4.80e-03,3.20e-01,
212,4.00e-03,3.40e-01,
213,6.40e-03,3.20e-01,
214,3.20e-03,3.40e-01,
215,4.00e-03,3.20e-01,
216,3.20e-03,3.40e-01,
217,3.20e-03,3.20e-01,
218,3.20e-03,3.20e-01,
219,4.80e-03,3.20e-01,
220,3.20e-03,3.40e-01,
221,4.80e-03,3.20e-01,
222,3.20e-03,3.20e-01,
223,4.80e-03,3.20e-01,
224,4.80e-03,3.40e-01,
225,4.80e-03,3.20e-01,
226,4.00e-03,3.40e-01,
227,6.40e-03,3.20e-01,
228,4.00e-03,3.20e-01,
229,6.40e-03,3.20e-01,
230,4.00e-03,3.20e-01,
231,6.40e-03,3.20e-01,
232,4.80e-03,3.40e-01,
233,4.80e-03,3.20e-01,
234,4.00e-03,3.20e-01,
235,7.20e-03,3.20e-01,
236,4.80e-03,3.20e-01,
237,8.00e-03,3.20e-01,
238,4.80e-03,3.20e-01,
239,6.40e-03,3.20e-01,
240,6.40e-03,3.20e-01,
241,4.80e-03,3.20e-01,
242,4.80e-03,3.20e-01,
243,6.40e-03,3.20e-01,
244,6.40e-03,3.20e-01,
245,7.20e-03,3.20e-01,
246,4.80e-03,3.20e-01,
247,6.40e-03,3.20e-01,
248,4.00e-03,3.20e-01,
249,6.40e-03,3.20e-01,
250,7.20e-03,3.20e-01,
251,9.60e-03,3.20e-01,
252,4.00e-03,3.20e-01,
253,6.40e-03,3.20e-01,
254,6.40e-03,3.20e-01,
255,6.40e-03,3.20e-01,
256,6.40e-03,3.20e-01,
257,6.40e-03,3.20e-01,
258,6.40e-03,3.20e-01,
259,7.20e-03,3.20e-01,
260,4.80e-03,3.20e-01,
261,7.20e-03,3.20e-01,
262,7.20e-03,3.20e-01,
263,8.00e-03,3.20e-01,
264,4.80e-03,3.20e-01,
265,4.80e-03,3.20e-01,
266,6.40e-03,3.20e-01,
267,7.20e-03,3.20e-01,
268,6.40e-03,3.20e-01,
269,8.00e-03,3.20e-01,
270,6.40e-03,3.20e-01,
271,6.40e-03,3.20e-01,
272,7.20e-03,3.20e-01,
273,6.40e-03,3.20e-01,
274,7.20e-03,3.20e-01,
275,7.20e-03,3.20e-01,
276,4.80e-03,3.20e-01,
277,8.00e-03,3.20e-01,
278,7.20e-03,3.20e-01,
279,7.20e-03,2.80e-01,
280,6.40e-03,3.20e-01,
281,7.20e-03,3.20e-01,
282,7.20e-03,3.20e-01,
283,7.20e-03,2.80e-01,
284,7.20e-03,3.20e-01,
285,9.60e-03,2.80e-01,
286,6.40e-03,3.20e-01,
287,6.40e-03,3.20e-01,
288,7.20e-03,3.20e-01,
289,4.80e-03,2.80e-01,
290,7.20e-03,3.20e-01,
291,8.00e-03,2.80e-01,
292,8.00e-03,3.20e-01,
293,9.60e-03,2.80e-01,
294,6.40e-03,3.20e-01,
295,8.00e-03,2.80e-01,
296,6.40e-03,3.20e-01,
297,6.40e-03,2.80e-01,
298,7.20e-03,3.20e-01,
299,8.00e-03,2.80e-01,
300,7.20e-03,3.20e-01,
301,8.00e-03,2.80e-01,
302,7.20e-03,2.80e-01,
303,6.40e-03,2.80e-01,
304,7.20e-03,3.20e-01,
305,8.00e-03,2.80e-01,
306,8.00e-03,3.20e-01,
307,9.60e-03,2.80e-01,
308,7.20e-03,3.20e-01,
309,7.20e-03,2.80e-01,
310,7.20e-03,2.80e-01,
311,8.00e-03,2.80e-01,
312,6.40e-03,3.20e-01,
313,6.40e-03,2.80e-01,
314,9.60e-03,2.80e-01,
315,9.60e-03,2.80e-01,
316,4.80e-03,2.80e-01,
317,8.00e-03,2.80e-01,
318,7.20e-03,2.80e-01,
319,8.00e-03,2.80e-01,
320,8.00e-03,3.20e-01,
321,7.20e-03,2.80e-01,
322,8.00e-03,2.80e-01,
323,9.60e-03,2.80e-01,
324,8.00e-03,2.80e-01,
325,7.20e-03,2.80e-01,
326,7.20e-03,2.80e-01,
327,8.00e-03,2.80e-01,
328,6.40e-03,2.80e-01,
329,8.00e-03,2.80e-01,
330,9.60e-03,2.80e-01,
331,1.04e-02,2.80e-01,
332,7.20e-03,2.80e-01,
333,8.00e-03,2.80e-01,
334,8.00e-03,2.80e-01,
335,7.20e-03,2.80e-01,
336,6.40e-03,2.80e-01,
337,7.20e-03,2.80e-01,
338,9.60e-03,2.80e-01,
339,8.00e-03,2.80e-01,
340,7.20e-03,2.80e-01,
341,7.20e-03,2.80e-01,
342,7.20e-03,2.80e-01,
343,7.20e-03,2.80e-01,
344,8.00e-03,2.80e-01,
345,4.80e-03,2.80e-01,
346,6.40e-03,2.80e-01,
347,8.00e-03,2.80e-01,
348,8.00e-03,2.80e-01,
349,8.00e-03,2.80e-01,
350,8.00e-03,2.80e-01,
351,9.60e-03,2.80e-01,
352,4.80e-03,2.80e-01,
353,8.00e-03,2.80e-01,
354,6.40e-03,2.80e-01,
355,8.00e-03,2.80e-01,
356,7.20e-03,2.80e-01,
357,7.20e-03,2.80e-01,
358,7.20e-03,2.80e-01,
359,7.20e-03,2.80e-01,
360,7.20e-03,2.80e-01,
361,7.20e-03,2.80e-01,
362,8.00e-03,2.80e-01,
363,8.00e-03,2.60e-01,
364,8.00e-03,2.80e-01,
365,8.00e-03,2.60e-01,
366,6.40e-03,2.80e-01,
367,7.20e-03,2.80e-01,
368,7.20e-03,2.80e-01,
369,6.40e-03,2.60e-01,
370,7.20e-03,2.80e-01,
371,8.00e-03,2.60e-01,
372,7.20e-03,2.80e-01,
373,8.00e-03,2.60e-01,
374,8.00e-03,2.80e-01,
375,6.40e-03,2.60e-01,
376,4.80e-03,2.80e-01,
377,6.40e-03,2.60e-01,
378,7.20e-03,2.80e-01,
379,8.00e-03,2.60e-01,
380,6.40e-03,2.80e-01,
381,8.00e-03,2.60e-01,
382,6.40e-03,2.80e-01,
383,8.00e-03,2.60e-01,
384,4.80e-03,2.80e-01,
385,6.40e-03,2.60e-01,
386,7.20e-03,2.80e-01,
387,8.00e-03,2.60e-01,
388,6.40e-03,2.80e-01,
389,7.20e-03,2.60e-01,
390,7.20e-03,2.60e-01,
391,7.20e-03,2.60e-01,
392,7.20e-03,2.80e-01,
393,7.20e-03,2.60e-01,
394,7.20e-03,2.60e-01,
395,8.00e-03,2.60e-01,
396,6.40e-03,2.60e-01,
397,7.20e-03,2.60e-01,
398,4.80e-03,2.60e-01,
399,7.20e-03,2.60e-01,
400,6.40e-03,2.60e-01,
401,6.40e-03,2.60e-01,
402,6.40e-03,2.60e-01,
403,6.40e-03,2.60e-01,
404,4.80e-03,2.80e-01,
405,4.80e-03,2.60e-01,
406,4.80e-03,2.60e-01,
407,6.40e-03,2.60e-01,
408,4.80e-03,2.60e-01,
409,4.80e-03,2.60e-01,
410,4.00e-03,2.60e-01,
411,6.40e-03,2.60e-01,
412,4.80e-03,2.60e-01,
413,4.80e-03,2.60e-01,
414,6.40e-03,2.60e-01,
415,4.80e-03,2.60e-01,
416,4.00e-03,2.60e-01,
417,7.20e-03,2.60e-01,
418,7.20e-03,2.60e-01,
419,4.80e-03,2.60e-01,
420,4.00e-03,2.60e-01,
421,6.40e-03,2.60e-01,
422,4.00e-03,2.60e-01,
423,4.80e-03,2.60e-01,
424,4.80e-03,2.60e-01,
425,4.00e-03,2.60e-01,
426,4.80e-03,2.60e-01,
427,7.20e-03,2.60e-01,
428,4.00e-03,2.60e-01,
429,6.40e-03,2.60e-01,
430,4.00e-03,2.60e-01,
431,4.80e-03,2.60e-01,
432,4.80e-03,2.60e-01,
433,4.00e-03,2.60e-01,
434,4.00e-03,2.60e-01,
435,6.40e-03,2.40e-01,
436,4.80e-03,2.60e-01,
437,4.80e-03,2.60e-01,
438,4.80e-03,2.60e-01,
439,4.00e-03,2.40e-01,
440,4.00e-03,2.60e-01,
441,6.40e-03,2.40e-01,
442,4.80e-03,2.60e-01,
443,4.00e-03,2.40e-01,
444,4.00e-03,2.60e-01,
445,4.80e-03,2.40e-01,
446,4.80e-03,2.60e-01,
447,4.80e-03,2.40e-01,
448,3.20e-03,2.60e-01,
449,3.20e-03,2.40e-01,
450,4.80e-03,2.60e-01,
451,6.40e-03,2.40e-01,
452,3.20e-03,2.60e-01,
453,4.00e-03,2.40e-01,
454,1.60e-03,2.60e-01,
455,3.20e-03,2.40e-01,
456,3.20e-03,2.60e-01,
457,4.00e-03,2.40e-01,
458,1.60e-03,2.60e-01,
459,4.00e-03,2.40e-01,
460,3.20e-03,2.60e-01,
461,4.80e-03,2.40e-01,
462,3.20e-03,2.40e-01,
463,1.60e-03,2.40e-01,
464,3.20e-03,2.60e-01,
465,1.60e-03,2.40e-01,
466,3.20e-03,2.40e-01,
467,6.40e-03,2.40e-01,
468,1.60e-03,2.60e-01,
469,4.00e-03,2.40e-01,
470,3.20e-03,2.40e-01,
471,4.00e-03,2.40e-01,
472,3.20e-03,2.60e-01,
473,3.20e-03,2.40e-01,
474,4.80e-03,2.40e-01,
475,6.40e-03,2.40e-01,
476,0.00e+00,2.40e-01,
477,3.20e-03,2.40e-01,
478,4.80e-03,2.40e-01,
479,4.80e-03,2.40e-01,
480,4.00e-03,2.40e-01,
481,3.20e-03,2.40e-01,
482,3.20e-03,2.40e-01,
483,3.20e-03,2.40e-01,
484,4.00e-03,2.40e-01,
485,4.00e-03,2.40e-01,
486,1.60e-03,2.40e-01,
487,1.60e-03,2.40e-01,
488,8.00e-04,2.40e-01,
489,1.60e-03,2.40e-01,
490,1.60e-03,2.40e-01,
491,4.80e-03,2.40e-01,
492,3.20e-03,2.40e-01,
493,4.00e-03,2.40e-01,
494,3.20e-03,2.40e-01,
495,1.60e-03,2.40e-01,
496,1.60e-03,2.40e-01,
497,8.00e-04,2.40e-01,
498,1.60e-03,2.40e-01,
499,4.00e-03,2.40e-01,
500,3.20e-03,2.40e-01,
501,4.00e-03,2.40e-01,
502,1.60e-03,2.40e-01,
503,3.20e-03,2.00e-01,
504,1.60e-03,2.40e-01,
505,1.60e-03,2.40e-01,
506,1.60e-03,2.40e-01,
507,3.20e-03,2.40e-01,
508,1.60e-03,2.40e-01,
509,4.00e-03,2.00e-01,
510,8.00e-04,2.40e-01,
511,3.20e-03,2.40e-01,
512,1.60e-03,2.40e-01,
513,8.00e-04,2.00e-01,
514,3.20e-03,2.40e-01,
515,4.00e-03,2.00e-01,
516,1.60e-03,2.40e-01,
517,4.00e-03,2.40e-01,
518,1.60e-03,2.40e-01,
519,3.20e-03,2.00e-01,
520,1.60e-03,2.40e-01,
521,8.00e-04,2.00e-01,
522,1.60e-03,2.40e-01,
523,3.20e-03,2.00e-01,
524,1.60e-03,2.40e-01,
525,1.60e-03,2.00e-01,
526,1.60e-03,2.40e-01,
527,3.20e-03,2.00e-01,
528,1.60e-03,2.40e-01,
529,0.00e+00,2.00e-01,
530,3.20e-03,2.40e-01,
531,1.60e-03,2.00e-01,
532,1.60e-03,2.40e-01,
533,1.60e-03,2.00e-01,
534,1.60e-03,2.00e-01,
535,1.60e-03,2.00e-01,
536,8.00e-04,2.40e-01,
537,1.60e-03,2.00e-01,
538,3.20e-03,2.00e-01,
539,3.20e-03,2.00e-01,
540,8.00e-04,2.40e-01,
541,1.60e-03,2.00e-01,
542,1.60e-03,2.00e-01,
543,3.20e-03,2.00e-01,
544,0.00e+00,2.00e-01,
545,1.60e-03,2.00e-01,
546,1.60e-03,2.00e-01,
547,1.60e-03,2.00e-01,
548,8.00e-04,2.00e-01,
549,3.20e-03,2.00e-01,
550,8.00e-04,2.00e-01,
551,1.60e-03,2.00e-01,
552,8.00e-04,2.00e-01,
553,3.20e-03,2.00e-01,
554,3.20e-03,2.00e-01,
555,4.00e-03,2.00e-01,
556,8.00e-04,2.00e-01,
557,3.20e-03,2.00e-01,
558,1.60e-03,2.00e-01,
559,1.60e-03,2.00e-01,
560,1.60e-03,2.00e-01,
561,8.00e-04,2.00e-01,
562,8.00e-04,2.00e-01,
563,1.60e-03,2.00e-01,
564,8.00e-04,2.00e-01,
565,1.60e-03,2.00e-01,
566,1.60e-03,2.00e-01,
567,8.00e-04,2.00e-01,
568,8.00e-04,2.00e-01,
569,8.00e-04,2.00e-01,
570,3.20e-03,2.00e-01,
571,1.60e-03,2.00e-01,
572,1.60e-03,2.00e-01,
573,1.60e-03,2.00e-01,
574,8.00e-04,2.00e-01,
575,3.20e-03,2.00e-01,
576,8.00e-04,2.00e-01,
577,1.60e-03,2.00e-01,
578,1.60e-03,2.00e-01,
579,3.20e-03,2.00e-01,
580,1.60e-03,2.00e-01,
581,1.60e-03,2.00e-01,
582,8.00e-04,2.00e-01,
583,8.00e-04,1.80e-01,
584,1.60e-03,2.00e-01,
585,8.00e-04,2.00e-01,
586,1.60e-03,2.00e-01,
587,4.00e-03,1.80e-01,
588,8.00e-04,2.00e-01,
589,4.00e-03,1.80e-01,
590,1.60e-03,2.00e-01,
591,1.60e-03,1.80e-01,
592,0.00e+00,2.00e-01,
593,8.00e-04,1.80e-01,
594,1.60e-03,2.00e-01,
595,4.00e-03,1.80e-01,
596,8.00e-04,2.00e-01,
597,3.20e-03,1.80e-01,
598,3.20e-03,2.00e-01,
599,8.00e-04,1.80e-01,
600,0.00e+00,2.00e-01,
601,1.60e-03,1.80e-01,
602,1.60e-03,2.00e-01,
603,4.00e-03,1.80e-01,
604,1.60e-03,2.00e-01,
605,3.20e-03,1.80e-01,
606,8.00e-04,2.00e-01,
607,8.00e-04,1.80e-01,
608,8.00e-04,2.00e-01,
609,8.00e-04,1.80e-01,
610,1.60e-03,1.80e-01,
611,4.80e-03,1.80e-01,
612,3.20e-03,2.00e-01,
613,3.20e-03,1.80e-01,
614,3.20e-03,1.80e-01,
615,1.60e-03,1.80e-01,
616,3.20e-03,2.00e-01,
617,1.60e-03,1.80e-01,
618,4.80e-03,1.80e-01,
619,3.20e-03,1.80e-01,
620,1.60e-03,2.00e-01,
621,4.00e-03,1.80e-01,
622,3.20e-03,1.80e-01,
623,1.60e-03,1.80e-01,
624,1.60e-03,1.80e-01,
625,3.20e-03,1.80e-01,
626,3.20e-03,1.80e-01,
627,4.80e-03,1.80e-01,
628,3.20e-03,1.80e-01,
629,1.60e-03,1.80e-01,
630,4.00e-03,1.80e-01,
631,4.00e-03,1.80e-01,
632,8.00e-04,1.80e-01,
633,3.20e-03,1.80e-01,
634,3.20e-03,1.80e-01,
635,4.00e-03,1.80e-01,
636,8.00e-04,1.80e-01,
637,4.00e-03,1.80e-01,
638,3.20e-03,1.80e-01,
639,8.00e-04,1.80e-01,
640,3.20e-03,1.80e-01,
641,1.60e-03,1.80e-01,
642,4.00e-03,1.80e-01,
643,4.00e-03,1.80e-01,
644,8.00e-04,1.80e-01,
645,3.20e-03,1.80e-01,
646,3.20e-03,1.80e-01,
647,4.00e-03,1.80e-01,
648,8.00e-04,1.80e-01,
649,4.00e-03,1.80e-01,
650,3.20e-03,1.80e-01,
651,6.40e-03,1.80e-01,
652,4.00e-03,1.80e-01,
653,4.80e-03,1.80e-01,
654,4.00e-03,1.80e-01,
655,3.20e-03,1.80e-01,
656,1.60e-03,1.80e-01,
657,3.20e-03,1.80e-01,
658,4.80e-03,1.80e-01,
659,4.00e-03,1.80e-01,
660,4.00e-03,1.80e-01,
661,4.80e-03,1.80e-01,
662,4.00e-03,1.80e-01,
663,4.00e-03,1.60e-01,
664,3.20e-03,1.80e-01,
665,1.60e-03,1.60e-01,
666,4.80e-03,1.80e-01,
667,4.80e-03,1.60e-01,
668,4.00e-03,1.80e-01,
669,4.80e-03,1.60e-01,
670,4.00e-03,1.80e-01,
671,6.40e-03,1.60e-01,
672,6.40e-03,1.80e-01,
673,4.80e-03,1.60e-01,
674,4.80e-03,1.80e-01,
675,4.80e-03,1.60e-01,
676,3.20e-03,1.80e-01,
677,4.00e-03,1.60e-01,
678,1.60e-03,1.80e-01,
679,4.00e-03,1.60e-01,
680,4.00e-03,1.80e-01,
681,3.20e-03,1.60e-01,
682,4.80e-03,1.80e-01,
683,4.80e-03,1.60e-01,
684,4.80e-03,1.80e-01,
685,7.20e-03,1.60e-01,
686,1.60e-03,1.80e-01,
687,4.80e-03,1.60e-01,
688,4.00e-03,1.80e-01,
689,4.80e-03,1.60e-01,
690,4.80e-03,1.80e-01,
691,4.80e-03,1.60e-01,
692,4.00e-03,1.80e-01,
693,4.80e-03,1.60e-01,
694,4.80e-03,1.60e-01,
695,6.40e-03,1.60e-01,
696,4.00e-03,1.80e-01,
697,4.00e-03,1.60e-01,
698,6.40e-03,1.60e-01,
699,6.40e-03,1.60e-01,
700,4.80e-03,1.60e-01,
701,7.20e-03,1.60e-01,
702,6.40e-03,1.60e-01,
703,6.40e-03,1.60e-01,
704,4.80e-03,1.80e-01,
705,4.80e-03,1.60e-01,
706,6.40e-03,1.60e-01,
707,7.20e-03,1.60e-01,
708,4.80e-03,1.60e-01,
709,6.40e-03,1.60e-01,
710,4.80e-03,1.60e-01,
711,6.40e-03,1.60e-01,
712,3.20e-03,1.60e-01,
713,4.00e-03,1.60e-01,
714,4.80e-03,1.60e-01,
715,4.80e-03,1.60e-01,
716,4.80e-03,1.60e-01,
717,6.40e-03,1.60e-01,
718,4.80e-03,1.60e-01,
719,6.40e-03,1.60e-01,
720,4.00e-03,1.60e-01,
721,4.80e-03,1.60e-01,
722,4.80e-03,1.60e-01,
723,6.40e-03,1.60e-01,
724,4.00e-03,1.60e-01,
725,4.00e-03,1.60e-01,
726,4.80e-03,1.60e-01,
727,4.80e-03,1.60e-01,
728,4.00e-03,1.60e-01,
729,4.80e-03,1.60e-01,
730,6.40e-03,1.60e-01,
731,7.20e-03,1.20e-01,
732,4.00e-03,1.60e-01,
733,6.40e-03,1.20e-01,
734,4.80e-03,1.60e-01,
735,6.40e-03,1.60e-01,
736,4.80e-03,1.60e-01,
737,4.80e-03,1.60e-01,
738,4.80e-03,1.60e-01,
739,7.20e-03,1.60e-01,
740,4.00e-03,1.60e-01,
741,7.20e-03,1.20e-01,
742,4.80e-03,1.60e-01,
743,6.40e-03,1.60e-01,
744,4.80e-03,1.60e-01,
745,4.00e-03,1.60e-01,
746,4.80e-03,1.20e-01,
747,7.20e-03,1.60e-01,
748,6.40e-03,1.60e-01,
749,7.20e-03,1.20e-01,
750,4.80e-03,1.60e-01,
751,4.80e-03,1.20e-01,
752,3.20e-03,1.80e-01,
753,6.40e-03,1.60e-01,
754,7.20e-03,1.80e-01,
755,8.00e-03,1.80e-01,
756,8.00e-03,1.80e-01,
757,9.60e-03,1.20e-01,
758,8.00e-03,1.00e-01,
759,7.20e-03,6.00e-02,
760,4.80e-03,4.00e-02,
761,4.00e-03,2.00e-02,
762,8.00e-03,6.00e-02,
763,6.40e-03,1.20e-01,
764,7.20e-03,1.80e-01,
765,4.00e-03,1.80e-01,
766,3.20e-03,2.00e-01,
767,4.80e-03,1.80e-01,
768,6.40e-03,1.80e-01,
769,4.00e-03,1.20e-01,
770,1.60e-03,1.20e-01,
771,6.40e-03,1.20e-01,
772,4.00e-03,1.20e-01,
773,4.00e-03,1.20e-01,
774,6.40e-03,1.80e-01,
775,7.20e-03,2.00e-01,
776,6.40e-03,2.00e-01,
777,4.80e-03,1.80e-01,
778,4.80e-03,1.60e-01,
779,8.00e-03,1.00e-01,
780,6.40e-03,6.00e-02,
781,7.20e-03,4.00e-02,
782,7.20e-03,6.00e-02,
783,7.20e-03,6.00e-02,
784,4.80e-03,1.20e-01,
785,4.00e-03,1.20e-01,
786,6.40e-03,1.60e-01,
787,8.00e-03,1.60e-01,
788,4.80e-03,1.80e-01,
789,4.00e-03,1.20e-01,
790,4.80e-03,1.00e-01,
791,4.80e-03,6.00e-02,
792,1.60e-03,1.00e-01,
793,4.00e-03,1.20e-01,
794,6.40e-03,1.80e-01,
795,4.80e-03,1.80e-01,
796,8.00e-04,2.00e-01,
797,4.80e-03,1.80e-01,
798,7.20e-03,1.60e-01,
799,4.80e-03,1.00e-01,
800,4.00e-03,1.00e-01,
801,4.80e-03,6.00e-02,
802,4.80e-03,6.00e-02,
803,4.80e-03,6.00e-02,
804,4.00e-03,1.00e-01,
805,7.20e-03,1.20e-01,
806,6.40e-03,1.20e-01,
807,6.40e-03,1.20e-01,
808,3.20e-03,1.60e-01,
809,4.00e-03,1.00e-01,
810,4.80e-03,1.00e-01,
811,4.00e-03,6.00e-02,
812,1.60e-03,1.00e-01,
813,4.00e-03,1.00e-01,
814,4.00e-03,1.20e-01,
815,3.20e-03,1.20e-01,
816,8.00e-04,1.80e-01,
817,3.20e-03,1.60e-01,
818,3.20e-03,1.60e-01,
819,4.00e-03,1.60e-01,
820,8.00e-04,1.60e-01,
821,4.80e-03,1.20e-01,
822,1.60e-03,1.20e-01,
823,4.00e-03,1.00e-01,
824,3.20e-03,1.00e-01,
825,6.40e-03,1.00e-01,
826,6.40e-03,1.20e-01,
827,7.20e-03,1.00e-01,
828,3.20e-03,1.20e-01,
829,4.80e-03,1.00e-01,
830,4.00e-03,1.00e-01,
831,4.00e-03,6.00e-02,
832,1.60e-03,1.00e-01,
833,3.20e-03,1.00e-01,
834,4.00e-03,1.00e-01,
835,3.20e-03,1.00e-01,
836,1.60e-03,1.20e-01,
837,1.60e-03,1.20e-01,
838,3.20e-03,1.60e-01,
839,4.00e-03,1.20e-01,
840,8.00e-04,1.60e-01,
841,4.00e-03,1.20e-01,
842,3.20e-03,1.20e-01,
843,3.20e-03,1.00e-01,
844,1.60e-03,1.20e-01,
845,4.80e-03,1.20e-01,
846,3.20e-03,1.20e-01,
847,4.80e-03,1.00e-01,
848,8.00e-04,1.20e-01,
849,4.00e-03,1.00e-01,
850,4.00e-03,1.00e-01,
851,6.40e-03,6.00e-02,
852,4.00e-03,1.00e-01,
853,3.20e-03,6.00e-02,
854,4.00e-03,6.00e-02,
855,4.80e-03,6.00e-02,
856,1.60e-03,1.00e-01,
857,4.00e-03,1.00e-01,
858,1.60e-03,1.00e-01,
859,4.00e-03,1.00e-01,
860,1.60e-03,1.20e-01,
861,3.20e-03,1.00e-01,
862,1.60e-03,1.20e-01,
863,1.60e-03,1.00e-01,
864,8.00e-04,1.20e-01,
865,1.60e-03,1.00e-01,
866,1.60e-03,1.20e-01,
867,3.20e-03,1.20e-01,
868,0.00e+00,1.20e-01,
869,1.60e-03,1.20e-01,
870,3.20e-03,1.20e-01,
