Lab 5/scope_data/Task1-1.csv

X,CH1,CH2,Start,Increment,
Sequence,Volt,Volt,-2.270000e-05,2.000000e-09
0,2.80e-02,-8.80e+00,
1,3.20e-02,-8.80e+00,
2,3.20e-02,-8.00e+00,
3,3.20e-02,-8.80e+00,
4,3.20e-02,-8.80e+00,
5,3.20e-02,-8.80e+00,
6,3.20e-02,-8.00e+00,
7,3.20e-02,-8.80e+00,
8,2.80e-02,-8.80e+00,
9,3.20e-02,-8.80e+00,
10,3.20e-02,-8.00e+00,
11,3.20e-02,-8.80e+00,
12,3.20e-02,-8.80e+00,
13,3.20e-02,-8.80e+00,
14,3.20e-02,-8.00e+00,
15,3.20e-02,-8.80e+00,
16,3.20e-02,-8.80e+00,
17,3.20e-02,-8.80e+00,
18,3.20e-02,-8.00e+00,
19,3.20e-02,-8.80e+00,
20,3.20e-02,-8.80e+00,
21,3.20e-02,-8.80e+00,
22,3.20e-02,-8.00e+00,
23,3.20e-02,-8.80e+00,
24,3.20e-02,-8.00e+00,
25,3.20e-02,-8.80e+00,
26,3.20e-02,-8.00e+00,
27,3.20e-02,-8.80e+00,
28,3.20e-02,-8.80e+00,
29,3.20e-02,-8.80e+00,
30,3.20e-02,-8.00e+00,
31,3.20e-02,-9.60e+00,
32,3.20e-02,-8.00e+00,
33,4.00e-02,-8.80e+00,
34,3.20e-02,-8.80e+00,
35,3.20e-02,-8.80e+00,
36,4.00e-02,-8.80e+00,
37,3.20e-02,-8.80e+00,
38,4.00e-02,-8.00e+00,
39,4.00e-02,-8.80e+00,
40,3.20e-02,-8.80e+00,
41,4.00e-02,-8.80e+00,
42,3.20e-02,-8.00e+00,
43,3.20e-02,-8.80e+00,
44,4.00e-02,-8.80e+00,
45,3.20e-02,-8.80e+00,
46,4.00e-02,-8.00e+00,
47,3.20e-02,-8.80e+00,
48,4.00e-02,-8.80e+00,
49,4.00e-02,-8.80e+00,
50,4.00e-02,-8.00e+00,
51,4.00e-02,-8.80e+00,
52,3.20e-02,-8.80e+00,
53,4.00e-02,-8.80e+00,
54,4.00e-02,-8.00e+00,
55,4.00e-02,-8.80e+00,
56,4.00e-02,-8.80e+00,
57,4.00e-02,-8.80e+00,
58,4.00e-02,-8.00e+00,
59,4.00e-02,-8.80e+00,
60,4.00e-02,-8.80e+00,
61,4.00e-02,-8.80e+00,
62,4.00e-02,-8.00e+00,
63,4.00e-02,-8.80e+00,
64,4.00e-02,-8.80e+00,
65,4.00e-02,-8.80e+00,
66,4.00e-02,-8.00e+00,
67,4.00e-02,-8.80e+00,
68,4.00e-02,-8.80e+00,
69,4.00e-02,-8.80e+00,
70,4.40e-02,-8.00e+00,
71,4.00e-02,-8.80e+00,
72,4.00e-02,-8.80e+00,
73,4.00e-02,-8.80e+00,
74,4.00e-02,-8.00e+00,
75,4.00e-02,-8.80e+00,
76,4.00e-02,-8.00e+00,
77,4.40e-02,-8.80e+00,
78,4.40e-02,-8.00e+00,
79,4.00e-02,-8.80e+00,
80,4.00e-02,-8.80e+00,
81,4.40e-02,-8.80e+00,
82,4.00e-02,-8.00e+00,
83,4.40e-02,-8.80e+00,
84,4.40e-02,-8.00e+00,
85,4.00e-02,-8.80e+00,
86,4.00e-02,-8.00e+00,
87,4.00e-02,-8.80e+00,
88,4.00e-02,-8.80e+00,
89,4.40e-02,-8.80e+00,
90,4.00e-02,-8.00e+00,
91,4.40e-02,-8.80e+00,
92,4.40e-02,-8.80e+00,
93,4.40e-02,-8.80e+00,
94,4.00e-02,-8.00e+00,
95,4.00e-02,-8.80e+00,
96,4.40e-02,-8.80e+00,
97,4.40e-02,-8.80e+00,
98,4.40e-02,-8.00e+00,
99,4.40e-02,-8.80e+00,
100,4.40e-02,-8.80e+00,
101,4.40e-02,-8.80e+00,
102,4.40e-02,-8.00e+00,
103,4.40e-02,-8.80e+00,
104,4.40e-02,-8.80e+00,
105,4.40e-02,-8.80e+00,
106,4.40e-02,-8.00e+00,
107,4.40e-02,-8.80e+00,
108,4.40e-02,-8.80e+00,
109,4.40e-02,-8.80e+00,
110,4.40e-02,-8.00e+00,
111,4.00e-02,-8.80e+00,
112,4.40e-02,-8.00e+00,
113,4.80e-02,-8.80e+00,
114,4.40e-02,-8.00e+00,
115,4.40e-02,-8.80e+00,
116,4.40e-02,-8.80e+00,
117,4.40e-02,-8.80e+00,
118,4.40e-02,-8.00e+00,
119,4.40e-02,-8.80e+00,
120,4.40e-02,-8.80e+00,
121,4.40e-02,-8.80e+00,
122,4.40e-02,-8.00e+00,
123,4.40e-02,-8.80e+00,
124,4.40e-02,-8.80e+00,
125,4.40e-02,-8.80e+00,
126,4.80e-02,-8.00e+00,
127,4.40e-02,-8.80e+00,
128,4.40e-02,-8.80e+00,
129,4.80e-02,-8.80e+00,
130,4.80e-02,-8.00e+00,
131,4.40e-02,-8.80e+00,
132,4.40e-02,-8.80e+00,
133,4.80e-02,-8.80e+00,
134,4.80e-02,-8.00e+00,
135,4.80e-02,-8.80e+00,
136,4.40e-02,-8.80e+00,
137,4.80e-02,-8.80e+00,
138,4.40e-02,-8.00e+00,
139,4.80e-02,-8.80e+00,
140,4.40e-02,-8.00e+00,
141,4.80e-02,-8.80e+00,
142,4.80e-02,-8.00e+00,
143,4.80e-02,-8.80e+00,
144,4.80e-02,-8.00e+00,
145,4.80e-02,-8.80e+00,
146,4.80e-02,-8.00e+00,
147,4.80e-02,-8.80e+00,
148,4.80e-02,-8.80e+00,
149,4.80e-02,-8.80e+00,
150,4.80e-02,-8.00e+00,
151,4.80e-02,-8.80e+00,
152,4.80e-02,-8.80e+00,
153,4.80e-02,-8.80e+00,
154,4.80e-02,-8.00e+00,
155,4.80e-02,-8.80e+00,
156,4.80e-02,-8.80e+00,
157,4.80e-02,-8.80e+00,
158,4.80e-02,-8.00e+00,
159,4.80e-02,-8.80e+00,
160,4.80e-02,-8.80e+00,
161,4.80e-02,-8.80e+00,
162,4.80e-02,-8.00e+00,
163,4.80e-02,-8.80e+00,
164,4.80e-02,-8.00e+00,
165,4.80e-02,-8.80e+00,
166,4.80e-02,-8.00e+00,
167,4.80e-02,-8.80e+00,
168,4.80e-02,-8.80e+00,
169,4.80e-02,-8.80e+00,
170,5.20e-02,-8.00e+00,
171,4.80e-02,-8.80e+00,
172,5.20e-02,-8.80e+00,
173,5.20e-02,-8.80e+00,
174,5.20e-02,-8.00e+00,
175,4.80e-02,-8.80e+00,
176,4.80e-02,-8.00e+00,
177,5.20e-02,-8.80e+00,
178,4.80e-02,-8.00e+00,
179,5.20e-02,-8.80e+00,
180,5.20e-02,-8.80e+00,
181,5.20e-02,-8.80e+00,
182,5.20e-02,-8.00e+00,
183,4.80e-02,-8.80e+00,
184,4.80e-02,-8.80e+00,
185,5.20e-02,-8.80e+00,
186,5.20e-02,-8.00e+00,
187,5.20e-02,-8.80e+00,
188,5.20e-02,-8.00e+00,
189,5.20e-02,-8.80e+00,
190,5.20e-02,-8.00e+00,
191,5.20e-02,-8.80e+00,
192,5.20e-02,-8.00e+00,
193,5.20e-02,-8.80e+00,
194,5.20e-02,-8.00e+00,
195,5.20e-02,-8.80e+00,
196,5.20e-02,-8.80e+00,
197,5.20e-02,-8.80e+00,
198,5.20e-02,-8.00e+00,
199,5.20e-02,-8.80e+00,
200,5.20e-02,-8.80e+00,
201,5.20e-02,-8.80e+00,
202,5.20e-02,-8.00e+00,
203,5.20e-02,-8.80e+00,
204,5.20e-02,-8.00e+00,
205,5.20e-02,-8.80e+00,
206,5.20e-02,-8.00e+00,
207,5.20e-02,-8.80e+00,
208,5.20e-02,-8.80e+00,
209,5.20e-02,-8.80e+00,
210,5.60e-02,-8.00e+00,
211,5.20e-02,-8.80e+00,
212,5.20e-02,-8.00e+00,
213,5.20e-02,-8.80e+00,
214,5.60e-02,-8.00e+00,
215,5.20e-02,-8.80e+00,
216,5.20e-02,-8.80e+00,
217,5.60e-02,-8.80e+00,
218,5.60e-02,-8.00e+00,
219,5.60e-02,-8.80e+00,
220,5.20e-02,-8.80e+00,
221,5.60e-02,-8.80e+00,
222,5.60e-02,-8.00e+00,
223,5.20e-02,-8.80e+00,
224,5.20e-02,-8.00e+00,
225,5.60e-02,-8.80e+00,
226,5.60e-02,-8.00e+00,
227,5.60e-02,-8.80e+00,
228,5.60e-02,-8.00e+00,
229,5.20e-02,-8.80e+00,
230,5.60e-02,-8.00e+00,
231,5.60e-02,-9.60e+00,
232,5.20e-02,-8.00e+00,
233,5.60e-02,-8.80e+00,
234,5.60e-02,-8.00e+00,
235,5.60e-02,-8.80e+00,
236,5.60e-02,-8.80e+00,
237,5.60e-02,-8.80e+00,
238,5.60e-02,-8.00e+00,
239,5.60e-02,-8.80e+00,
240,5.60e-02,-8.00e+00,
241,5.60e-02,-8.80e+00,
242,5.60e-02,-8.00e+00,
243,5.60e-02,-8.80e+00,
244,5.60e-02,-8.80e+00,
245,6.00e-02,-8.80e+00,
246,5.60e-02,-8.00e+00,
247,5.60e-02,-8.80e+00,
248,5.60e-02,-8.80e+00,
249,5.60e-02,-8.80e+00,
250,6.00e-02,-8.00e+00,
251,5.60e-02,-8.80e+00,
252,6.00e-02,-8.00e+00,
253,5.60e-02,-8.80e+00,
254,5.60e-02,-8.00e+00,
255,5.60e-02,-8.80e+00,
256,5.60e-02,-8.00e+00,
257,6.00e-02,-8.80e+00,
258,6.00e-02,-8.00e+00,
259,5.60e-02,-8.80e+00,
260,5.60e-02,-8.80e+00,
261,5.60e-02,-8.80e+00,
262,6.00e-02,-8.00e+00,
263,6.00e-02,-8.80e+00,
264,5.60e-02,-8.00e+00,
265,6.00e-02,-8.80e+00,
266,6.00e-02,-8.00e+00,
267,5.60e-02,-8.80e+00,
268,6.00e-02,-8.00e+00,
269,5.60e-02,-8.80e+00,
270,6.00e-02,-8.00e+00,
271,6.00e-02,-8.80e+00,
272,5.60e-02,-8.00e+00,
273,6.00e-02,-8.80e+00,
274,6.00e-02,-8.00e+00,
275,6.00e-02,-8.80e+00,
276,6.00e-02,-8.00e+00,
277,6.00e-02,-8.80e+00,
278,6.00e-02,-8.00e+00,
279,6.00e-02,-8.80e+00,
280,6.00e-02,-8.80e+00,
281,6.00e-02,-8.80e+00,
282,6.00e-02,-8.00e+00,
283,6.00e-02,-8.80e+00,
284,6.00e-02,-8.00e+00,
285,6.00e-02,-8.80e+00,
286,6.00e-02,-8.00e+00,
287,6.00e-02,-8.80e+00,
288,6.00e-02,-8.00e+00,
289,6.00e-02,-8.80e+00,
290,6.00e-02,-8.00e+00,
291,6.00e-02,-8.80e+00,
292,6.00e-02,-8.00e+00,
293,6.40e-02,-8.80e+00,
294,6.00e-02,-8.00e+00,
295,6.00e-02,-8.80e+00,
296,6.00e-02,-8.00e+00,
297,6.00e-02,-8.80e+00,
298,6.40e-02,-8.00e+00,
299,6.40e-02,-8.80e+00,
300,6.40e-02,-8.00e+00,
301,6.40e-02,-8.80e+00,
302,6.40e-02,-8.00e+00,
303,6.00e-02,-8.80e+00,
304,6.00e-02,-8.00e+00,
305,6.00e-02,-8.80e+00,
306,6.40e-02,-8.00e+00,
307,6.40e-02,-8.80e+00,
308,6.00e-02,-8.00e+00,
309,6.40e-02,-8.80e+00,
310,6.40e-02,-8.00e+00,
311,6.00e-02,-8.80e+00,
312,6.40e-02,-8.00e+00,
313,6.40e-02,-8.80e+00,
314,6.40e-02,-8.00e+00,
315,6.40e-02,-8.80e+00,
316,6.40e-02,-8.00e+00,
317,6.40e-02,-8.80e+00,
318,6.40e-02,-8.00e+00,
319,6.40e-02,-8.80e+00,
320,6.40e-02,-8.80e+00,
321,6.40e-02,-8.80e+00,
322,6.40e-02,-8.00e+00,
323,6.40e-02,-8.80e+00,
324,6.40e-02,-8.00e+00,
325,6.40e-02,-8.80e+00,
326,6.40e-02,-8.00e+00,
327,6.40e-02,-8.80e+00,
328,6.40e-02,-8.00e+00,
329,6.40e-02,-8.80e+00,
330,6.40e-02,-8.00e+00,
331,6.40e-02,-8.80e+00,
332,6.40e-02,-8.80e+00,
333,6.40e-02,-8.80e+00,
334,6.40e-02,-8.00e+00,
335,6.40e-02,-8.80e+00,
336,6.40e-02,-8.00e+00,
337,6.40e-02,-8.80e+00,
338,6.40e-02,-8.00e+00,
339,6.40e-02,-8.80e+00,
340,6.80e-02,-8.80e+00,
341,6.80e-02,-8.80e+00,
342,6.40e-02,-8.00e+00,
343,6.40e-02,-8.80e+00,
344,6.80e-02,-8.00e+00,
345,6.80e-02,-8.80e+00,
346,6.80e-02,-8.00e+00,
347,6.80e-02,-8.80e+00,
348,6.80e-02,-8.00e+00,
349,6.80e-02,-8.80e+00,
350,6.80e-02,-8.00e+00,
351,6.40e-02,-8.80e+00,
352,6.40e-02,-8.00e+00,
353,6.80e-02,-8.80e+00,
354,6.80e-02,-8.00e+00,
355,6.80e-02,-8.80e+00,
356,6.80e-02,-8.00e+00,
357,6.80e-02,-8.80e+00,
358,6.80e-02,-8.00e+00,
359,6.80e-02,-8.80e+00,
360,6.80e-02,-8.00e+00,
361,6.80e-02,-8.80e+00,
362,6.80e-02,-8.00e+00,
363,6.80e-02,-8.80e+00,
364,6.80e-02,-8.00e+00,
365,6.40e-02,-8.80e+00,
366,6.80e-02,-8.00e+00,
367,6.80e-02,-8.80e+00,
368,6.80e-02,-8.00e+00,
369,6.80e-02,-8.80e+00,
370,6.80e-02,-8.00e+00,
371,6.80e-02,-8.80e+00,
372,6.80e-02,-8.00e+00,
373,6.80e-02,-8.80e+00,
374,6.80e-02,-8.00e+00,
375,6.80e-02,-8.80e+00,
376,6.80e-02,-8.00e+00,
377,7.20e-02,-8.80e+00,
378,6.80e-02,-8.00e+00,
379,6.80e-02,-8.80e+00,
380,7.20e-02,-8.00e+00,
381,6.80e-02,-8.80e+00,
382,6.80e-02,-8.00e+00,
383,6.80e-02,-8.80e+00,
384,6.80e-02,-8.00e+00,
385,7.20e-02,-8.80e+00,
386,6.80e-02,-8.00e+00,
387,6.80e-02,-8.80e+00,
388,6.80e-02,-8.00e+00,
389,6.80e-02,-8.80e+00,
390,7.20e-02,-8.00e+00,
391,7.20e-02,-8.80e+00,
392,6.80e-02,-8.00e+00,
393,7.20e-02,-8.80e+00,
394,7.20e-02,-8.00e+00,
395,6.80e-02,-8.80e+00,
396,7.20e-02,-8.00e+00,
397,7.20e-02,-8.80e+00,
398,7.20e-02,-8.00e+00,
399,7.20e-02,-8.80e+00,
400,6.80e-02,-8.00e+00,
401,7.20e-02,-8.80e+00,
402,7.20e-02,-8.00e+00,
403,7.20e-02,-8.80e+00,
404,7.20e-02,-8.00e+00,
405,7.20e-02,-8.80e+00,
406,7.20e-02,-8.00e+00,
407,7.20e-02,-8.80e+00,
408,6.80e-02,-8.00e+00,
409,7.20e-02,-8.80e+00,
410,7.20e-02,-8.00e+00,
411,7.20e-02,-8.80e+00,
412,7.20e-02,-8.00e+00,
413,7.20e-02,-8.80e+00,
414,7.20e-02,-8.00e+00,
415,7.20e-02,-8.80e+00,
416,7.20e-02,-8.00e+00,
417,7.20e-02,-8.80e+00,
418,7.20e-02,-8.00e+00,
419,7.20e-02,-8.80e+00,
420,7.20e-02,-8.00e+00,
421,7.20e-02,-8.80e+00,
422,7.60e-02,-8.00e+00,
423,7.20e-02,-8.80e+00,
424,7.20e-02,-8.00e+00,
425,7.20e-02,-8.80e+00,
426,7.20e-02,-8.00e+00,
427,7.60e-02,-8.80e+00,
428,7.20e-02,-8.00e+00,
429,7.20e-02,-8.80e+00,
430,7.60e-02,-8.00e+00,
431,7.60e-02,-8.80e+00,
432,7.20e-02,-8.00e+00,
433,7.60e-02,-8.80e+00,
434,7.20e-02,-8.00e+00,
435,7.20e-02,-8.80e+00,
436,7.60e-02,-8.80e+00,
437,7.20e-02,-8.80e+00,
438,7.60e-02,-8.00e+00,
439,7.60e-02,-8.80e+00,
440,7.20e-02,-8.00e+00,
441,7.60e-02,-8.80e+00,
442,7.60e-02,-8.00e+00,
443,7.60e-02,-8.80e+00,
444,7.60e-02,-8.00e+00,
445,7.60e-02,-8.80e+00,
446,7.60e-02,-8.00e+00,
447,7.60e-02,-8.80e+00,
448,7.60e-02,-8.00e+00,
449,7.60e-02,-8.80e+00,
450,7.60e-02,-8.00e+00,
451,7.60e-02,-8.80e+00,
452,7.60e-02,-8.00e+00,
453,7.60e-02,-8.80e+00,
454,7.60e-02,-8.00e+00,
455,7.60e-02,-8.80e+00,
456,7.60e-02,-8.00e+00,
457,7.60e-02,-8.80e+00,
458,7.60e-02,-8.00e+00,
459,7.60e-02,-8.80e+00,
460,7.60e-02,-8.00e+00,
461,7.60e-02,-8.80e+00,
462,7.60e-02,-8.00e+00,
463,7.60e-02,-8.80e+00,
464,7.60e-02,-8.00e+00,
465,8.00e-02,-8.80e+00,
466,7.60e-02,-8.00e+00,
467,7.60e-02,-8.80e+00,
468,7.60e-02,-8.00e+00,
469,7.60e-02,-8.80e+00,
470,7.60e-02,-8.00e+00,
471,7.60e-02,-8.80e+00,
472,7.60e-02,-8.00e+00,
473,8.00e-02,-8.80e+00,
474,8.00e-02,-8.00e+00,
475,7.60e-02,-8.80e+00,
476,8.00e-02,-8.00e+00,
477,7.60e-02,-8.80e+00,
478,8.00e-02,-8.00e+00,
479,8.00e-02,-8.80e+00,
480,7.60e-02,-8.00e+00,
481,8.00e-02,-8.80e+00,
482,8.00e-02,-8.00e+00,
483,8.00e-02,-8.80e+00,
484,8.00e-02,-8.00e+00,
485,7.60e-02,-8.80e+00,
486,8.00e-02,-8.00e+00,
487,7.60e-02,-8.80e+00,
488,7.60e-02,-8.00e+00,
489,8.00e-02,-8.80e+00,
490,8.00e-02,-8.00e+00,
491,8.00e-02,-8.80e+00,
492,8.00e-02,-8.00e+00,
493,8.00e-02,-8.80e+00,
494,8.00e-02,-8.00e+00,
495,8.00e-02,-8.80e+00,
496,8.00e-02,-8.00e+00,
497,8.00e-02,-8.80e+00,
498,8.00e-02,-8.00e+00,
499,8.00e-02,-8.80e+00,
500,8.00e-02,-8.00e+00,
501,8.00e-02,-8.80e+00,
502,8.00e-02,-8.00e+00,
503,8.00e-02,-8.80e+00,
504,8.00e-02,-8.00e+00,
505,8.00e-02,-8.80e+00,
506,8.00e-02,-8.00e+00,
507,8.00e-02,-8.80e+00,
508,8.40e-02,-8.00e+00,
509,8.00e-02,-8.80e+00,
510,8.00e-02,-8.00e+00,
511,8.00e-02,-8.80e+00,
512,8.00e-02,-8.00e+00,
513,8.40e-02,-8.80e+00,
514,8.40e-02,-8.00e+00,
515,8.00e-02,-8.80e+00,
516,8.00e-02,-8.00e+00,
517,8.00e-02,-8.80e+00,
518,8.00e-02,-8.00e+00,
519,8.00e-02,-8.80e+00,
520,8.00e-02,-8.00e+00,
521,8.00e-02,-8.80e+00,
522,8.40e-02,-8.00e+00,
523,8.40e-02,-8.80e+00,
524,8.00e-02,-8.00e+00,
525,8.00e-02,-8.80e+00,
526,8.00e-02,-8.00e+00,
527,8.00e-02,-8.80e+00,
528,8.00e-02,-8.00e+00,
529,8.40e-02,-8.80e+00,
530,8.40e-02,-8.00e+00,
531,8.40e-02,-8.80e+00,
532,8.40e-02,-8.00e+00,
533,8.00e-02,-8.80e+00,
534,8.40e-02,-8.00e+00,
535,8.40e-02,-8.80e+00,
536,8.40e-02,-8.00e+00,
537,8.40e-02,-8.80e+00,
538,8.40e-02,-8.00e+00,
539,8.40e-02,-8.80e+00,
540,8.40e-02,-8.00e+00,
541,8.40e-02,-8.80e+00,
542,8.40e-02,-8.00e+00,
543,8.40e-02,-8.80e+00,
544,8.00e-02,-8.00e+00,
545,8.40e-02,-8.80e+00,
546,8.40e-02,-8.00e+00,
547,8.40e-02,-8.80e+00,
548,8.40e-02,-8.00e+00,
549,8.40e-02,-8.80e+00,
550,8.80e-02,-8.00e+00,
551,8.40e-02,-8.80e+00,
552,8.40e-02,-8.00e+00,
553,8.80e-02,-8.80e+00,
554,8.40e-02,-8.00e+00,
555,8.80e-02,-8.80e+00,
556,8.40e-02,-8.00e+00,
557,8.40e-02,-8.80e+00,
558,8.80e-02,-8.00e+00,
559,8.40e-02,-8.80e+00,
560,8.40e-02,-8.00e+00,
561,8.80e-02,-8.80e+00,
562,8.80e-02,-8.00e+00,
563,8.80e-02,-8.80e+00,
564,8.80e-02,-8.00e+00,
565,8.40e-02,-8.80e+00,
566,8.80e-02,-8.00e+00,
567,8.40e-02,-8.80e+00,
568,8.40e-02,-8.00e+00,
569,8.80e-02,-8.80e+00,
570,8.80e-02,-8.00e+00,
571,8.80e-02,-8.80e+00,
572,8.80e-02,-8.00e+00,
573,8.80e-02,-8.80e+00,
574,8.40e-02,-8.00e+00,
575,8.80e-02,-8.80e+00,
576,8.40e-02,-8.00e+00,
577,8.80e-02,-8.80e+00,
578,8.80e-02,-8.00e+00,
579,8.80e-02,-8.80e+00,
580,8.80e-02,-8.00e+00,
581,8.40e-02,-8.80e+00,
582,8.80e-02,-8.00e+00,
583,8.80e-02,-8.80e+00,
584,8.80e-02,-8.00e+00,
585,8.80e-02,-8.80e+00,
586,8.80e-02,-8.00e+00,
587,8.80e-02,-8.80e+00,
588,8.80e-02,-8.00e+00,
589,8.80e-02,-8.80e+00,
590,9.20e-02,-8.00e+00,
591,8.80e-02,-8.80e+00,
592,8.80e-02,-8.00e+00,
593,8.80e-02,-8.80e+00,
594,8.80e-02,-8.00e+00,
595,8.80e-02,-8.80e+00,
596,8.80e-02,-8.00e+00,
597,8.80e-02,-8.80e+00,
598,9.20e-02,-8.00e+00,
599,8.80e-02,-8.80e+00,
600,8.80e-02,-8.00e+00,
601,9.20e-02,-8.80e+00,
602,8.80e-02,-8.00e+00,
603,8.80e-02,-8.80e+00,
604,9.20e-02,-8.00e+00,
605,8.80e-02,-8.80e+00,
606,8.80e-02,-8.00e+00,
607,8.80e-02,-8.80e+00,
608,8.80e-02,-8.00e+00,
609,9.20e-02,-8.80e+00,
610,9.20e-02,-8.00e+00,
611,9.20e-02,-8.80e+00,
612,9.20e-02,-8.00e+00,
613,9.20e-02,-8.80e+00,
614,9.20e-02,-8.00e+00,
615,8.80e-02,-8.80e+00,
616,9.20e-02,-8.00e+00,
617,9.20e-02,-8.80e+00,
618,9.20e-02,-8.00e+00,
619,9.20e-02,-8.80e+00,
620,9.20e-02,-8.00e+00,
621,9.20e-02,-8.80e+00,
622,9.20e-02,-8.00e+00,
623,8.80e-02,-8.80e+00,
624,8.80e-02,-8.00e+00,
625,9.20e-02,-8.80e+00,
626,9.20e-02,-8.00e+00,
627,9.20e-02,-8.80e+00,
628,9.20e-02,-8.00e+00,
629,9.20e-02,-8.80e+00,
630,9.20e-02,-8.00e+00,
631,9.20e-02,-8.80e+00,
632,9.20e-02,-8.00e+00,
633,9.60e-02,-8.80e+00,
634,9.20e-02,-8.00e+00,
635,8.80e-02,-8.00e+00,
636,9.20e-02,-8.80e+00,
637,9.20e-02,-8.80e+00,
638,9.20e-02,-8.00e+00,
639,9.20e-02,-8.80e+00,
640,9.20e-02,-8.00e+00,
641,9.60e-02,-8.80e+00,
642,9.20e-02,-8.00e+00,
643,9.60e-02,-8.80e+00,
644,9.20e-02,-8.00e+00,
645,9.20e-02,-8.80e+00,
646,9.20e-02,-8.00e+00,
647,9.20e-02,-8.80e+00,
648,9.20e-02,-8.00e+00,
649,9.20e-02,-8.80e+00,
650,9.60e-02,-8.00e+00,
651,9.20e-02,-8.80e+00,
652,9.20e-02,-8.00e+00,
653,9.20e-02,-8.80e+00,
654,9.60e-02,-8.00e+00,
655,9.20e-02,-8.80e+00,
656,9.20e-02,-8.00e+00,
657,9.60e-02,-8.80e+00,
658,9.60e-02,-8.00e+00,
659,9.60e-02,-8.80e+00,
660,9.60e-02,-8.00e+00,
661,9.60e-02,-8.80e+00,
662,9.60e-02,-8.00e+00,
663,9.60e-02,-8.80e+00,
664,9.20e-02,-8.00e+00,
665,9.60e-02,-8.80e+00,
666,9.60e-02,-8.00e+00,
667,9.20e-02,-8.80e+00,
668,9.60e-02,-8.00e+00,
669,9.60e-02,-8.80e+00,
670,9.60e-02,-8.00e+00,
671,9.60e-02,-8.80e+00,
672,9.60e-02,-8.00e+00,
673,9.60e-02,-8.80e+00,
674,9.60e-02,-8.00e+00,
675,9.60e-02,-8.80e+00,
676,9.60e-02,-8.00e+00,
677,9.60e-02,-8.80e+00,
678,1.04e-01,-8.00e+00,
679,9.60e-02,-8.80e+00,
680,9.60e-02,-8.00e+00,
681,9.60e-02,-8.80e+00,
682,9.60e-02,-8.00e+00,
683,9.60e-02,-8.80e+00,
684,9.60e-02,-8.00e+00,
685,9.60e-02,-8.80e+00,
686,9.60e-02,-8.00e+00,
687,9.60e-02,-8.80e+00,
688,9.60e-02,-8.00e+00,
689,9.60e-02,-8.80e+00,
690,1.04e-01,-8.00e+00,
691,9.60e-02,-8.80e+00,
692,9.60e-02,-8.00e+00,
693,9.60e-02,-8.80e+00,
694,1.04e-01,-8.00e+00,
695,9.60e-02,-8.80e+00,
696,9.60e-02,-8.00e+00,
697,1.04e-01,-8.80e+00,
698,1.04e-01,-8.00e+00,
699,1.04e-01,-8.80e+00,
700,9.60e-02,-8.00e+00,
701,9.60e-02,-8.80e+00,
702,9.60e-02,-8.00e+00,
703,9.60e-02,-8.80e+00,
704,9.60e-02,-8.00e+00,
705,1.04e-01,-8.80e+00,
706,1.04e-01,-8.00e+00,
707,1.04e-01,-8.80e+00,
708,1.04e-01,-8.00e+00,
709,1.04e-01,-8.80e+00,
710,1.04e-01,-8.00e+00,
711,1.04e-01,-8.80e+00,
712,9.60e-02,-8.00e+00,
713,1.04e-01,-8.80e+00,
714,1.04e-01,-8.00e+00,
715,1.04e-01,-8.80e+00,
716,1.04e-01,-8.00e+00,
717,1.04e-01,-8.80e+00,
718,1.04e-01,-8.00e+00,
719,1.04e-01,-8.80e+00,
720,1.04e-01,-8.00e+00,
721,1.04e-01,-8.80e+00,
722,1.04e-01,-8.00e+00,
723,1.04e-01,-8.80e+00,
724,1.04e-01,-8.00e+00,
725,1.04e-01,-8.80e+00,
726,1.04e-01,-8.00e+00,
727,1.04e-01,-8.80e+00,
728,1.04e-01,-8.00e+00,
729,1.04e-01,-8.80e+00,
730,1.08e-01,-8.00e+00,
731,1.08e-01,-8.80e+00,
732,1.04e-01,-8.00e+00,
733,1.08e-01,-8.80e+00,
734,1.04e-01,-8.00e+00,
735,1.04e-01,-8.80e+00,
736,1.04e-01,-8.00e+00,
737,1.04e-01,-8.80e+00,
738,1.08e-01,-8.00e+00,
739,1.04e-01,-8.80e+00,
740,1.04e-01,-8.00e+00,
741,1.04e-01,-8.80e+00,
742,1.08e-01,-8.00e+00,
743,1.08e-01,-8.80e+00,
744,1.04e-01,-8.00e+00,
745,1.08e-01,-8.80e+00,
746,1.08e-01,-8.00e+00,
747,1.08e-01,-8.80e+00,
748,1.08e-01,-8.00e+00,
749,1.04e-01,-8.80e+00,
750,1.08e-01,-8.00e+00,
751,1.08e-01,-8.80e+00,
752,1.08e-01,-8.00e+00,
753,1.08e-01,-8.80e+00,
754,1.08e-01,-8.00e+00,
755,1.08e-01,-8.80e+00,
756,1.08e-01,-8.00e+00,
757,1.08e-01,-8.80e+00,
758,1.08e-01,-8.00e+00,
759,1.08e-01,-8.80e+00,
760,1.08e-01,-8.00e+00,
761,1.08e-01,-8.80e+00,
762,1.08e-01,-8.00e+00,
763,1.08e-01,-8.80e+00,
764,1.08e-01,-8.00e+00,
765,1.08e-01,-8.80e+00,
766,1.08e-01,-8.00e+00,
767,1.08e-01,-8.80e+00,
768,1.08e-01,-8.00e+00,
769,1.08e-01,-8.80e+00,
770,1.08e-01,-8.00e+00,
771,1.08e-01,-8.80e+00,
772,1.08e-01,-8.00e+00,
773,1.08e-01,-8.80e+00,
774,1.12e-01,-8.00e+00,
775,1.08e-01,-8.80e+00,
776,1.08e-01,-8.00e+00,
777,1.08e-01,-8.80e+00,
778,1.12e-01,-8.00e+00,
779,1.08e-01,-8.80e+00,
780,1.08e-01,-8.00e+00,
781,1.08e-01,-8.80e+00,
782,1.12e-01,-8.00e+00,
783,1.12e-01,-8.80e+00,
784,1.08e-01,-8.00e+00,
785,1.12e-01,-8.80e+00,
786,1.12e-01,-8.00e+00,
787,1.12e-01,-8.80e+00,
788,1.08e-01,-8.00e+00,
789,1.12e-01,-8.80e+00,
790,1.12e-01,-8.00e+00,
791,1.12e-01,-8.80e+00,
792,1.08e-01,-8.00e+00,
793,1.12e-01,-8.80e+00,
794,1.12e-01,-8.00e+00,
795,1.12e-01,-8.80e+00,
796,1.12e-01,-8.00e+00,
797,1.12e-01,-8.80e+00,
798,1.12e-01,-8.00e+00,
799,1.12e-01,-8.80e+00,
800,1.12e-01,-8.00e+00,
801,1.12e-01,-8.80e+00,
802,1.12e-01,-8.00e+00,
803,1.12e-01,-8.80e+00,
804,1.12e-01,-8.00e+00,
805,1.12e-01,-8.80e+00,
806,1.12e-01,-8.00e+00,
807,1.12e-01,-8.80e+00,
808,1.12e-01,-8.00e+00,
809,1.12e-01,-8.80e+00,
810,1.16e-01,-8.00e+00,
811,1.12e-01,-8.80e+00,
812,1.12e-01,-8.00e+00,
813,1.12e-01,-8.80e+00,
814,1.12e-01,-8.00e+00,
815,1.12e-01,-8.80e+00,
816,1.12e-01,-8.00e+00,
817,1.16e-01,-8.80e+00,
818,1.12e-01,-8.00e+00,
819,1.12e-01,-8.80e+00,
820,1.12e-01,-8.00e+00,
821,1.12e-01,-8.80e+00,
822,1.12e-01,-8.00e+00,
823,1.12e-01,-8.80e+00,
824,1.12e-01,-8.00e+00,
825,1.16e-01,-8.80e+00,
826,1.16e-01,-8.00e+00,
827,1.12e-01,-8.80e+00,
828,1.12e-01,-8.00e+00,
829,1.12e-01,-8.80e+00,
830,1.16e-01,-8.00e+00,
831,1.16e-01,-8.80e+00,
832,1.12e-01,-8.00e+00,
833,1.12e-01,-8.80e+00,
