Lab 3/Task3_7Vout.csv

X,CH1,CH2,Start,Increment,
Sequence,Volt,Volt,-3.000000e-05,2.000000e-09
0,0.00e+00,7.20e+00,
1,0.00e+00,7.20e+00,
2,0.00e+00,7.20e+00,
3,-4.00e-03,7.20e+00,
4,0.00e+00,7.20e+00,
5,0.00e+00,7.20e+00,
6,0.00e+00,7.20e+00,
7,0.00e+00,7.20e+00,
8,0.00e+00,6.80e+00,
9,0.00e+00,6.80e+00,
10,0.00e+00,6.80e+00,
11,-4.00e-03,6.80e+00,
12,0.00e+00,6.80e+00,
13,0.00e+00,6.80e+00,
14,0.00e+00,6.80e+00,
15,0.00e+00,6.80e+00,
16,0.00e+00,6.80e+00,
17,0.00e+00,6.80e+00,
18,0.00e+00,6.80e+00,
19,-4.00e-03,6.80e+00,
20,0.00e+00,6.80e+00,
21,0.00e+00,6.40e+00,
22,0.00e+00,6.40e+00,
23,-4.00e-03,6.40e+00,
24,0.00e+00,6.40e+00,
25,0.00e+00,6.40e+00,
26,0.00e+00,6.40e+00,
27,0.00e+00,6.40e+00,
28,0.00e+00,6.40e+00,
29,0.00e+00,6.40e+00,
30,0.00e+00,6.40e+00,
31,0.00e+00,6.40e+00,
32,0.00e+00,6.40e+00,
33,0.00e+00,6.40e+00,
34,0.00e+00,6.40e+00,
35,0.00e+00,6.40e+00,
36,4.00e-03,6.00e+00,
37,0.00e+00,6.40e+00,
38,0.00e+00,6.40e+00,
39,0.00e+00,6.00e+00,
40,0.00e+00,6.00e+00,
41,0.00e+00,6.00e+00,
42,0.00e+00,6.00e+00,
43,0.00e+00,6.40e+00,
44,0.00e+00,6.00e+00,
45,0.00e+00,6.00e+00,
46,0.00e+00,6.00e+00,
47,0.00e+00,6.00e+00,
48,0.00e+00,6.00e+00,
49,0.00e+00,6.00e+00,
50,0.00e+00,6.00e+00,
51,-4.00e-03,6.00e+00,
52,4.00e-03,6.00e+00,
53,0.00e+00,6.00e+00,
54,0.00e+00,6.00e+00,
55,0.00e+00,6.00e+00,
56,0.00e+00,6.00e+00,
57,4.00e-03,6.00e+00,
58,0.00e+00,6.00e+00,
59,0.00e+00,6.00e+00,
60,0.00e+00,6.00e+00,
61,0.00e+00,6.00e+00,
62,0.00e+00,6.00e+00,
63,0.00e+00,6.00e+00,
64,0.00e+00,6.00e+00,
65,4.00e-03,6.00e+00,
66,0.00e+00,6.00e+00,
67,0.00e+00,6.00e+00,
68,4.00e-03,6.00e+00,
69,4.00e-03,6.00e+00,
70,0.00e+00,6.00e+00,
71,0.00e+00,6.00e+00,
72,0.00e+00,6.00e+00,
73,4.00e-03,6.00e+00,
74,0.00e+00,6.00e+00,
75,0.00e+00,6.00e+00,
76,4.00e-03,6.00e+00,
77,0.00e+00,6.00e+00,
78,0.00e+00,6.00e+00,
79,0.00e+00,6.00e+00,
80,0.00e+00,6.00e+00,
81,4.00e-03,6.00e+00,
82,0.00e+00,6.00e+00,
83,0.00e+00,6.00e+00,
84,4.00e-03,6.00e+00,
85,0.00e+00,6.00e+00,
86,0.00e+00,6.00e+00,
87,0.00e+00,6.00e+00,
88,4.00e-03,6.00e+00,
89,4.00e-03,6.00e+00,
90,0.00e+00,6.00e+00,
91,0.00e+00,6.00e+00,
92,0.00e+00,6.00e+00,
93,0.00e+00,6.00e+00,
94,0.00e+00,6.00e+00,
95,0.00e+00,6.00e+00,
96,4.00e-03,6.00e+00,
97,4.00e-03,6.00e+00,
98,0.00e+00,6.00e+00,
99,0.00e+00,6.40e+00,
100,4.00e-03,6.00e+00,
101,4.00e-03,6.00e+00,
102,0.00e+00,6.40e+00,
103,0.00e+00,6.40e+00,
104,0.00e+00,6.40e+00,
105,4.00e-03,6.00e+00,
106,0.00e+00,6.40e+00,
107,0.00e+00,6.40e+00,
108,0.00e+00,6.40e+00,
109,0.00e+00,6.40e+00,
110,4.00e-03,6.40e+00,
111,0.00e+00,6.40e+00,
112,0.00e+00,6.40e+00,
113,4.00e-03,6.40e+00,
114,0.00e+00,6.40e+00,
115,0.00e+00,6.40e+00,
116,0.00e+00,6.40e+00,
117,4.00e-03,6.40e+00,
118,4.00e-03,6.40e+00,
119,0.00e+00,6.80e+00,
120,4.00e-03,6.80e+00,
121,4.00e-03,6.80e+00,
122,0.00e+00,6.80e+00,
123,0.00e+00,6.80e+00,
124,0.00e+00,6.80e+00,
125,0.00e+00,6.80e+00,
126,0.00e+00,6.80e+00,
127,0.00e+00,6.80e+00,
128,4.00e-03,6.80e+00,
129,4.00e-03,6.80e+00,
130,0.00e+00,6.80e+00,
131,0.00e+00,6.80e+00,
132,4.00e-03,6.80e+00,
133,0.00e+00,6.80e+00,
134,0.00e+00,7.20e+00,
135,0.00e+00,7.20e+00,
136,4.00e-03,7.20e+00,
137,4.00e-03,7.20e+00,
138,4.00e-03,7.20e+00,
139,0.00e+00,7.20e+00,
140,4.00e-03,7.20e+00,
141,4.00e-03,7.20e+00,
142,0.00e+00,7.20e+00,
143,0.00e+00,7.60e+00,
144,0.00e+00,7.20e+00,
145,4.00e-03,7.60e+00,
146,4.00e-03,7.20e+00,
147,0.00e+00,7.60e+00,
148,4.00e-03,7.60e+00,
149,4.00e-03,7.60e+00,
150,0.00e+00,7.60e+00,
151,0.00e+00,7.60e+00,
152,0.00e+00,7.60e+00,
153,4.00e-03,7.60e+00,
154,0.00e+00,7.60e+00,
155,0.00e+00,8.00e+00,
156,4.00e-03,8.00e+00,
157,4.00e-03,8.00e+00,
158,0.00e+00,8.00e+00,
159,0.00e+00,8.00e+00,
160,0.00e+00,8.00e+00,
161,4.00e-03,8.00e+00,
162,0.00e+00,8.00e+00,
163,0.00e+00,8.40e+00,
164,4.00e-03,8.40e+00,
165,0.00e+00,8.40e+00,
166,0.00e+00,8.40e+00,
167,0.00e+00,8.40e+00,
168,0.00e+00,8.40e+00,
169,4.00e-03,8.40e+00,
170,4.00e-03,8.40e+00,
171,0.00e+00,8.80e+00,
172,4.00e-03,8.80e+00,
173,4.00e-03,8.80e+00,
174,0.00e+00,8.80e+00,
175,0.00e+00,8.80e+00,
176,4.00e-03,8.80e+00,
177,4.00e-03,9.20e+00,
178,4.00e-03,8.80e+00,
179,0.00e+00,9.20e+00,
180,4.00e-03,8.80e+00,
181,4.00e-03,9.20e+00,
182,0.00e+00,9.20e+00,
183,0.00e+00,1.00e+01,
184,4.00e-03,9.20e+00,
185,4.00e-03,1.00e+01,
186,0.00e+00,9.20e+00,
187,0.00e+00,1.00e+01,
188,4.00e-03,1.00e+01,
189,4.00e-03,1.00e+01,
190,4.00e-03,1.00e+01,
191,0.00e+00,1.04e+01,
192,4.00e-03,1.00e+01,
193,4.00e-03,1.04e+01,
194,0.00e+00,1.04e+01,
195,0.00e+00,1.04e+01,
196,0.00e+00,1.04e+01,
197,0.00e+00,1.04e+01,
198,0.00e+00,1.04e+01,
199,0.00e+00,1.08e+01,
200,4.00e-03,1.08e+01,
201,4.00e-03,1.08e+01,
202,0.00e+00,1.08e+01,
203,0.00e+00,1.08e+01,
204,4.00e-03,1.08e+01,
205,0.00e+00,1.12e+01,
206,0.00e+00,1.12e+01,
207,0.00e+00,1.12e+01,
208,0.00e+00,1.12e+01,
209,4.00e-03,1.12e+01,
210,4.00e-03,1.12e+01,
211,0.00e+00,1.16e+01,
212,0.00e+00,1.12e+01,
213,0.00e+00,1.16e+01,
214,0.00e+00,1.16e+01,
215,0.00e+00,1.16e+01,
216,0.00e+00,1.16e+01,
217,4.00e-03,1.16e+01,
218,0.00e+00,1.16e+01,
219,0.00e+00,1.20e+01,
220,0.00e+00,1.20e+01,
221,0.00e+00,1.20e+01,
222,0.00e+00,1.20e+01,
223,0.00e+00,1.24e+01,
224,4.00e-03,1.20e+01,
225,4.00e-03,1.24e+01,
226,0.00e+00,1.24e+01,
227,0.00e+00,1.24e+01,
228,4.00e-03,1.24e+01,
229,0.00e+00,1.24e+01,
230,0.00e+00,1.24e+01,
231,0.00e+00,1.28e+01,
232,0.00e+00,1.28e+01,
233,4.00e-03,1.28e+01,
234,4.00e-03,1.28e+01,
235,-4.00e-03,1.32e+01,
236,4.00e-03,1.28e+01,
237,0.00e+00,1.32e+01,
238,0.00e+00,1.32e+01,
239,0.00e+00,1.32e+01,
240,4.00e-03,1.32e+01,
241,4.00e-03,1.36e+01,
242,0.00e+00,1.32e+01,
243,0.00e+00,1.36e+01,
244,0.00e+00,1.32e+01,
245,0.00e+00,1.36e+01,
246,0.00e+00,1.36e+01,
247,0.00e+00,1.36e+01,
248,0.00e+00,1.36e+01,
249,4.00e-03,1.40e+01,
250,0.00e+00,1.36e+01,
251,0.00e+00,1.40e+01,
252,0.00e+00,1.40e+01,
253,0.00e+00,1.40e+01,
254,0.00e+00,1.40e+01,
255,0.00e+00,1.44e+01,
256,4.00e-03,1.44e+01,
257,4.00e-03,1.44e+01,
258,0.00e+00,1.40e+01,
259,0.00e+00,1.44e+01,
260,4.00e-03,1.44e+01,
261,4.00e-03,1.44e+01,
262,4.00e-03,1.44e+01,
263,0.00e+00,1.52e+01,
264,0.00e+00,1.44e+01,
265,4.00e-03,1.52e+01,
266,0.00e+00,1.52e+01,
267,0.00e+00,1.52e+01,
268,0.00e+00,1.52e+01,
269,0.00e+00,1.52e+01,
270,-4.00e-03,1.52e+01,
271,0.00e+00,1.56e+01,
272,0.00e+00,1.52e+01,
273,0.00e+00,1.56e+01,
274,0.00e+00,1.52e+01,
275,-4.00e-03,1.56e+01,
276,0.00e+00,1.56e+01,
277,0.00e+00,1.56e+01,
278,0.00e+00,1.56e+01,
279,0.00e+00,1.60e+01,
280,0.00e+00,1.56e+01,
281,0.00e+00,1.56e+01,
282,0.00e+00,1.56e+01,
283,-4.00e-03,1.60e+01,
284,0.00e+00,1.56e+01,
285,0.00e+00,1.60e+01,
286,0.00e+00,1.60e+01,
287,0.00e+00,1.60e+01,
288,0.00e+00,1.60e+01,
289,0.00e+00,1.60e+01,
290,0.00e+00,1.60e+01,
291,-4.00e-03,1.64e+01,
292,0.00e+00,1.60e+01,
293,0.00e+00,1.64e+01,
294,0.00e+00,1.64e+01,
295,0.00e+00,1.64e+01,
296,0.00e+00,1.64e+01,
297,0.00e+00,1.64e+01,
298,0.00e+00,1.64e+01,
299,-4.00e-03,1.64e+01,
300,0.00e+00,1.64e+01,
301,0.00e+00,1.64e+01,
302,0.00e+00,1.64e+01,
303,-4.00e-03,1.64e+01,
304,0.00e+00,1.64e+01,
305,0.00e+00,1.64e+01,
306,0.00e+00,1.64e+01,
307,-4.00e-03,1.68e+01,
308,0.00e+00,1.64e+01,
309,0.00e+00,1.64e+01,
310,0.00e+00,1.64e+01,
311,0.00e+00,1.68e+01,
312,0.00e+00,1.64e+01,
313,0.00e+00,1.68e+01,
314,0.00e+00,1.64e+01,
315,-4.00e-03,1.68e+01,
316,0.00e+00,1.64e+01,
317,0.00e+00,1.68e+01,
318,0.00e+00,1.68e+01,
319,0.00e+00,1.68e+01,
320,0.00e+00,1.68e+01,
321,0.00e+00,1.68e+01,
322,0.00e+00,1.64e+01,
323,-4.00e-03,1.68e+01,
324,0.00e+00,1.64e+01,
325,0.00e+00,1.68e+01,
326,0.00e+00,1.64e+01,
327,0.00e+00,1.68e+01,
328,0.00e+00,1.68e+01,
329,0.00e+00,1.68e+01,
330,0.00e+00,1.64e+01,
331,-4.00e-03,1.68e+01,
332,0.00e+00,1.64e+01,
333,0.00e+00,1.68e+01,
334,0.00e+00,1.64e+01,
335,-4.00e-03,1.68e+01,
336,0.00e+00,1.64e+01,
337,0.00e+00,1.68e+01,
338,0.00e+00,1.64e+01,
339,-4.00e-03,1.68e+01,
340,0.00e+00,1.64e+01,
341,0.00e+00,1.64e+01,
342,-4.00e-03,1.64e+01,
343,-4.00e-03,1.68e+01,
344,0.00e+00,1.64e+01,
345,0.00e+00,1.64e+01,
346,-4.00e-03,1.64e+01,
347,-4.00e-03,1.68e+01,
348,0.00e+00,1.64e+01,
349,0.00e+00,1.64e+01,
350,0.00e+00,1.64e+01,
351,-4.00e-03,1.64e+01,
352,0.00e+00,1.64e+01,
353,0.00e+00,1.64e+01,
354,0.00e+00,1.64e+01,
355,-4.00e-03,1.64e+01,
356,0.00e+00,1.60e+01,
357,0.00e+00,1.64e+01,
358,-4.00e-03,1.60e+01,
359,-4.00e-03,1.64e+01,
360,0.00e+00,1.60e+01,
361,0.00e+00,1.60e+01,
362,0.00e+00,1.60e+01,
363,-4.00e-03,1.60e+01,
364,0.00e+00,1.60e+01,
365,0.00e+00,1.60e+01,
366,0.00e+00,1.60e+01,
367,-4.00e-03,1.60e+01,
368,0.00e+00,1.60e+01,
369,0.00e+00,1.60e+01,
370,-4.00e-03,1.56e+01,
371,-4.00e-03,1.60e+01,
372,0.00e+00,1.56e+01,
373,0.00e+00,1.56e+01,
374,-4.00e-03,1.56e+01,
375,-4.00e-03,1.56e+01,
376,0.00e+00,1.52e+01,
377,0.00e+00,1.56e+01,
378,0.00e+00,1.52e+01,
379,-4.00e-03,1.56e+01,
380,0.00e+00,1.52e+01,
381,0.00e+00,1.56e+01,
382,-4.00e-03,1.52e+01,
383,-4.00e-03,1.52e+01,
384,0.00e+00,1.52e+01,
385,0.00e+00,1.52e+01,
386,0.00e+00,1.44e+01,
387,-4.00e-03,1.52e+01,
388,-4.00e-03,1.44e+01,
389,0.00e+00,1.44e+01,
390,0.00e+00,1.44e+01,
391,-4.00e-03,1.44e+01,
392,0.00e+00,1.44e+01,
393,0.00e+00,1.44e+01,
394,0.00e+00,1.40e+01,
395,-4.00e-03,1.44e+01,
396,-4.00e-03,1.40e+01,
397,0.00e+00,1.40e+01,
398,-4.00e-03,1.40e+01,
399,-4.00e-03,1.40e+01,
400,0.00e+00,1.40e+01,
401,0.00e+00,1.36e+01,
402,-4.00e-03,1.36e+01,
403,-4.00e-03,1.40e+01,
404,0.00e+00,1.36e+01,
405,-4.00e-03,1.36e+01,
406,-4.00e-03,1.36e+01,
407,-4.00e-03,1.36e+01,
408,0.00e+00,1.36e+01,
409,0.00e+00,1.32e+01,
410,-4.00e-03,1.32e+01,
411,0.00e+00,1.36e+01,
412,0.00e+00,1.28e+01,
413,0.00e+00,1.32e+01,
414,-4.00e-03,1.28e+01,
415,-4.00e-03,1.32e+01,
416,0.00e+00,1.28e+01,
417,0.00e+00,1.28e+01,
418,0.00e+00,1.28e+01,
419,-4.00e-03,1.28e+01,
420,0.00e+00,1.28e+01,
421,0.00e+00,1.28e+01,
422,-4.00e-03,1.24e+01,
423,-4.00e-03,1.24e+01,
424,0.00e+00,1.24e+01,
425,0.00e+00,1.24e+01,
426,-4.00e-03,1.24e+01,
427,-4.00e-03,1.24e+01,
428,0.00e+00,1.20e+01,
429,0.00e+00,1.20e+01,
430,-4.00e-03,1.20e+01,
431,-4.00e-03,1.20e+01,
432,0.00e+00,1.20e+01,
433,0.00e+00,1.20e+01,
434,0.00e+00,1.16e+01,
435,-4.00e-03,1.20e+01,
436,0.00e+00,1.16e+01,
437,0.00e+00,1.16e+01,
438,-4.00e-03,1.16e+01,
439,-4.00e-03,1.16e+01,
440,-4.00e-03,1.16e+01,
441,0.00e+00,1.16e+01,
442,0.00e+00,1.12e+01,
443,-4.00e-03,1.12e+01,
444,0.00e+00,1.12e+01,
445,0.00e+00,1.12e+01,
446,-4.00e-03,1.12e+01,
447,0.00e+00,1.12e+01,
448,0.00e+00,1.08e+01,
449,0.00e+00,1.08e+01,
450,0.00e+00,1.08e+01,
451,-4.00e-03,1.08e+01,
452,0.00e+00,1.08e+01,
453,-4.00e-03,1.08e+01,
454,-4.00e-03,1.08e+01,
455,-4.00e-03,1.08e+01,
456,0.00e+00,1.04e+01,
457,0.00e+00,1.04e+01,
458,0.00e+00,1.04e+01,
459,-4.00e-03,1.04e+01,
460,0.00e+00,1.00e+01,
461,0.00e+00,1.04e+01,
462,-4.00e-03,1.00e+01,
463,-4.00e-03,1.04e+01,
464,0.00e+00,1.00e+01,
465,0.00e+00,1.00e+01,
466,0.00e+00,1.00e+01,
467,-4.00e-03,1.00e+01,
468,0.00e+00,9.20e+00,
469,0.00e+00,9.20e+00,
470,-4.00e-03,9.20e+00,
471,-4.00e-03,9.20e+00,
472,0.00e+00,9.20e+00,
473,0.00e+00,9.20e+00,
474,0.00e+00,9.20e+00,
475,-4.00e-03,9.20e+00,
476,0.00e+00,8.80e+00,
477,0.00e+00,8.80e+00,
478,0.00e+00,8.80e+00,
479,0.00e+00,8.80e+00,
480,0.00e+00,8.80e+00,
481,0.00e+00,8.80e+00,
482,-4.00e-03,8.40e+00,
483,-4.00e-03,8.80e+00,
484,0.00e+00,8.40e+00,
485,0.00e+00,8.80e+00,
486,-4.00e-03,8.40e+00,
487,0.00e+00,8.40e+00,
488,0.00e+00,8.40e+00,
489,0.00e+00,8.40e+00,
490,0.00e+00,8.40e+00,
491,-4.00e-03,8.40e+00,
492,0.00e+00,8.40e+00,
493,0.00e+00,8.40e+00,
494,-4.00e-03,8.00e+00,
495,-4.00e-03,8.00e+00,
496,0.00e+00,8.00e+00,
497,0.00e+00,8.00e+00,
498,0.00e+00,8.00e+00,
499,-4.00e-03,8.00e+00,
500,0.00e+00,8.00e+00,
501,0.00e+00,8.00e+00,
502,0.00e+00,8.00e+00,
503,-4.00e-03,8.00e+00,
504,0.00e+00,7.60e+00,
505,0.00e+00,7.60e+00,
506,0.00e+00,7.60e+00,
507,-4.00e-03,7.60e+00,
508,0.00e+00,7.60e+00,
509,0.00e+00,7.60e+00,
510,-4.00e-03,7.60e+00,
511,-4.00e-03,7.60e+00,
512,0.00e+00,7.60e+00,
513,0.00e+00,7.60e+00,
514,0.00e+00,7.20e+00,
515,-4.00e-03,7.60e+00,
516,0.00e+00,7.20e+00,
517,0.00e+00,7.20e+00,
518,-4.00e-03,7.20e+00,
519,0.00e+00,7.20e+00,
520,0.00e+00,7.20e+00,
521,0.00e+00,7.20e+00,
522,0.00e+00,7.20e+00,
523,-4.00e-03,7.20e+00,
524,0.00e+00,7.20e+00,
525,0.00e+00,7.20e+00,
526,0.00e+00,6.80e+00,
527,0.00e+00,7.20e+00,
528,0.00e+00,6.80e+00,
529,4.00e-03,7.20e+00,
530,0.00e+00,6.80e+00,
531,0.00e+00,6.80e+00,
532,0.00e+00,6.80e+00,
533,0.00e+00,6.80e+00,
534,0.00e+00,6.80e+00,
535,-4.00e-03,6.80e+00,
536,0.00e+00,6.80e+00,
537,0.00e+00,6.80e+00,
538,0.00e+00,6.80e+00,
539,0.00e+00,6.80e+00,
540,0.00e+00,6.80e+00,
541,0.00e+00,6.80e+00,
542,0.00e+00,6.80e+00,
543,0.00e+00,6.80e+00,
544,0.00e+00,6.40e+00,
545,0.00e+00,6.40e+00,
546,0.00e+00,6.40e+00,
547,0.00e+00,6.80e+00,
548,0.00e+00,6.40e+00,
549,4.00e-03,6.40e+00,
550,0.00e+00,6.40e+00,
551,0.00e+00,6.40e+00,
552,0.00e+00,6.40e+00,
553,0.00e+00,6.40e+00,
554,0.00e+00,6.40e+00,
555,-4.00e-03,6.40e+00,
556,0.00e+00,6.40e+00,
557,0.00e+00,6.40e+00,
558,0.00e+00,6.40e+00,
559,0.00e+00,6.40e+00,
560,4.00e-03,6.40e+00,
561,4.00e-03,6.40e+00,
562,0.00e+00,6.40e+00,
563,0.00e+00,6.40e+00,
564,4.00e-03,6.40e+00,
565,0.00e+00,6.40e+00,
566,0.00e+00,6.40e+00,
567,0.00e+00,6.40e+00,
568,0.00e+00,6.40e+00,
569,4.00e-03,6.40e+00,
570,0.00e+00,6.40e+00,
571,-4.00e-03,6.40e+00,
572,0.00e+00,6.40e+00,
573,0.00e+00,6.40e+00,
574,0.00e+00,6.40e+00,
575,0.00e+00,6.40e+00,
576,0.00e+00,6.40e+00,
577,0.00e+00,6.40e+00,
578,0.00e+00,6.40e+00,
579,-4.00e-03,6.40e+00,
580,0.00e+00,6.40e+00,
581,4.00e-03,6.40e+00,
582,0.00e+00,6.40e+00,
583,0.00e+00,6.40e+00,
584,0.00e+00,6.40e+00,
585,0.00e+00,6.40e+00,
586,0.00e+00,6.40e+00,
587,-4.00e-03,6.40e+00,
588,0.00e+00,6.00e+00,
589,0.00e+00,6.40e+00,
590,0.00e+00,6.40e+00,
591,0.00e+00,6.40e+00,
592,4.00e-03,6.40e+00,
593,4.00e-03,6.40e+00,
594,0.00e+00,6.40e+00,
595,0.00e+00,6.40e+00,
596,0.00e+00,6.40e+00,
597,0.00e+00,6.40e+00,
598,0.00e+00,6.40e+00,
599,0.00e+00,6.40e+00,
600,0.00e+00,6.40e+00,
601,0.00e+00,6.40e+00,
602,0.00e+00,6.40e+00,
603,0.00e+00,6.40e+00,
604,0.00e+00,6.40e+00,
605,4.00e-03,6.40e+00,
606,0.00e+00,6.40e+00,
607,0.00e+00,6.40e+00,
608,0.00e+00,6.40e+00,
609,4.00e-03,6.40e+00,
610,0.00e+00,6.40e+00,
611,-4.00e-03,6.80e+00,
612,0.00e+00,6.40e+00,
613,4.00e-03,6.40e+00,
614,0.00e+00,6.40e+00,
615,0.00e+00,6.80e+00,
616,0.00e+00,6.40e+00,
617,4.00e-03,6.80e+00,
618,0.00e+00,6.80e+00,
619,0.00e+00,6.80e+00,
620,0.00e+00,6.80e+00,
621,4.00e-03,6.80e+00,
622,0.00e+00,6.80e+00,
623,0.00e+00,6.80e+00,
624,4.00e-03,6.80e+00,
625,4.00e-03,6.80e+00,
626,4.00e-03,6.80e+00,
627,0.00e+00,6.80e+00,
628,0.00e+00,6.80e+00,
629,4.00e-03,6.80e+00,
630,0.00e+00,6.80e+00,
631,0.00e+00,7.20e+00,
632,0.00e+00,6.80e+00,
633,4.00e-03,6.80e+00,
634,0.00e+00,6.80e+00,
635,0.00e+00,7.20e+00,
636,0.00e+00,7.20e+00,
637,0.00e+00,7.20e+00,
638,0.00e+00,7.20e+00,
639,0.00e+00,7.20e+00,
640,4.00e-03,7.20e+00,
641,4.00e-03,7.20e+00,
642,0.00e+00,7.20e+00,
643,0.00e+00,7.20e+00,
644,4.00e-03,7.20e+00,
645,4.00e-03,7.20e+00,
646,0.00e+00,7.20e+00,
647,0.00e+00,7.60e+00,
648,0.00e+00,7.20e+00,
649,0.00e+00,7.60e+00,
650,0.00e+00,7.60e+00,
651,0.00e+00,7.60e+00,
652,4.00e-03,7.60e+00,
653,4.00e-03,7.60e+00,
654,4.00e-03,7.60e+00,
655,0.00e+00,7.60e+00,
656,0.00e+00,7.60e+00,
657,4.00e-03,7.60e+00,
658,0.00e+00,7.60e+00,
659,0.00e+00,8.00e+00,
660,0.00e+00,7.60e+00,
661,4.00e-03,8.00e+00,
662,4.00e-03,8.00e+00,
663,0.00e+00,8.00e+00,
664,4.00e-03,8.00e+00,
665,4.00e-03,8.00e+00,
666,4.00e-03,8.00e+00,
667,0.00e+00,8.40e+00,
668,0.00e+00,8.00e+00,
669,4.00e-03,8.40e+00,
670,0.00e+00,8.00e+00,
671,0.00e+00,8.40e+00,
672,4.00e-03,8.40e+00,
673,4.00e-03,8.40e+00,
674,0.00e+00,8.40e+00,
675,0.00e+00,8.40e+00,
676,0.00e+00,8.40e+00,
677,4.00e-03,8.40e+00,
678,4.00e-03,8.80e+00,
679,0.00e+00,8.80e+00,
680,0.00e+00,8.80e+00,
681,4.00e-03,8.80e+00,
682,0.00e+00,8.80e+00,
683,0.00e+00,8.80e+00,
684,4.00e-03,8.80e+00,
685,4.00e-03,8.80e+00,
686,4.00e-03,9.20e+00,
687,0.00e+00,9.20e+00,
688,0.00e+00,9.20e+00,
689,4.00e-03,9.20e+00,
690,0.00e+00,9.20e+00,
691,0.00e+00,9.20e+00,
692,0.00e+00,9.20e+00,
693,0.00e+00,1.00e+01,
694,0.00e+00,9.20e+00,
695,0.00e+00,1.00e+01,
696,0.00e+00,1.00e+01,
697,4.00e-03,1.00e+01,
698,0.00e+00,1.00e+01,
699,0.00e+00,1.00e+01,
700,4.00e-03,1.00e+01,
701,4.00e-03,1.00e+01,
702,0.00e+00,1.00e+01,
703,0.00e+00,1.04e+01,
704,4.00e-03,1.04e+01,
705,4.00e-03,1.04e+01,
706,0.00e+00,1.04e+01,
707,0.00e+00,1.08e+01,
708,4.00e-03,1.04e+01,
709,4.00e-03,1.08e+01,
710,0.00e+00,1.08e+01,
711,0.00e+00,1.08e+01,
712,0.00e+00,1.08e+01,
713,4.00e-03,1.08e+01,
714,0.00e+00,1.08e+01,
715,0.00e+00,1.12e+01,
716,4.00e-03,1.08e+01,
717,4.00e-03,1.12e+01,
718,0.00e+00,1.08e+01,
719,0.00e+00,1.12e+01,
720,4.00e-03,1.12e+01,
721,4.00e-03,1.12e+01,
722,0.00e+00,1.12e+01,
723,0.00e+00,1.16e+01,
724,0.00e+00,1.12e+01,
725,4.00e-03,1.16e+01,
726,4.00e-03,1.16e+01,
727,0.00e+00,1.16e+01,
728,0.00e+00,1.16e+01,
729,0.00e+00,1.16e+01,
730,0.00e+00,1.16e+01,
731,0.00e+00,1.20e+01,
732,0.00e+00,1.16e+01,
733,0.00e+00,1.20e+01,
734,0.00e+00,1.20e+01,
735,0.00e+00,1.20e+01,
736,4.00e-03,1.20e+01,
737,4.00e-03,1.24e+01,
738,4.00e-03,1.20e+01,
739,0.00e+00,1.24e+01,
740,4.00e-03,1.24e+01,
741,4.00e-03,1.24e+01,
742,0.00e+00,1.24e+01,
743,0.00e+00,1.24e+01,
744,0.00e+00,1.24e+01,
745,0.00e+00,1.28e+01,
746,0.00e+00,1.24e+01,
747,0.00e+00,1.28e+01,
748,4.00e-03,1.28e+01,
749,4.00e-03,1.28e+01,
750,0.00e+00,1.28e+01,
751,0.00e+00,1.32e+01,
752,0.00e+00,1.28e+01,
753,4.00e-03,1.32e+01,
754,0.00e+00,1.28e+01,
755,0.00e+00,1.32e+01,
756,4.00e-03,1.32e+01,
757,4.00e-03,1.32e+01,
758,0.00e+00,1.32e+01,
759,0.00e+00,1.36e+01,
760,0.00e+00,1.32e+01,
761,0.00e+00,1.36e+01,
762,0.00e+00,1.36e+01,
763,0.00e+00,1.36e+01,
764,0.00e+00,1.36e+01,
765,0.00e+00,1.36e+01,
766,0.00e+00,1.36e+01,
767,0.00e+00,1.40e+01,
768,0.00e+00,1.36e+01,
769,0.00e+00,1.40e+01,
770,4.00e-03,1.36e+01,
771,0.00e+00,1.40e+01,
772,0.00e+00,1.40e+01,
773,0.00e+00,1.40e+01,
774,0.00e+00,1.40e+01,
775,0.00e+00,1.44e+01,
776,0.00e+00,1.40e+01,
777,0.00e+00,1.44e+01,
778,0.00e+00,1.40e+01,
779,0.00e+00,1.44e+01,
780,0.00e+00,1.40e+01,
781,0.00e+00,1.44e+01,
782,0.00e+00,1.44e+01,
783,0.00e+00,1.52e+01,
784,4.00e-03,1.44e+01,
785,4.00e-03,1.44e+01,
786,0.00e+00,1.44e+01,
787,0.00e+00,1.52e+01,
788,0.00e+00,1.44e+01,
789,0.00e+00,1.52e+01,
790,0.00e+00,1.52e+01,
791,0.00e+00,1.52e+01,
792,0.00e+00,1.52e+01,
793,4.00e-03,1.52e+01,
794,0.00e+00,1.52e+01,
795,-4.00e-03,1.56e+01,
796,0.00e+00,1.52e+01,
797,0.00e+00,1.52e+01,
798,-4.00e-03,1.52e+01,
799,0.00e+00,1.56e+01,
800,0.00e+00,1.52e+01,
801,4.00e-03,1.56e+01,
802,0.00e+00,1.52e+01,
803,-4.00e-03,1.56e+01,
804,0.00e+00,1.56e+01,
805,0.00e+00,1.56e+01,
806,0.00e+00,1.56e+01,
807,0.00e+00,1.56e+01,
808,0.00e+00,1.56e+01,
809,0.00e+00,1.56e+01,
810,0.00e+00,1.56e+01,
811,-4.00e-03,1.60e+01,
812,0.00e+00,1.56e+01,
813,0.00e+00,1.60e+01,
814,0.00e+00,1.56e+01,
815,0.00e+00,1.60e+01,
816,0.00e+00,1.56e+01,
817,0.00e+00,1.60e+01,
818,0.00e+00,1.56e+01,
819,-4.00e-03,1.60e+01,
820,0.00e+00,1.56e+01,
821,0.00e+00,1.60e+01,
822,0.00e+00,1.60e+01,
823,0.00e+00,1.60e+01,
824,0.00e+00,1.60e+01,
825,0.00e+00,1.60e+01,
826,0.00e+00,1.56e+01,
827,-4.00e-03,1.60e+01,
828,0.00e+00,1.60e+01,
829,0.00e+00,1.60e+01,
830,0.00e+00,1.60e+01,
831,0.00e+00,1.60e+01,
832,0.00e+00,1.56e+01,
833,0.00e+00,1.60e+01,
834,0.00e+00,1.56e+01,
835,-4.00e-03,1.60e+01,
836,0.00e+00,1.56e+01,
837,0.00e+00,1.60e+01,
838,0.00e+00,1.60e+01,
839,-4.00e-03,1.60e+01,
840,0.00e+00,1.60e+01,
841,0.00e+00,1.60e+01,
842,0.00e+00,1.56e+01,
843,-4.00e-03,1.60e+01,
844,0.00e+00,1.60e+01,
845,0.00e+00,1.60e+01,
846,0.00e+00,1.60e+01,
847,-4.00e-03,1.60e+01,
848,0.00e+00,1.60e+01,
849,0.00e+00,1.60e+01,
850,0.00e+00,1.56e+01,
851,-4.00e-03,1.60e+01,
852,0.00e+00,1.56e+01,
853,0.00e+00,1.60e+01,
854,0.00e+00,1.56e+01,
855,0.00e+00,1.60e+01,
856,0.00e+00,1.56e+01,
857,0.00e+00,1.60e+01,
858,0.00e+00,1.56e+01,
859,-4.00e-03,1.60e+01,
860,0.00e+00,1.56e+01,
861,0.00e+00,1.56e+01,
862,0.00e+00,1.56e+01,
863,-4.00e-03,1.56e+01,
864,0.00e+00,1.56e+01,
865,0.00e+00,1.56e+01,
