Lab 7/oscilloscope_data/NewFile50.csv

X,CH1,CH2,CH3,Start,Increment,
Sequence,Volt,Volt,Volt,-2.600000e-07,4.000000e-09
0,2.30e-01,1.40e+00,3.50e+01,
1,2.30e-01,1.40e+00,3.46e+01,
2,2.30e-01,2.20e+00,3.50e+01,
3,2.30e-01,2.20e+00,3.50e+01,
4,2.30e-01,2.20e+00,3.50e+01,
5,2.30e-01,2.60e+00,3.50e+01,
6,2.30e-01,2.60e+00,3.50e+01,
7,2.30e-01,2.60e+00,3.46e+01,
8,2.30e-01,3.40e+00,3.50e+01,
9,2.30e-01,3.40e+00,3.50e+01,
10,2.30e-01,4.20e+00,3.50e+01,
11,2.30e-01,4.20e+00,3.50e+01,
12,2.30e-01,4.60e+00,3.50e+01,
13,2.30e-01,4.60e+00,3.46e+01,
14,2.30e-01,5.40e+00,3.50e+01,
15,2.30e-01,5.40e+00,3.50e+01,
16,2.30e-01,5.80e+00,3.50e+01,
17,2.30e-01,5.80e+00,3.50e+01,
18,2.30e-01,6.60e+00,3.46e+01,
19,2.30e-01,7.00e+00,3.50e+01,
20,2.30e-01,8.20e+00,3.50e+01,
21,2.30e-01,9.00e+00,3.50e+01,
22,2.30e-01,1.10e+01,3.50e+01,
23,2.10e-01,1.26e+01,3.46e+01,
24,2.10e-01,1.58e+01,3.50e+01,
25,1.90e-01,1.94e+01,3.46e+01,
26,1.50e-01,2.42e+01,3.50e+01,
27,1.10e-01,3.06e+01,3.50e+01,
28,1.00e-02,3.74e+01,3.52e+01,
29,-4.70e-01,4.06e+01,3.70e+01,
30,-8.30e-01,4.18e+01,3.84e+01,
31,-8.30e-01,4.10e+01,3.76e+01,
32,-6.50e-01,3.98e+01,3.70e+01,
33,-4.50e-01,3.86e+01,3.64e+01,
34,-2.10e-01,3.78e+01,3.58e+01,
35,-1.00e-02,3.66e+01,3.58e+01,
36,1.30e-01,3.66e+01,3.58e+01,
37,9.00e-02,3.74e+01,3.62e+01,
38,-5.00e-02,3.86e+01,3.70e+01,
39,-1.70e-01,3.90e+01,3.76e+01,
40,-1.70e-01,3.90e+01,3.76e+01,
41,-3.00e-02,3.86e+01,3.70e+01,
42,9.00e-02,3.78e+01,3.68e+01,
43,9.00e-02,3.86e+01,3.70e+01,
44,-1.00e-02,3.90e+01,3.76e+01,
45,-1.30e-01,3.90e+01,3.80e+01,
46,-1.30e-01,3.90e+01,3.80e+01,
47,-5.00e-02,3.86e+01,3.74e+01,
48,7.00e-02,3.78e+01,3.70e+01,
49,7.00e-02,3.78e+01,3.70e+01,
50,-1.00e-02,3.86e+01,3.74e+01,
51,-9.00e-02,3.86e+01,3.76e+01,
52,-1.30e-01,3.86e+01,3.76e+01,
53,-9.00e-02,3.74e+01,3.70e+01,
54,-8.30e-01,2.94e+01,4.10e+01,
55,-2.70e-01,2.58e+01,3.74e+01,
56,1.30e-01,1.82e+01,3.58e+01,
57,-1.00e-02,1.34e+01,3.80e+01,
58,2.10e-01,1.14e+01,3.68e+01,
59,2.30e-01,9.40e+00,3.62e+01,
60,2.50e-01,9.00e+00,3.76e+01,
61,2.70e-01,9.00e+00,3.64e+01,
62,2.70e-01,1.10e+01,3.70e+01,
63,2.30e-01,1.26e+01,3.70e+01,
64,2.30e-01,1.62e+01,3.68e+01,
65,9.00e-02,2.14e+01,3.74e+01,
66,3.00e-02,2.82e+01,3.70e+01,
67,-1.30e-01,3.62e+01,3.74e+01,
68,-2.70e-01,4.22e+01,3.84e+01,
69,-7.50e-01,4.30e+01,3.98e+01,
70,-4.90e-01,3.98e+01,3.84e+01,
71,1.50e-01,3.54e+01,3.46e+01,
72,5.70e-01,3.42e+01,3.46e+01,
73,4.30e-01,3.62e+01,3.56e+01,
74,-1.30e-01,3.90e+01,3.80e+01,
75,-1.53e+00,3.30e+01,4.36e+01,
76,1.90e-01,3.50e+01,3.36e+01,
77,-3.90e-01,2.42e+01,3.90e+01,
78,1.50e-01,2.58e+01,3.70e+01,
79,-1.50e-01,1.82e+01,3.74e+01,
80,2.50e-01,1.70e+01,3.64e+01,
81,1.10e-01,1.58e+01,3.80e+01,
82,2.30e-01,1.46e+01,3.56e+01,
83,1.50e-01,1.50e+01,3.80e+01,
84,2.10e-01,1.62e+01,3.64e+01,
85,1.10e-01,1.90e+01,3.74e+01,
86,7.00e-02,2.14e+01,3.74e+01,
87,7.00e-02,2.58e+01,3.70e+01,
88,-5.00e-02,2.98e+01,3.76e+01,
89,-3.00e-02,3.42e+01,3.70e+01,
90,-1.70e-01,3.74e+01,3.74e+01,
91,-1.50e-01,3.90e+01,3.76e+01,
92,-2.70e-01,3.90e+01,3.74e+01,
93,-1.10e-01,3.78e+01,3.74e+01,
94,7.00e-02,3.66e+01,3.56e+01,
95,-6.50e-01,2.98e+01,3.98e+01,
96,1.50e-01,2.94e+01,3.56e+01,
97,-1.30e-01,2.42e+01,3.80e+01,
98,1.00e-02,2.14e+01,3.70e+01,
99,9.00e-02,1.94e+01,3.64e+01,
100,1.30e-01,1.74e+01,3.70e+01,
101,1.10e-01,1.70e+01,3.70e+01,
102,2.10e-01,1.74e+01,3.68e+01,
103,9.00e-02,1.90e+01,3.74e+01,
104,1.30e-01,2.06e+01,3.70e+01,
105,7.00e-02,2.30e+01,3.70e+01,
106,3.00e-02,2.62e+01,3.74e+01,
107,-3.00e-02,2.94e+01,3.70e+01,
108,-9.00e-02,3.22e+01,3.76e+01,
109,-1.10e-01,3.50e+01,3.74e+01,
110,-1.50e-01,3.66e+01,3.74e+01,
111,-1.50e-01,3.66e+01,3.74e+01,
112,-1.50e-01,3.54e+01,3.74e+01,
113,-1.30e-01,3.30e+01,3.74e+01,
114,-1.10e-01,3.06e+01,3.70e+01,
115,-5.00e-02,2.70e+01,3.74e+01,
116,-1.00e-02,2.42e+01,3.70e+01,
117,3.00e-02,2.18e+01,3.70e+01,
118,7.00e-02,2.02e+01,3.70e+01,
119,9.00e-02,1.94e+01,3.70e+01,
120,1.10e-01,1.90e+01,3.70e+01,
121,1.10e-01,1.94e+01,3.70e+01,
122,1.10e-01,2.06e+01,3.70e+01,
123,9.00e-02,2.26e+01,3.70e+01,
124,7.00e-02,2.42e+01,3.70e+01,
125,1.00e-02,2.70e+01,3.70e+01,
126,-3.00e-02,2.94e+01,3.70e+01,
127,-9.00e-02,3.18e+01,3.74e+01,
128,-1.10e-01,3.38e+01,3.74e+01,
129,-1.30e-01,3.42e+01,3.74e+01,
130,-1.30e-01,3.42e+01,3.74e+01,
131,-1.30e-01,3.30e+01,3.74e+01,
132,-1.10e-01,3.10e+01,3.74e+01,
133,-9.00e-02,2.86e+01,3.74e+01,
134,-3.00e-02,2.62e+01,3.74e+01,
135,-1.00e-02,2.42e+01,3.70e+01,
136,3.00e-02,2.26e+01,3.70e+01,
137,7.00e-02,2.14e+01,3.70e+01,
138,9.00e-02,2.06e+01,3.70e+01,
139,9.00e-02,2.06e+01,3.70e+01,
140,9.00e-02,2.06e+01,3.70e+01,
141,7.00e-02,2.18e+01,3.70e+01,
142,7.00e-02,2.38e+01,3.70e+01,
143,3.00e-02,2.58e+01,3.70e+01,
144,-1.00e-02,2.74e+01,3.74e+01,
145,-3.00e-02,2.98e+01,3.70e+01,
146,-5.00e-02,3.10e+01,3.70e+01,
147,-9.00e-02,3.22e+01,3.74e+01,
148,-1.10e-01,3.30e+01,3.74e+01,
149,-1.10e-01,3.22e+01,3.74e+01,
