Lab 4/IronCore_Vsh_Vd_100mV.csv

X,CH1,CH2,Start,Increment,
Sequence,Volt,Volt,-2.320000e-05,2.000000e-09
0,0.00e+00,1.72e+01,
1,0.00e+00,1.72e+01,
2,0.00e+00,1.72e+01,
3,0.00e+00,1.72e+01,
4,0.00e+00,1.72e+01,
5,0.00e+00,1.72e+01,
6,0.00e+00,1.72e+01,
7,0.00e+00,1.72e+01,
8,-4.00e-03,1.72e+01,
9,0.00e+00,1.74e+01,
10,0.00e+00,1.72e+01,
11,0.00e+00,1.72e+01,
12,-4.00e-03,1.72e+01,
13,0.00e+00,1.72e+01,
14,0.00e+00,1.72e+01,
15,0.00e+00,1.72e+01,
16,-4.00e-03,1.72e+01,
17,-4.00e-03,1.74e+01,
18,0.00e+00,1.72e+01,
19,0.00e+00,1.74e+01,
20,0.00e+00,1.74e+01,
21,0.00e+00,1.72e+01,
22,-4.00e-03,1.72e+01,
23,0.00e+00,1.74e+01,
24,-4.00e-03,1.74e+01,
25,0.00e+00,1.74e+01,
26,0.00e+00,1.72e+01,
27,0.00e+00,1.74e+01,
28,0.00e+00,1.72e+01,
29,-4.00e-03,1.72e+01,
30,0.00e+00,1.72e+01,
31,0.00e+00,1.72e+01,
32,0.00e+00,1.72e+01,
33,0.00e+00,1.74e+01,
34,0.00e+00,1.72e+01,
35,0.00e+00,1.72e+01,
36,0.00e+00,1.72e+01,
37,-4.00e-03,1.72e+01,
38,0.00e+00,1.72e+01,
39,0.00e+00,1.72e+01,
40,0.00e+00,1.72e+01,
41,-4.00e-03,1.74e+01,
42,0.00e+00,1.72e+01,
43,0.00e+00,1.72e+01,
44,-4.00e-03,1.72e+01,
45,-4.00e-03,1.72e+01,
46,-4.00e-03,1.72e+01,
47,0.00e+00,1.72e+01,
48,-4.00e-03,1.72e+01,
49,-4.00e-03,1.72e+01,
50,0.00e+00,1.70e+01,
51,0.00e+00,1.72e+01,
52,-4.00e-03,1.70e+01,
53,0.00e+00,1.72e+01,
54,0.00e+00,1.70e+01,
55,0.00e+00,1.70e+01,
56,-4.00e-03,1.70e+01,
57,-4.00e-03,1.72e+01,
58,-4.00e-03,1.70e+01,
59,0.00e+00,1.70e+01,
60,0.00e+00,1.70e+01,
61,0.00e+00,1.70e+01,
62,0.00e+00,1.68e+01,
63,0.00e+00,1.70e+01,
64,-4.00e-03,1.70e+01,
65,-4.00e-03,1.70e+01,
66,-4.00e-03,1.68e+01,
67,0.00e+00,1.70e+01,
68,0.00e+00,1.68e+01,
69,0.00e+00,1.68e+01,
70,0.00e+00,1.68e+01,
71,0.00e+00,1.68e+01,
72,0.00e+00,1.68e+01,
73,-4.00e-03,1.68e+01,
74,0.00e+00,1.66e+01,
75,-4.00e-03,1.68e+01,
76,0.00e+00,1.66e+01,
77,0.00e+00,1.68e+01,
78,-4.00e-03,1.66e+01,
79,0.00e+00,1.66e+01,
80,-4.00e-03,1.66e+01,
81,0.00e+00,1.66e+01,
82,0.00e+00,1.66e+01,
83,0.00e+00,1.66e+01,
84,0.00e+00,1.62e+01,
85,-4.00e-03,1.62e+01,
86,0.00e+00,1.62e+01,
87,0.00e+00,1.60e+01,
88,-4.00e-03,1.62e+01,
89,0.00e+00,1.62e+01,
90,0.00e+00,1.60e+01,
91,0.00e+00,1.60e+01,
92,0.00e+00,1.60e+01,
93,0.00e+00,1.62e+01,
94,0.00e+00,1.60e+01,
95,-4.00e-03,1.60e+01,
96,-4.00e-03,1.60e+01,
97,0.00e+00,1.60e+01,
98,0.00e+00,1.58e+01,
99,0.00e+00,1.58e+01,
100,0.00e+00,1.58e+01,
101,0.00e+00,1.58e+01,
102,-4.00e-03,1.58e+01,
103,0.00e+00,1.58e+01,
104,0.00e+00,1.58e+01,
105,-4.00e-03,1.56e+01,
106,-4.00e-03,1.56e+01,
107,0.00e+00,1.56e+01,
108,0.00e+00,1.56e+01,
109,-4.00e-03,1.56e+01,
110,0.00e+00,1.54e+01,
111,0.00e+00,1.54e+01,
112,-4.00e-03,1.54e+01,
113,-4.00e-03,1.54e+01,
114,0.00e+00,1.52e+01,
115,0.00e+00,1.54e+01,
116,0.00e+00,1.52e+01,
117,-4.00e-03,1.52e+01,
118,0.00e+00,1.52e+01,
119,0.00e+00,1.52e+01,
120,0.00e+00,1.52e+01,
121,-4.00e-03,1.52e+01,
122,-4.00e-03,1.50e+01,
123,0.00e+00,1.50e+01,
124,-4.00e-03,1.50e+01,
125,0.00e+00,1.50e+01,
126,0.00e+00,1.50e+01,
127,0.00e+00,1.50e+01,
128,0.00e+00,1.48e+01,
129,-4.00e-03,1.48e+01,
130,-4.00e-03,1.48e+01,
131,0.00e+00,1.48e+01,
132,-4.00e-03,1.48e+01,
133,0.00e+00,1.46e+01,
134,-4.00e-03,1.46e+01,
135,0.00e+00,1.46e+01,
136,-4.00e-03,1.46e+01,
137,0.00e+00,1.46e+01,
138,0.00e+00,1.46e+01,
139,0.00e+00,1.46e+01,
140,-4.00e-03,1.46e+01,
141,0.00e+00,1.44e+01,
142,0.00e+00,1.44e+01,
143,0.00e+00,1.44e+01,
144,-4.00e-03,1.44e+01,
145,-4.00e-03,1.44e+01,
146,0.00e+00,1.42e+01,
147,0.00e+00,1.42e+01,
148,0.00e+00,1.42e+01,
149,-4.00e-03,1.42e+01,
150,-4.00e-03,1.40e+01,
151,0.00e+00,1.42e+01,
152,-4.00e-03,1.42e+01,
153,0.00e+00,1.42e+01,
154,-4.00e-03,1.40e+01,
155,0.00e+00,1.40e+01,
156,-4.00e-03,1.40e+01,
157,0.00e+00,1.40e+01,
158,0.00e+00,1.36e+01,
159,0.00e+00,1.36e+01,
160,-4.00e-03,1.36e+01,
161,0.00e+00,1.36e+01,
162,-4.00e-03,1.34e+01,
163,0.00e+00,1.34e+01,
164,0.00e+00,1.34e+01,
165,0.00e+00,1.34e+01,
166,-4.00e-03,1.34e+01,
167,0.00e+00,1.34e+01,
168,-4.00e-03,1.34e+01,
169,0.00e+00,1.34e+01,
170,0.00e+00,1.32e+01,
171,0.00e+00,1.32e+01,
172,-4.00e-03,1.32e+01,
173,0.00e+00,1.32e+01,
174,0.00e+00,1.30e+01,
175,0.00e+00,1.32e+01,
176,-4.00e-03,1.32e+01,
177,0.00e+00,1.30e+01,
178,0.00e+00,1.30e+01,
179,0.00e+00,1.30e+01,
180,-4.00e-03,1.30e+01,
181,-4.00e-03,1.30e+01,
182,-4.00e-03,1.28e+01,
183,0.00e+00,1.28e+01,
184,-4.00e-03,1.28e+01,
185,0.00e+00,1.30e+01,
186,0.00e+00,1.28e+01,
187,0.00e+00,1.28e+01,
188,0.00e+00,1.28e+01,
189,0.00e+00,1.28e+01,
190,0.00e+00,1.26e+01,
191,0.00e+00,1.26e+01,
192,-4.00e-03,1.26e+01,
193,-4.00e-03,1.28e+01,
194,-4.00e-03,1.26e+01,
195,0.00e+00,1.26e+01,
196,0.00e+00,1.26e+01,
197,-4.00e-03,1.26e+01,
198,-4.00e-03,1.26e+01,
199,0.00e+00,1.24e+01,
200,0.00e+00,1.24e+01,
201,0.00e+00,1.24e+01,
202,0.00e+00,1.24e+01,
203,0.00e+00,1.24e+01,
204,0.00e+00,1.24e+01,
205,0.00e+00,1.22e+01,
206,0.00e+00,1.22e+01,
207,0.00e+00,1.22e+01,
208,0.00e+00,1.24e+01,
209,-4.00e-03,1.24e+01,
210,0.00e+00,1.22e+01,
211,0.00e+00,1.22e+01,
212,-4.00e-03,1.22e+01,
213,0.00e+00,1.22e+01,
214,0.00e+00,1.22e+01,
215,0.00e+00,1.22e+01,
216,-4.00e-03,1.22e+01,
217,-4.00e-03,1.22e+01,
218,0.00e+00,1.20e+01,
219,4.00e-03,1.22e+01,
220,-4.00e-03,1.22e+01,
221,0.00e+00,1.20e+01,
222,-4.00e-03,1.20e+01,
223,4.00e-03,1.22e+01,
224,0.00e+00,1.20e+01,
225,0.00e+00,1.20e+01,
226,0.00e+00,1.20e+01,
227,0.00e+00,1.20e+01,
228,-4.00e-03,1.20e+01,
229,0.00e+00,1.18e+01,
230,0.00e+00,1.18e+01,
231,0.00e+00,1.18e+01,
232,-4.00e-03,1.20e+01,
233,0.00e+00,1.20e+01,
234,0.00e+00,1.18e+01,
235,0.00e+00,1.18e+01,
236,0.00e+00,1.20e+01,
237,-4.00e-03,1.18e+01,
238,0.00e+00,1.18e+01,
239,0.00e+00,1.18e+01,
240,0.00e+00,1.18e+01,
241,-4.00e-03,1.18e+01,
242,-4.00e-03,1.18e+01,
243,0.00e+00,1.18e+01,
244,0.00e+00,1.18e+01,
245,0.00e+00,1.18e+01,
246,0.00e+00,1.18e+01,
247,0.00e+00,1.18e+01,
248,-4.00e-03,1.18e+01,
249,0.00e+00,1.18e+01,
250,-4.00e-03,1.16e+01,
251,0.00e+00,1.18e+01,
252,-4.00e-03,1.18e+01,
253,0.00e+00,1.18e+01,
254,0.00e+00,1.18e+01,
255,0.00e+00,1.18e+01,
256,0.00e+00,1.18e+01,
257,0.00e+00,1.18e+01,
258,4.00e-03,1.18e+01,
259,1.60e-02,1.18e+01,
260,2.40e-02,1.18e+01,
261,2.80e-02,1.18e+01,
262,4.00e-02,1.20e+01,
263,4.40e-02,1.18e+01,
264,4.80e-02,1.22e+01,
265,4.80e-02,1.20e+01,
266,3.20e-02,1.20e+01,
267,2.00e-02,1.20e+01,
268,2.00e-02,1.20e+01,
269,3.20e-02,1.20e+01,
270,4.40e-02,1.20e+01,
271,4.40e-02,1.20e+01,
272,3.20e-02,1.22e+01,
273,4.00e-02,1.22e+01,
274,4.80e-02,1.22e+01,
275,5.20e-02,1.24e+01,
276,5.20e-02,1.24e+01,
277,4.00e-02,1.24e+01,
278,2.00e-02,1.24e+01,
279,8.00e-03,1.24e+01,
280,4.00e-03,1.24e+01,
281,8.00e-03,1.24e+01,
282,1.60e-02,1.26e+01,
283,1.60e-02,1.26e+01,
284,8.00e-03,1.26e+01,
285,4.00e-03,1.28e+01,
286,1.60e-02,1.28e+01,
287,5.60e-02,1.28e+01,
288,1.24e-01,1.24e+01,
289,1.44e-01,1.08e+01,
290,3.20e-02,8.00e+00,
291,-1.12e-01,4.20e+00,
292,-1.04e-01,1.60e+00,
293,2.00e-02,4.00e-01,
294,8.00e-02,6.00e-01,
295,2.00e-02,-2.00e-01,
296,-4.00e-02,-1.00e+00,
297,-4.00e-03,-1.60e+00,
298,5.60e-02,-1.40e+00,
299,5.20e-02,-1.60e+00,
300,4.00e-03,-2.00e+00,
301,-1.20e-02,-2.80e+00,
302,2.00e-02,-3.00e+00,
303,4.80e-02,-3.40e+00,
304,2.80e-02,-3.20e+00,
305,0.00e+00,-4.40e+00,
306,4.00e-03,-4.60e+00,
307,2.80e-02,-5.00e+00,
308,3.20e-02,-4.80e+00,
309,1.20e-02,-5.60e+00,
310,8.00e-03,-5.80e+00,
311,2.00e-02,-6.20e+00,
312,2.40e-02,-6.00e+00,
313,2.00e-02,-6.60e+00,
314,4.00e-03,-6.80e+00,
315,0.00e+00,-7.20e+00,
316,1.20e-02,-6.80e+00,
317,2.40e-02,-7.00e+00,
318,1.60e-02,-6.80e+00,
319,8.00e-03,-7.00e+00,
320,8.00e-03,-6.80e+00,
321,1.60e-02,-6.80e+00,
322,1.60e-02,-6.60e+00,
323,1.20e-02,-7.00e+00,
324,4.00e-03,-6.60e+00,
325,1.20e-02,-7.20e+00,
326,1.60e-02,-6.80e+00,
327,1.60e-02,-7.00e+00,
328,8.00e-03,-6.60e+00,
329,1.20e-02,-7.00e+00,
330,1.60e-02,-6.80e+00,
331,1.60e-02,-7.00e+00,
332,8.00e-03,-6.60e+00,
333,1.20e-02,-7.00e+00,
334,1.20e-02,-6.80e+00,
335,1.60e-02,-7.20e+00,
336,1.20e-02,-6.60e+00,
337,1.20e-02,-7.00e+00,
338,1.20e-02,-6.80e+00,
339,1.60e-02,-7.00e+00,
340,1.20e-02,-6.60e+00,
341,1.20e-02,-7.00e+00,
342,1.20e-02,-6.80e+00,
343,1.60e-02,-7.00e+00,
344,1.20e-02,-6.60e+00,
345,1.20e-02,-7.00e+00,
346,1.20e-02,-6.80e+00,
347,1.20e-02,-7.00e+00,
348,1.20e-02,-6.60e+00,
349,1.20e-02,-7.00e+00,
350,1.20e-02,-6.80e+00,
351,1.20e-02,-7.00e+00,
352,1.20e-02,-6.60e+00,
353,1.20e-02,-7.00e+00,
354,1.20e-02,-6.80e+00,
355,1.20e-02,-7.00e+00,
356,1.20e-02,-6.60e+00,
357,1.20e-02,-7.00e+00,
358,1.20e-02,-6.80e+00,
359,1.60e-02,-7.00e+00,
360,1.20e-02,-6.60e+00,
361,1.20e-02,-7.00e+00,
362,1.20e-02,-6.80e+00,
363,1.20e-02,-7.00e+00,
364,1.20e-02,-6.60e+00,
365,8.00e-03,-7.00e+00,
366,1.20e-02,-6.80e+00,
367,1.20e-02,-7.00e+00,
368,1.20e-02,-6.60e+00,
369,1.20e-02,-6.80e+00,
370,1.20e-02,-6.80e+00,
371,1.20e-02,-7.00e+00,
372,1.20e-02,-6.60e+00,
373,1.20e-02,-7.20e+00,
374,1.20e-02,-6.80e+00,
375,1.60e-02,-7.00e+00,
376,1.20e-02,-6.60e+00,
377,1.20e-02,-6.80e+00,
378,1.20e-02,-6.60e+00,
379,1.60e-02,-7.00e+00,
380,1.20e-02,-6.60e+00,
381,1.20e-02,-7.00e+00,
382,1.20e-02,-6.80e+00,
383,1.60e-02,-7.00e+00,
384,1.20e-02,-6.60e+00,
385,1.20e-02,-7.00e+00,
386,1.20e-02,-6.60e+00,
387,1.60e-02,-7.00e+00,
388,1.20e-02,-6.60e+00,
389,1.20e-02,-7.00e+00,
390,1.60e-02,-6.80e+00,
391,1.20e-02,-7.20e+00,
392,1.20e-02,-6.20e+00,
393,1.20e-02,-6.80e+00,
394,1.20e-02,-6.80e+00,
395,1.60e-02,-6.80e+00,
396,1.20e-02,-6.80e+00,
397,1.20e-02,-7.00e+00,
398,1.20e-02,-6.80e+00,
399,1.60e-02,-7.20e+00,
400,1.20e-02,-6.60e+00,
401,1.20e-02,-7.00e+00,
402,1.20e-02,-6.80e+00,
403,1.60e-02,-7.00e+00,
404,1.20e-02,-6.60e+00,
405,1.20e-02,-7.00e+00,
406,1.20e-02,-6.80e+00,
407,1.60e-02,-7.00e+00,
408,1.20e-02,-6.60e+00,
409,1.20e-02,-6.80e+00,
410,1.60e-02,-6.80e+00,
411,1.60e-02,-7.00e+00,
412,1.20e-02,-6.60e+00,
413,1.20e-02,-7.00e+00,
414,1.20e-02,-6.80e+00,
415,1.60e-02,-7.00e+00,
416,1.20e-02,-6.60e+00,
417,1.20e-02,-7.00e+00,
418,1.60e-02,-6.80e+00,
419,1.60e-02,-6.80e+00,
420,1.20e-02,-6.60e+00,
421,1.20e-02,-7.00e+00,
422,1.60e-02,-6.80e+00,
423,1.60e-02,-7.00e+00,
424,1.20e-02,-6.60e+00,
425,1.20e-02,-7.00e+00,
426,1.60e-02,-6.80e+00,
427,1.60e-02,-7.00e+00,
428,1.20e-02,-6.60e+00,
429,1.20e-02,-7.00e+00,
430,1.60e-02,-6.80e+00,
431,1.60e-02,-7.00e+00,
432,1.20e-02,-6.60e+00,
433,1.20e-02,-7.00e+00,
434,1.60e-02,-6.60e+00,
435,1.60e-02,-7.00e+00,
436,1.60e-02,-6.60e+00,
437,1.20e-02,-7.00e+00,
438,1.60e-02,-6.80e+00,
439,1.60e-02,-7.00e+00,
440,1.60e-02,-6.60e+00,
441,1.60e-02,-6.80e+00,
442,1.20e-02,-6.80e+00,
443,1.60e-02,-7.00e+00,
444,1.60e-02,-6.60e+00,
445,1.20e-02,-7.00e+00,
446,1.60e-02,-6.80e+00,
447,1.60e-02,-7.00e+00,
448,1.60e-02,-6.60e+00,
449,1.60e-02,-6.80e+00,
450,1.60e-02,-6.80e+00,
451,1.60e-02,-7.00e+00,
452,1.60e-02,-6.60e+00,
453,1.20e-02,-7.00e+00,
454,1.60e-02,-6.60e+00,
455,1.60e-02,-7.00e+00,
456,1.60e-02,-6.60e+00,
457,1.60e-02,-6.80e+00,
458,1.60e-02,-6.60e+00,
459,1.60e-02,-7.00e+00,
460,1.60e-02,-6.60e+00,
461,1.60e-02,-7.00e+00,
462,1.60e-02,-6.60e+00,
463,1.60e-02,-7.00e+00,
464,1.60e-02,-6.60e+00,
465,1.20e-02,-6.80e+00,
466,1.60e-02,-6.80e+00,
467,1.60e-02,-6.80e+00,
468,1.60e-02,-6.60e+00,
469,1.60e-02,-7.00e+00,
470,1.60e-02,-6.60e+00,
471,1.60e-02,-6.80e+00,
472,1.60e-02,-6.20e+00,
473,1.60e-02,-6.80e+00,
474,1.60e-02,-6.80e+00,
475,1.60e-02,-7.00e+00,
476,1.60e-02,-6.60e+00,
477,1.60e-02,-7.00e+00,
478,1.60e-02,-6.80e+00,
479,2.00e-02,-6.80e+00,
480,1.60e-02,-6.60e+00,
481,1.60e-02,-6.80e+00,
482,1.60e-02,-6.80e+00,
483,2.00e-02,-6.80e+00,
484,1.60e-02,-6.60e+00,
485,1.60e-02,-7.00e+00,
486,1.60e-02,-6.60e+00,
487,1.60e-02,-7.00e+00,
488,2.00e-02,-6.60e+00,
489,1.60e-02,-6.80e+00,
490,1.60e-02,-6.60e+00,
491,1.60e-02,-6.80e+00,
492,1.60e-02,-6.60e+00,
493,1.60e-02,-7.00e+00,
494,1.60e-02,-6.80e+00,
495,1.60e-02,-7.00e+00,
496,1.60e-02,-6.60e+00,
497,2.00e-02,-6.80e+00,
498,1.60e-02,-6.80e+00,
499,2.00e-02,-7.00e+00,
500,1.60e-02,-6.60e+00,
501,1.60e-02,-6.80e+00,
502,1.60e-02,-6.60e+00,
503,2.00e-02,-7.00e+00,
504,1.60e-02,-6.60e+00,
505,1.60e-02,-6.80e+00,
506,2.00e-02,-6.80e+00,
507,2.00e-02,-7.00e+00,
508,1.60e-02,-6.60e+00,
509,2.00e-02,-6.80e+00,
510,1.60e-02,-6.60e+00,
511,2.00e-02,-7.00e+00,
512,1.60e-02,-6.20e+00,
513,1.60e-02,-6.80e+00,
514,2.00e-02,-6.60e+00,
515,1.60e-02,-7.00e+00,
516,1.60e-02,-6.60e+00,
517,2.00e-02,-6.80e+00,
518,1.60e-02,-6.60e+00,
519,2.00e-02,-6.80e+00,
520,2.00e-02,-6.20e+00,
521,2.00e-02,-6.80e+00,
522,2.00e-02,-6.60e+00,
523,2.00e-02,-7.00e+00,
524,2.00e-02,-6.20e+00,
525,2.00e-02,-7.00e+00,
526,2.00e-02,-6.60e+00,
527,2.00e-02,-7.00e+00,
528,1.60e-02,-6.20e+00,
529,2.00e-02,-6.80e+00,
530,2.00e-02,-6.60e+00,
531,2.00e-02,-6.80e+00,
532,2.00e-02,-6.60e+00,
533,2.00e-02,-7.00e+00,
534,2.00e-02,-6.60e+00,
535,2.00e-02,-7.00e+00,
536,2.00e-02,-6.20e+00,
537,1.60e-02,-6.80e+00,
538,2.00e-02,-6.60e+00,
539,2.00e-02,-7.00e+00,
540,2.00e-02,-6.20e+00,
541,2.00e-02,-6.80e+00,
542,2.00e-02,-6.60e+00,
543,2.40e-02,-6.80e+00,
544,2.00e-02,-6.20e+00,
545,2.00e-02,-6.80e+00,
546,2.00e-02,-6.60e+00,
547,2.40e-02,-7.00e+00,
548,2.00e-02,-6.60e+00,
549,2.00e-02,-7.00e+00,
550,2.00e-02,-6.60e+00,
551,2.00e-02,-7.00e+00,
552,2.00e-02,-6.20e+00,
553,2.00e-02,-6.80e+00,
554,2.00e-02,-6.60e+00,
555,2.00e-02,-7.00e+00,
556,2.00e-02,-6.20e+00,
557,2.00e-02,-6.80e+00,
558,2.00e-02,-6.60e+00,
559,2.40e-02,-7.00e+00,
560,2.00e-02,-6.20e+00,
561,2.00e-02,-6.80e+00,
562,2.00e-02,-6.60e+00,
563,2.00e-02,-6.80e+00,
564,2.40e-02,-6.60e+00,
565,2.00e-02,-6.80e+00,
566,2.40e-02,-6.60e+00,
567,2.40e-02,-7.00e+00,
568,2.00e-02,-6.60e+00,
569,2.00e-02,-6.80e+00,
570,2.40e-02,-6.60e+00,
571,2.40e-02,-6.80e+00,
572,2.40e-02,-6.20e+00,
573,2.40e-02,-6.80e+00,
574,2.00e-02,-6.60e+00,
575,2.40e-02,-7.00e+00,
576,2.40e-02,-6.20e+00,
577,2.00e-02,-6.80e+00,
578,2.40e-02,-6.60e+00,
579,2.40e-02,-6.80e+00,
580,2.00e-02,-6.60e+00,
581,2.00e-02,-6.80e+00,
582,2.40e-02,-6.60e+00,
583,2.40e-02,-7.00e+00,
584,2.00e-02,-6.20e+00,
585,2.40e-02,-6.80e+00,
586,2.40e-02,-6.60e+00,
587,2.40e-02,-6.80e+00,
588,2.40e-02,-6.60e+00,
589,2.00e-02,-6.80e+00,
590,2.40e-02,-6.60e+00,
591,2.40e-02,-7.00e+00,
592,2.00e-02,-6.20e+00,
593,2.40e-02,-6.80e+00,
594,2.40e-02,-6.60e+00,
595,2.40e-02,-6.80e+00,
596,2.40e-02,-6.60e+00,
597,2.00e-02,-6.80e+00,
598,2.40e-02,-6.60e+00,
599,2.40e-02,-6.80e+00,
600,2.40e-02,-6.20e+00,
601,2.00e-02,-6.80e+00,
602,2.40e-02,-6.60e+00,
603,2.40e-02,-6.80e+00,
604,2.40e-02,-6.60e+00,
605,2.40e-02,-6.80e+00,
606,2.40e-02,-6.60e+00,
607,2.40e-02,-6.80e+00,
608,2.40e-02,-6.20e+00,
609,2.40e-02,-6.80e+00,
610,2.40e-02,-6.60e+00,
611,2.80e-02,-6.80e+00,
612,2.40e-02,-6.20e+00,
613,2.40e-02,-6.80e+00,
614,2.40e-02,-6.60e+00,
615,2.80e-02,-7.00e+00,
616,2.40e-02,-6.20e+00,
617,2.40e-02,-6.60e+00,
618,2.40e-02,-6.60e+00,
619,2.40e-02,-6.80e+00,
620,2.80e-02,-6.60e+00,
621,2.40e-02,-6.80e+00,
622,2.40e-02,-6.60e+00,
623,2.80e-02,-6.80e+00,
624,2.40e-02,-6.20e+00,
625,2.80e-02,-6.80e+00,
626,2.80e-02,-6.60e+00,
627,2.80e-02,-6.80e+00,
628,2.40e-02,-6.20e+00,
629,2.40e-02,-6.80e+00,
630,2.80e-02,-6.60e+00,
631,2.80e-02,-6.80e+00,
632,2.40e-02,-6.20e+00,
633,2.40e-02,-6.80e+00,
634,2.40e-02,-6.60e+00,
635,2.80e-02,-6.80e+00,
636,2.80e-02,-6.20e+00,
637,2.40e-02,-6.80e+00,
638,2.40e-02,-6.60e+00,
639,2.80e-02,-6.80e+00,
640,2.40e-02,-6.20e+00,
641,2.40e-02,-6.80e+00,
642,2.80e-02,-6.60e+00,
643,2.80e-02,-6.80e+00,
644,2.40e-02,-6.60e+00,
645,2.80e-02,-6.80e+00,
646,2.40e-02,-6.60e+00,
647,2.80e-02,-6.80e+00,
648,2.80e-02,-6.20e+00,
649,2.40e-02,-6.80e+00,
650,2.80e-02,-6.60e+00,
651,2.80e-02,-6.80e+00,
652,2.80e-02,-6.20e+00,
653,2.80e-02,-6.80e+00,
654,2.80e-02,-6.60e+00,
655,2.80e-02,-6.80e+00,
656,2.80e-02,-6.20e+00,
657,2.80e-02,-6.80e+00,
658,2.80e-02,-6.60e+00,
659,2.80e-02,-6.80e+00,
660,2.80e-02,-6.20e+00,
661,2.40e-02,-6.80e+00,
662,2.80e-02,-6.60e+00,
663,2.80e-02,-6.80e+00,
664,2.80e-02,-6.60e+00,
665,2.80e-02,-6.80e+00,
666,2.80e-02,-6.60e+00,
667,3.20e-02,-6.80e+00,
668,2.80e-02,-6.20e+00,
669,2.80e-02,-6.80e+00,
670,2.80e-02,-6.60e+00,
671,2.80e-02,-6.80e+00,
672,2.80e-02,-6.20e+00,
673,2.80e-02,-6.80e+00,
674,2.80e-02,-6.60e+00,
675,3.20e-02,-6.80e+00,
676,2.80e-02,-6.20e+00,
677,3.20e-02,-6.80e+00,
678,2.80e-02,-6.60e+00,
679,3.20e-02,-6.80e+00,
680,2.80e-02,-6.20e+00,
681,2.80e-02,-6.80e+00,
682,2.80e-02,-6.60e+00,
683,3.20e-02,-6.80e+00,
684,2.80e-02,-6.20e+00,
685,2.80e-02,-6.80e+00,
686,2.80e-02,-6.60e+00,
687,3.20e-02,-6.80e+00,
688,3.20e-02,-6.20e+00,
689,2.80e-02,-6.60e+00,
690,2.80e-02,-6.60e+00,
691,2.80e-02,-6.80e+00,
692,2.80e-02,-6.20e+00,
693,2.80e-02,-6.80e+00,
694,3.20e-02,-6.60e+00,
695,4.00e-02,-6.80e+00,
696,3.20e-02,-6.20e+00,
697,3.20e-02,-6.80e+00,
698,3.20e-02,-6.60e+00,
699,3.20e-02,-6.80e+00,
700,2.80e-02,-6.20e+00,
701,2.80e-02,-6.80e+00,
702,2.80e-02,-6.20e+00,
703,3.20e-02,-6.80e+00,
704,2.80e-02,-6.20e+00,
705,3.20e-02,-6.80e+00,
706,2.80e-02,-6.60e+00,
707,3.20e-02,-6.80e+00,
708,2.80e-02,-6.20e+00,
709,2.80e-02,-6.80e+00,
710,3.20e-02,-6.60e+00,
711,4.00e-02,-6.80e+00,
712,3.20e-02,-6.20e+00,
713,3.20e-02,-6.60e+00,
714,3.20e-02,-6.60e+00,
715,3.20e-02,-6.80e+00,
716,3.20e-02,-6.20e+00,
717,3.20e-02,-6.80e+00,
718,3.20e-02,-6.20e+00,
719,3.20e-02,-6.80e+00,
720,3.20e-02,-6.20e+00,
721,3.20e-02,-6.80e+00,
722,3.20e-02,-6.60e+00,
723,3.20e-02,-6.80e+00,
724,2.80e-02,-6.20e+00,
725,3.20e-02,-6.80e+00,
726,3.20e-02,-6.60e+00,
727,4.00e-02,-6.80e+00,
728,4.00e-02,-6.20e+00,
729,3.20e-02,-6.60e+00,
730,3.20e-02,-6.60e+00,
731,4.00e-02,-6.80e+00,
732,4.00e-02,-6.20e+00,
733,3.20e-02,-6.80e+00,
734,3.20e-02,-6.20e+00,
735,3.20e-02,-6.80e+00,
736,3.20e-02,-6.20e+00,
737,3.20e-02,-6.60e+00,
738,4.00e-02,-6.60e+00,
739,4.00e-02,-6.80e+00,
740,3.20e-02,-6.20e+00,
741,3.20e-02,-6.80e+00,
742,4.00e-02,-6.20e+00,
743,4.00e-02,-6.80e+00,
744,4.00e-02,-6.20e+00,
745,4.00e-02,-6.60e+00,
746,3.20e-02,-6.60e+00,
747,4.00e-02,-6.80e+00,
748,4.00e-02,-6.20e+00,
749,4.00e-02,-6.80e+00,
750,4.00e-02,-6.60e+00,
751,4.00e-02,-6.80e+00,
752,4.00e-02,-6.20e+00,
753,4.00e-02,-6.80e+00,
754,4.00e-02,-6.20e+00,
755,4.00e-02,-6.80e+00,
756,4.00e-02,-6.20e+00,
757,3.20e-02,-6.80e+00,
758,4.00e-02,-6.60e+00,
759,4.00e-02,-6.80e+00,
760,4.00e-02,-6.20e+00,
761,4.00e-02,-6.80e+00,
762,4.00e-02,-6.20e+00,
763,4.00e-02,-6.80e+00,
764,4.00e-02,-6.20e+00,
765,4.00e-02,-6.80e+00,
766,4.00e-02,-6.20e+00,
767,4.00e-02,-6.80e+00,
768,3.20e-02,-6.00e+00,
769,4.00e-02,-6.60e+00,
770,4.00e-02,-6.20e+00,
771,4.40e-02,-6.80e+00,
772,4.00e-02,-6.20e+00,
773,4.00e-02,-6.80e+00,
774,4.00e-02,-6.60e+00,
775,4.00e-02,-6.80e+00,
776,4.00e-02,-6.20e+00,
777,4.00e-02,-6.60e+00,
778,4.00e-02,-6.60e+00,
779,4.00e-02,-6.80e+00,
780,4.00e-02,-6.20e+00,
781,4.00e-02,-6.80e+00,
782,4.00e-02,-6.20e+00,
783,4.00e-02,-6.80e+00,
784,4.00e-02,-6.20e+00,
785,4.00e-02,-6.60e+00,
786,4.00e-02,-6.60e+00,
787,4.40e-02,-6.80e+00,
788,4.00e-02,-6.20e+00,
789,3.20e-02,-6.80e+00,
790,4.00e-02,-6.20e+00,
791,4.40e-02,-7.00e+00,
792,4.00e-02,-6.00e+00,
793,4.00e-02,-6.60e+00,
794,4.00e-02,-6.60e+00,
795,4.40e-02,-6.60e+00,
796,4.00e-02,-6.20e+00,
797,4.00e-02,-6.60e+00,
798,4.00e-02,-6.20e+00,
799,4.40e-02,-6.80e+00,
800,4.00e-02,-6.20e+00,
801,4.00e-02,-6.60e+00,
802,4.00e-02,-6.20e+00,
803,4.80e-02,-6.80e+00,
804,4.40e-02,-6.20e+00,
805,4.00e-02,-6.80e+00,
806,4.40e-02,-6.20e+00,
807,4.40e-02,-6.80e+00,
808,4.00e-02,-6.20e+00,
809,4.00e-02,-6.80e+00,
810,4.40e-02,-6.20e+00,
811,4.40e-02,-6.80e+00,
812,4.00e-02,-6.20e+00,
813,4.40e-02,-6.80e+00,
814,4.40e-02,-6.20e+00,
815,4.40e-02,-6.80e+00,
816,4.40e-02,-6.20e+00,
817,4.00e-02,-6.60e+00,
818,4.40e-02,-6.20e+00,
819,4.40e-02,-6.60e+00,
820,4.40e-02,-6.20e+00,
821,4.40e-02,-6.80e+00,
822,4.40e-02,-6.60e+00,
823,4.40e-02,-6.80e+00,
824,4.40e-02,-6.20e+00,
825,4.40e-02,-6.60e+00,
826,4.40e-02,-6.20e+00,
827,4.40e-02,-6.60e+00,
828,4.40e-02,-6.20e+00,
829,4.40e-02,-6.80e+00,
830,4.40e-02,-6.60e+00,
831,4.80e-02,-6.80e+00,
832,4.40e-02,-6.00e+00,
833,4.40e-02,-6.80e+00,
834,4.40e-02,-6.60e+00,
835,4.40e-02,-6.80e+00,
836,4.40e-02,-6.20e+00,
837,4.40e-02,-6.80e+00,
838,4.40e-02,-6.20e+00,
839,4.40e-02,-6.80e+00,
840,4.40e-02,-6.20e+00,
841,4.40e-02,-6.60e+00,
842,4.40e-02,-6.20e+00,
