Lab 8/oscilloscope_data/NewFile4.csv

X,CH1,CH2,Start,Increment,
Sequence,Volt,Volt,-3.000000e-05,2.000000e-09
0,-1.60e-02,1.20e+01,
1,-1.60e-02,1.20e+01,
2,-1.60e-02,1.16e+01,
3,-1.60e-02,1.16e+01,
4,-1.60e-02,1.16e+01,
5,-1.60e-02,1.16e+01,
6,-1.60e-02,1.16e+01,
7,-1.60e-02,1.12e+01,
8,-1.60e-02,1.12e+01,
9,-1.60e-02,1.12e+01,
10,-1.60e-02,1.12e+01,
11,-1.60e-02,1.12e+01,
12,-1.60e-02,1.12e+01,
13,-1.60e-02,1.12e+01,
14,-1.60e-02,1.08e+01,
15,-1.60e-02,1.08e+01,
16,-1.60e-02,1.08e+01,
17,-1.60e-02,1.08e+01,
18,-1.60e-02,1.08e+01,
19,-1.60e-02,1.04e+01,
20,-1.60e-02,1.04e+01,
21,-1.60e-02,1.04e+01,
22,-1.60e-02,1.04e+01,
23,-1.60e-02,1.04e+01,
24,-1.60e-02,1.04e+01,
25,-1.60e-02,1.04e+01,
26,-1.60e-02,9.60e+00,
27,-1.60e-02,9.60e+00,
28,-1.60e-02,9.60e+00,
29,-1.60e-02,9.60e+00,
30,-1.60e-02,9.60e+00,
31,-1.60e-02,9.60e+00,
32,-1.60e-02,9.60e+00,
33,-1.60e-02,9.60e+00,
34,-1.60e-02,9.20e+00,
35,-1.60e-02,9.20e+00,
36,-1.60e-02,9.20e+00,
37,-1.60e-02,9.20e+00,
38,-1.60e-02,9.20e+00,
39,-1.60e-02,8.80e+00,
40,-1.60e-02,9.20e+00,
41,-1.60e-02,8.80e+00,
42,-1.60e-02,8.80e+00,
43,-1.60e-02,8.80e+00,
44,-1.60e-02,8.80e+00,
45,-1.60e-02,8.80e+00,
46,-1.60e-02,8.80e+00,
47,-1.60e-02,8.40e+00,
48,-1.60e-02,8.80e+00,
49,-1.60e-02,8.40e+00,
50,-1.60e-02,8.40e+00,
51,-1.60e-02,8.40e+00,
52,-1.60e-02,8.40e+00,
53,-1.60e-02,8.40e+00,
54,-1.60e-02,8.00e+00,
55,-1.60e-02,8.00e+00,
56,-1.60e-02,8.00e+00,
57,-1.60e-02,8.40e+00,
58,-1.60e-02,8.00e+00,
59,-1.60e-02,8.00e+00,
60,-1.60e-02,8.00e+00,
61,-1.60e-02,8.00e+00,
62,0.00e+00,8.00e+00,
63,8.00e-03,8.00e+00,
64,0.00e+00,8.00e+00,
65,8.00e-03,7.60e+00,
66,2.40e-02,7.60e+00,
67,2.40e-02,7.60e+00,
68,8.00e-03,7.60e+00,
69,8.00e-03,7.60e+00,
70,8.00e-03,7.60e+00,
71,8.00e-03,7.20e+00,
72,8.00e-03,7.60e+00,
73,8.00e-03,7.60e+00,
74,8.00e-03,7.20e+00,
75,1.60e-02,7.20e+00,
76,8.00e-03,7.20e+00,
77,1.60e-02,7.20e+00,
78,1.60e-02,7.20e+00,
79,1.60e-02,7.20e+00,
80,8.00e-03,7.20e+00,
81,8.00e-03,7.20e+00,
82,-8.00e-03,7.20e+00,
83,-8.00e-03,7.20e+00,
84,-1.60e-02,7.20e+00,
85,-8.00e-03,7.20e+00,
86,-1.60e-02,7.20e+00,
87,-8.00e-03,7.20e+00,
88,-1.60e-02,7.20e+00,
89,-8.00e-03,7.20e+00,
90,-8.00e-03,6.80e+00,
91,-8.00e-03,7.20e+00,
92,-8.00e-03,6.80e+00,
93,-8.00e-03,6.80e+00,
94,-8.00e-03,6.80e+00,
95,-8.00e-03,6.80e+00,
96,-1.60e-02,6.80e+00,
97,-8.00e-03,6.80e+00,
98,-8.00e-03,6.80e+00,
99,0.00e+00,6.40e+00,
100,8.00e-03,6.40e+00,
101,2.40e-02,6.00e+00,
102,3.20e-02,6.00e+00,
103,4.00e-02,5.60e+00,
104,4.00e-02,5.20e+00,
105,3.20e-02,5.20e+00,
106,2.40e-02,4.40e+00,
107,1.60e-02,4.00e+00,
108,8.00e-03,4.00e+00,
109,8.00e-03,3.60e+00,
110,8.00e-03,3.60e+00,
111,8.00e-03,3.20e+00,
112,8.00e-03,3.20e+00,
113,1.60e-02,3.20e+00,
114,1.60e-02,2.80e+00,
115,1.60e-02,2.40e+00,
116,8.00e-03,2.40e+00,
117,8.00e-03,2.40e+00,
118,0.00e+00,2.00e+00,
119,0.00e+00,2.00e+00,
120,0.00e+00,2.00e+00,
121,0.00e+00,2.00e+00,
122,0.00e+00,1.60e+00,
123,8.00e-03,1.20e+00,
124,8.00e-03,1.20e+00,
125,8.00e-03,1.20e+00,
126,8.00e-03,1.20e+00,
127,8.00e-03,8.00e-01,
128,0.00e+00,8.00e-01,
129,0.00e+00,8.00e-01,
130,0.00e+00,4.00e-01,
131,0.00e+00,4.00e-01,
132,0.00e+00,4.00e-01,
133,0.00e+00,4.00e-01,
134,0.00e+00,-8.60e-05,
135,8.00e-03,-8.60e-05,
136,0.00e+00,-8.60e-05,
137,0.00e+00,-8.60e-05,
138,-8.00e-03,-8.60e-05,
139,-1.60e-02,-4.00e-01,
140,-2.40e-02,-8.60e-05,
141,-2.40e-02,-8.60e-05,
142,-2.40e-02,-8.60e-05,
143,-1.60e-02,-4.00e-01,
144,-1.60e-02,-8.60e-05,
145,-8.00e-03,-8.60e-05,
146,-8.00e-03,-4.00e-01,
147,-8.00e-03,-8.60e-05,
148,-1.60e-02,-8.60e-05,
149,-1.60e-02,-8.60e-05,
150,-1.60e-02,-8.60e-05,
151,-1.60e-02,-4.00e-01,
152,-1.60e-02,-8.60e-05,
153,-1.60e-02,-8.60e-05,
154,-8.00e-03,-8.60e-05,
155,-8.00e-03,-8.60e-05,
156,-8.00e-03,-8.60e-05,
157,-8.00e-03,-8.60e-05,
158,-8.00e-03,-8.60e-05,
159,-8.00e-03,-4.00e-01,
160,-8.00e-03,-8.60e-05,
161,-8.00e-03,-8.60e-05,
162,-1.60e-02,-8.60e-05,
163,-8.00e-03,-8.60e-05,
164,-8.00e-03,-8.60e-05,
165,-8.00e-03,-8.60e-05,
166,-8.00e-03,-8.60e-05,
167,-8.00e-03,-4.00e-01,
168,-8.00e-03,-8.60e-05,
169,-8.00e-03,-8.60e-05,
170,-8.00e-03,-8.60e-05,
171,-8.00e-03,-4.00e-01,
172,-1.60e-02,-8.60e-05,
173,-8.00e-03,-8.60e-05,
174,-8.00e-03,-8.60e-05,
175,-8.00e-03,-8.60e-05,
176,-8.00e-03,-8.60e-05,
177,0.00e+00,-8.60e-05,
178,-8.00e-03,-8.60e-05,
179,-8.00e-03,-8.60e-05,
180,-8.00e-03,-4.00e-01,
181,-8.00e-03,-8.60e-05,
182,-8.00e-03,-4.00e-01,
183,-8.00e-03,-8.60e-05,
184,-8.00e-03,-8.60e-05,
185,-8.00e-03,-8.60e-05,
186,-8.00e-03,-8.60e-05,
187,0.00e+00,-8.60e-05,
188,-8.00e-03,-8.60e-05,
189,-8.00e-03,-8.60e-05,
190,-8.00e-03,-8.60e-05,
191,-8.00e-03,-4.00e-01,
192,-8.00e-03,-8.60e-05,
193,-8.00e-03,-8.60e-05,
194,-8.00e-03,-8.60e-05,
195,-8.00e-03,-8.60e-05,
196,-8.00e-03,-8.60e-05,
197,-8.00e-03,-8.60e-05,
198,-8.00e-03,-8.60e-05,
199,0.00e+00,-4.00e-01,
200,-8.00e-03,-8.60e-05,
201,-8.00e-03,-8.60e-05,
202,-8.00e-03,-8.60e-05,
203,-8.00e-03,-8.60e-05,
204,-8.00e-03,-8.60e-05,
205,-8.00e-03,-8.60e-05,
206,-8.00e-03,-8.60e-05,
207,-8.00e-03,-8.60e-05,
208,-8.00e-03,-8.60e-05,
209,0.00e+00,-8.60e-05,
210,-8.00e-03,-8.60e-05,
211,0.00e+00,-8.60e-05,
212,-8.00e-03,-8.60e-05,
213,-8.00e-03,-8.60e-05,
214,-8.00e-03,-8.60e-05,
215,-8.00e-03,-8.60e-05,
216,-8.00e-03,-8.60e-05,
217,-8.00e-03,-8.60e-05,
218,0.00e+00,-8.60e-05,
219,0.00e+00,-8.60e-05,
220,-8.00e-03,-8.60e-05,
221,0.00e+00,-8.60e-05,
222,-8.00e-03,-8.60e-05,
223,0.00e+00,-4.00e-01,
224,-8.00e-03,-8.60e-05,
225,0.00e+00,-8.60e-05,
226,0.00e+00,-8.60e-05,
227,0.00e+00,-8.60e-05,
228,-8.00e-03,-8.60e-05,
229,-8.00e-03,-8.60e-05,
230,-8.00e-03,-8.60e-05,
231,0.00e+00,-4.00e-01,
232,-8.00e-03,-8.60e-05,
233,-8.00e-03,-8.60e-05,
234,0.00e+00,-8.60e-05,
235,0.00e+00,-8.60e-05,
236,-8.00e-03,-8.60e-05,
237,-8.00e-03,-8.60e-05,
238,0.00e+00,-8.60e-05,
239,0.00e+00,-4.00e-01,
240,-8.00e-03,-8.60e-05,
241,0.00e+00,-8.60e-05,
242,0.00e+00,-8.60e-05,
243,0.00e+00,-8.60e-05,
244,-8.00e-03,-8.60e-05,
245,-8.00e-03,-8.60e-05,
246,-8.00e-03,-8.60e-05,
247,0.00e+00,-8.60e-05,
248,0.00e+00,-8.60e-05,
249,0.00e+00,-8.60e-05,
250,0.00e+00,-8.60e-05,
251,0.00e+00,-8.60e-05,
252,-8.00e-03,-8.60e-05,
253,-8.00e-03,-8.60e-05,
254,-8.00e-03,-8.60e-05,
255,0.00e+00,-8.60e-05,
256,0.00e+00,-8.60e-05,
257,0.00e+00,-8.60e-05,
258,0.00e+00,-8.60e-05,
259,0.00e+00,-8.60e-05,
260,-8.00e-03,-8.60e-05,
261,0.00e+00,-8.60e-05,
262,0.00e+00,-8.60e-05,
263,0.00e+00,-8.60e-05,
264,0.00e+00,-8.60e-05,
265,0.00e+00,-8.60e-05,
266,0.00e+00,-8.60e-05,
267,0.00e+00,-8.60e-05,
268,0.00e+00,-8.60e-05,
269,0.00e+00,-8.60e-05,
270,0.00e+00,-8.60e-05,
271,0.00e+00,-4.00e-01,
272,0.00e+00,-8.60e-05,
273,0.00e+00,-8.60e-05,
274,0.00e+00,-8.60e-05,
275,0.00e+00,-8.60e-05,
276,0.00e+00,-8.60e-05,
277,0.00e+00,-8.60e-05,
278,0.00e+00,-8.60e-05,
279,0.00e+00,-4.00e-01,
280,0.00e+00,-8.60e-05,
281,0.00e+00,-8.60e-05,
282,0.00e+00,-8.60e-05,
283,0.00e+00,-8.60e-05,
284,0.00e+00,-8.60e-05,
285,0.00e+00,-8.60e-05,
286,0.00e+00,-8.60e-05,
287,0.00e+00,-4.00e-01,
288,0.00e+00,-8.60e-05,
289,0.00e+00,-8.60e-05,
290,0.00e+00,-8.60e-05,
291,0.00e+00,-8.60e-05,
292,0.00e+00,-8.60e-05,
293,0.00e+00,-8.60e-05,
294,0.00e+00,-8.60e-05,
295,0.00e+00,-8.60e-05,
296,0.00e+00,-8.60e-05,
297,0.00e+00,-8.60e-05,
298,0.00e+00,-8.60e-05,
299,0.00e+00,-8.60e-05,
300,0.00e+00,-8.60e-05,
301,0.00e+00,-8.60e-05,
302,0.00e+00,-8.60e-05,
303,0.00e+00,-8.60e-05,
304,0.00e+00,-8.60e-05,
305,0.00e+00,-8.60e-05,
306,0.00e+00,-8.60e-05,
307,0.00e+00,-8.60e-05,
308,0.00e+00,-8.60e-05,
309,0.00e+00,-8.60e-05,
310,0.00e+00,-8.60e-05,
311,0.00e+00,-8.60e-05,
312,0.00e+00,-8.60e-05,
313,0.00e+00,-8.60e-05,
314,0.00e+00,-8.60e-05,
315,0.00e+00,-8.60e-05,
316,0.00e+00,-8.60e-05,
317,0.00e+00,-8.60e-05,
318,0.00e+00,-8.60e-05,
319,0.00e+00,-4.00e-01,
320,0.00e+00,-8.60e-05,
321,0.00e+00,-8.60e-05,
322,0.00e+00,-8.60e-05,
323,8.00e-03,-8.60e-05,
324,0.00e+00,-8.60e-05,
325,0.00e+00,-8.60e-05,
326,0.00e+00,-8.60e-05,
327,8.00e-03,-8.60e-05,
328,0.00e+00,-8.60e-05,
329,0.00e+00,-8.60e-05,
330,0.00e+00,-8.60e-05,
331,8.00e-03,-8.60e-05,
332,0.00e+00,-8.60e-05,
333,0.00e+00,-8.60e-05,
334,0.00e+00,-4.00e-01,
335,8.00e-03,-4.00e-01,
336,0.00e+00,-8.60e-05,
337,0.00e+00,-8.60e-05,
338,0.00e+00,-8.60e-05,
339,8.00e-03,-8.60e-05,
340,0.00e+00,-8.60e-05,
341,8.00e-03,-8.60e-05,
342,0.00e+00,-8.60e-05,
343,0.00e+00,-8.60e-05,
344,0.00e+00,-8.60e-05,
345,0.00e+00,-8.60e-05,
346,0.00e+00,-8.60e-05,
347,8.00e-03,-8.60e-05,
348,0.00e+00,-8.60e-05,
349,8.00e-03,-8.60e-05,
350,0.00e+00,-8.60e-05,
351,8.00e-03,-4.00e-01,
352,0.00e+00,-8.60e-05,
353,8.00e-03,-8.60e-05,
354,0.00e+00,-8.60e-05,
355,8.00e-03,-8.60e-05,
356,0.00e+00,-8.60e-05,
357,8.00e-03,-8.60e-05,
358,0.00e+00,-8.60e-05,
359,8.00e-03,-4.00e-01,
360,0.00e+00,-8.60e-05,
361,8.00e-03,-8.60e-05,
362,0.00e+00,-8.60e-05,
363,8.00e-03,-8.60e-05,
364,0.00e+00,-8.60e-05,
365,8.00e-03,-8.60e-05,
366,0.00e+00,-8.60e-05,
367,8.00e-03,-8.60e-05,
368,0.00e+00,-8.60e-05,
369,8.00e-03,-8.60e-05,
370,0.00e+00,-8.60e-05,
371,8.00e-03,-8.60e-05,
372,0.00e+00,-8.60e-05,
373,8.00e-03,-8.60e-05,
374,8.00e-03,-8.60e-05,
375,8.00e-03,-8.60e-05,
376,0.00e+00,-8.60e-05,
377,8.00e-03,-8.60e-05,
378,0.00e+00,-8.60e-05,
379,8.00e-03,-8.60e-05,
380,8.00e-03,-8.60e-05,
381,0.00e+00,4.00e-01,
382,8.00e-03,-8.60e-05,
383,8.00e-03,-8.60e-05,
384,8.00e-03,-8.60e-05,
385,8.00e-03,-8.60e-05,
386,8.00e-03,-8.60e-05,
387,8.00e-03,-8.60e-05,
388,0.00e+00,-8.60e-05,
389,8.00e-03,-8.60e-05,
390,0.00e+00,-8.60e-05,
391,8.00e-03,-8.60e-05,
392,8.00e-03,-8.60e-05,
393,8.00e-03,-8.60e-05,
394,8.00e-03,-8.60e-05,
395,8.00e-03,-8.60e-05,
396,8.00e-03,-8.60e-05,
397,8.00e-03,-8.60e-05,
398,8.00e-03,-8.60e-05,
399,8.00e-03,-8.60e-05,
400,0.00e+00,-8.60e-05,
401,8.00e-03,-8.60e-05,
402,8.00e-03,-8.60e-05,
403,8.00e-03,-8.60e-05,
404,8.00e-03,-8.60e-05,
405,8.00e-03,-8.60e-05,
406,8.00e-03,-8.60e-05,
407,8.00e-03,-8.60e-05,
408,8.00e-03,-8.60e-05,
409,8.00e-03,-8.60e-05,
410,8.00e-03,-8.60e-05,
411,8.00e-03,-8.60e-05,
412,8.00e-03,-8.60e-05,
413,8.00e-03,-8.60e-05,
414,8.00e-03,-8.60e-05,
415,8.00e-03,-8.60e-05,
416,8.00e-03,-8.60e-05,
417,8.00e-03,-8.60e-05,
418,8.00e-03,-8.60e-05,
419,8.00e-03,-8.60e-05,
420,8.00e-03,-8.60e-05,
421,8.00e-03,-8.60e-05,
422,8.00e-03,-8.60e-05,
423,8.00e-03,-8.60e-05,
424,8.00e-03,-8.60e-05,
425,8.00e-03,-8.60e-05,
426,8.00e-03,-8.60e-05,
427,8.00e-03,-8.60e-05,
428,8.00e-03,-8.60e-05,
429,8.00e-03,-8.60e-05,
430,8.00e-03,-8.60e-05,
431,8.00e-03,-8.60e-05,
432,8.00e-03,-8.60e-05,
433,8.00e-03,-8.60e-05,
434,8.00e-03,-8.60e-05,
435,8.00e-03,-8.60e-05,
436,8.00e-03,-8.60e-05,
437,8.00e-03,-8.60e-05,
438,8.00e-03,-8.60e-05,
439,1.60e-02,-8.60e-05,
440,8.00e-03,-8.60e-05,
441,8.00e-03,-8.60e-05,
442,8.00e-03,-8.60e-05,
443,8.00e-03,-8.60e-05,
444,8.00e-03,-8.60e-05,
445,8.00e-03,-8.60e-05,
446,8.00e-03,-8.60e-05,
447,1.60e-02,-8.60e-05,
448,8.00e-03,-8.60e-05,
449,8.00e-03,-8.60e-05,
450,8.00e-03,-8.60e-05,
451,1.60e-02,-8.60e-05,
452,8.00e-03,-8.60e-05,
453,8.00e-03,-8.60e-05,
454,1.60e-02,-8.60e-05,
455,1.60e-02,-8.60e-05,
456,8.00e-03,-8.60e-05,
457,8.00e-03,-8.60e-05,
458,1.60e-02,-8.60e-05,
459,1.60e-02,-8.60e-05,
460,8.00e-03,-8.60e-05,
461,1.60e-02,-8.60e-05,
462,8.00e-03,-8.60e-05,
463,1.60e-02,-8.60e-05,
464,8.00e-03,-8.60e-05,
465,1.60e-02,-8.60e-05,
466,8.00e-03,-8.60e-05,
467,1.60e-02,-8.60e-05,
468,1.60e-02,-8.60e-05,
469,1.60e-02,-8.60e-05,
470,8.00e-03,-8.60e-05,
471,1.60e-02,-8.60e-05,
472,8.00e-03,-8.60e-05,
473,1.60e-02,-8.60e-05,
474,1.60e-02,-8.60e-05,
475,1.60e-02,-8.60e-05,
476,8.00e-03,-8.60e-05,
477,1.60e-02,-8.60e-05,
478,1.60e-02,-8.60e-05,
479,1.60e-02,-8.60e-05,
480,8.00e-03,-8.60e-05,
481,1.60e-02,-8.60e-05,
482,1.60e-02,-8.60e-05,
483,1.60e-02,-8.60e-05,
484,8.00e-03,-8.60e-05,
485,1.60e-02,-8.60e-05,
486,1.60e-02,-8.60e-05,
487,1.60e-02,-8.60e-05,
488,1.60e-02,-8.60e-05,
489,1.60e-02,-8.60e-05,
490,1.60e-02,-8.60e-05,
491,1.60e-02,-8.60e-05,
492,8.00e-03,-8.60e-05,
493,1.60e-02,-8.60e-05,
494,1.60e-02,-8.60e-05,
495,1.60e-02,-8.60e-05,
496,1.60e-02,-8.60e-05,
497,1.60e-02,-8.60e-05,
498,1.60e-02,-8.60e-05,
499,1.60e-02,-8.60e-05,
500,8.00e-03,-8.60e-05,
501,1.60e-02,-8.60e-05,
502,1.60e-02,-8.60e-05,
503,1.60e-02,-8.60e-05,
504,1.60e-02,-8.60e-05,
505,1.60e-02,-8.60e-05,
506,1.60e-02,-8.60e-05,
507,1.60e-02,-8.60e-05,
508,1.60e-02,-8.60e-05,
509,1.60e-02,-8.60e-05,
510,1.60e-02,-8.60e-05,
511,1.60e-02,-8.60e-05,
512,1.60e-02,-8.60e-05,
513,1.60e-02,-8.60e-05,
514,1.60e-02,-8.60e-05,
515,1.60e-02,-8.60e-05,
516,1.60e-02,-8.60e-05,
517,1.60e-02,-8.60e-05,
518,1.60e-02,-8.60e-05,
519,1.60e-02,-8.60e-05,
520,1.60e-02,-8.60e-05,
521,1.60e-02,-8.60e-05,
522,1.60e-02,-8.60e-05,
523,1.60e-02,-8.60e-05,
524,1.60e-02,-8.60e-05,
525,1.60e-02,-8.60e-05,
526,1.60e-02,-8.60e-05,
527,1.60e-02,-8.60e-05,
528,1.60e-02,-8.60e-05,
529,1.60e-02,-8.60e-05,
530,1.60e-02,-8.60e-05,
531,1.60e-02,-8.60e-05,
532,1.60e-02,-8.60e-05,
533,1.60e-02,-8.60e-05,
534,1.60e-02,-8.60e-05,
535,1.60e-02,-8.60e-05,
536,1.60e-02,-8.60e-05,
537,1.60e-02,4.00e-01,
538,1.60e-02,-8.60e-05,
539,1.60e-02,-8.60e-05,
540,1.60e-02,-8.60e-05,
541,1.60e-02,-8.60e-05,
542,1.60e-02,-8.60e-05,
543,1.60e-02,-8.60e-05,
544,1.60e-02,-8.60e-05,
545,1.60e-02,-8.60e-05,
546,1.60e-02,-8.60e-05,
547,2.40e-02,-8.60e-05,
548,1.60e-02,-8.60e-05,
549,2.40e-02,-8.60e-05,
550,1.60e-02,-8.60e-05,
551,2.40e-02,-8.60e-05,
552,1.60e-02,-8.60e-05,
553,1.60e-02,-8.60e-05,
554,1.60e-02,-8.60e-05,
555,2.40e-02,-8.60e-05,
556,1.60e-02,-8.60e-05,
557,1.60e-02,-8.60e-05,
558,1.60e-02,-8.60e-05,
559,2.40e-02,-8.60e-05,
560,1.60e-02,-8.60e-05,
561,1.60e-02,-8.60e-05,
562,1.60e-02,-8.60e-05,
563,2.40e-02,-8.60e-05,
564,1.60e-02,-8.60e-05,
565,2.40e-02,-8.60e-05,
566,1.60e-02,-8.60e-05,
567,2.40e-02,-8.60e-05,
568,1.60e-02,-8.60e-05,
569,2.40e-02,-8.60e-05,
570,1.60e-02,-8.60e-05,
571,2.40e-02,-8.60e-05,
572,1.60e-02,-8.60e-05,
573,2.40e-02,-8.60e-05,
574,2.40e-02,-8.60e-05,
575,2.40e-02,-8.60e-05,
576,1.60e-02,-8.60e-05,
577,2.40e-02,-8.60e-05,
578,1.60e-02,-8.60e-05,
579,2.40e-02,-8.60e-05,
580,2.40e-02,-8.60e-05,
581,1.60e-02,4.00e-01,
582,2.40e-02,-8.60e-05,
583,2.40e-02,-8.60e-05,
584,2.40e-02,-8.60e-05,
585,2.40e-02,-8.60e-05,
586,2.40e-02,-8.60e-05,
587,2.40e-02,-8.60e-05,
588,2.40e-02,-8.60e-05,
589,2.40e-02,-8.60e-05,
590,2.40e-02,-8.60e-05,
591,2.40e-02,-8.60e-05,
592,2.40e-02,-8.60e-05,
593,2.40e-02,-8.60e-05,
594,2.40e-02,-8.60e-05,
595,2.40e-02,-8.60e-05,
596,2.40e-02,-8.60e-05,
597,2.40e-02,-8.60e-05,
598,2.40e-02,-8.60e-05,
599,2.40e-02,-4.00e-01,
600,2.40e-02,-8.60e-05,
601,2.40e-02,-8.60e-05,
602,2.40e-02,-8.60e-05,
603,2.40e-02,-8.60e-05,
604,2.40e-02,-8.60e-05,
605,2.40e-02,-8.60e-05,
606,2.40e-02,-8.60e-05,
607,2.40e-02,-4.00e-01,
608,2.40e-02,-8.60e-05,
609,2.40e-02,-8.60e-05,
610,2.40e-02,-8.60e-05,
611,2.40e-02,-8.60e-05,
612,2.40e-02,-8.60e-05,
613,2.40e-02,-8.60e-05,
614,2.40e-02,-8.60e-05,
615,2.40e-02,-8.60e-05,
616,2.40e-02,-8.60e-05,
617,2.40e-02,-8.60e-05,
618,2.40e-02,-8.60e-05,
619,2.40e-02,-8.60e-05,
620,2.40e-02,-8.60e-05,
621,2.40e-02,-8.60e-05,
622,2.40e-02,-8.60e-05,
623,2.40e-02,-8.60e-05,
624,2.40e-02,-8.60e-05,
625,2.40e-02,-8.60e-05,
626,2.40e-02,-8.60e-05,
627,2.40e-02,-8.60e-05,
628,2.40e-02,-8.60e-05,
629,2.40e-02,-8.60e-05,
630,2.40e-02,-8.60e-05,
631,2.40e-02,-8.60e-05,
632,2.40e-02,-8.60e-05,
633,2.40e-02,-8.60e-05,
634,2.40e-02,-8.60e-05,
635,2.40e-02,-8.60e-05,
636,2.40e-02,-8.60e-05,
637,2.40e-02,-8.60e-05,
638,2.40e-02,-8.60e-05,
639,3.20e-02,-8.60e-05,
640,2.40e-02,-8.60e-05,
641,2.40e-02,-8.60e-05,
642,2.40e-02,-8.60e-05,
643,2.40e-02,-8.60e-05,
644,2.40e-02,-8.60e-05,
645,2.40e-02,-8.60e-05,
646,2.40e-02,-8.60e-05,
647,3.20e-02,-8.60e-05,
648,2.40e-02,-8.60e-05,
649,2.40e-02,-8.60e-05,
650,2.40e-02,-8.60e-05,
651,3.20e-02,-8.60e-05,
652,2.40e-02,-8.60e-05,
653,2.40e-02,-8.60e-05,
654,2.40e-02,-8.60e-05,
655,2.40e-02,-8.60e-05,
656,2.40e-02,-8.60e-05,
657,3.20e-02,-8.60e-05,
658,2.40e-02,-8.60e-05,
659,3.20e-02,-8.60e-05,
660,2.40e-02,-8.60e-05,
661,2.40e-02,-8.60e-05,
662,2.40e-02,-8.60e-05,
663,3.20e-02,-8.60e-05,
664,2.40e-02,-8.60e-05,
665,3.20e-02,-8.60e-05,
666,3.20e-02,-8.60e-05,
667,3.20e-02,-8.60e-05,
668,2.40e-02,-8.60e-05,
669,2.40e-02,-8.60e-05,
670,2.40e-02,-8.60e-05,
671,3.20e-02,-8.60e-05,
672,2.40e-02,-8.60e-05,
673,3.20e-02,-8.60e-05,
674,2.40e-02,-8.60e-05,
675,3.20e-02,-8.60e-05,
676,2.40e-02,-8.60e-05,
677,3.20e-02,-8.60e-05,
678,3.20e-02,-8.60e-05,
679,3.20e-02,-8.60e-05,
680,2.40e-02,-8.60e-05,
681,3.20e-02,-8.60e-05,
682,3.20e-02,-8.60e-05,
683,3.20e-02,-8.60e-05,
684,2.40e-02,-8.60e-05,
685,3.20e-02,-8.60e-05,
686,3.20e-02,-8.60e-05,
687,3.20e-02,-8.60e-05,
688,3.20e-02,-8.60e-05,
689,3.20e-02,-8.60e-05,
690,3.20e-02,-8.60e-05,
691,3.20e-02,-8.60e-05,
692,2.40e-02,-8.60e-05,
693,3.20e-02,-8.60e-05,
694,3.20e-02,-8.60e-05,
695,3.20e-02,-8.60e-05,
696,3.20e-02,-8.60e-05,
697,3.20e-02,-8.60e-05,
698,3.20e-02,-8.60e-05,
699,3.20e-02,-8.60e-05,
700,3.20e-02,-8.60e-05,
701,3.20e-02,-8.60e-05,
702,3.20e-02,-8.60e-05,
703,3.20e-02,-8.60e-05,
704,3.20e-02,-8.60e-05,
705,3.20e-02,-8.60e-05,
706,3.20e-02,-8.60e-05,
707,3.20e-02,-8.60e-05,
708,3.20e-02,-8.60e-05,
709,3.20e-02,-8.60e-05,
710,3.20e-02,-8.60e-05,
711,3.20e-02,-8.60e-05,
712,3.20e-02,-8.60e-05,
713,3.20e-02,-8.60e-05,
714,3.20e-02,-8.60e-05,
715,3.20e-02,-8.60e-05,
716,3.20e-02,-8.60e-05,
717,3.20e-02,-8.60e-05,
718,3.20e-02,-8.60e-05,
719,3.20e-02,-8.60e-05,
720,3.20e-02,-8.60e-05,
721,3.20e-02,-8.60e-05,
722,3.20e-02,-8.60e-05,
723,3.20e-02,-8.60e-05,
724,3.20e-02,-8.60e-05,
725,3.20e-02,-8.60e-05,
726,3.20e-02,-8.60e-05,
727,3.20e-02,-8.60e-05,
728,3.20e-02,-8.60e-05,
729,3.20e-02,-8.60e-05,
730,3.20e-02,-8.60e-05,
731,3.20e-02,-8.60e-05,
732,3.20e-02,-8.60e-05,
733,3.20e-02,-8.60e-05,
734,3.20e-02,-8.60e-05,
735,3.20e-02,-8.60e-05,
736,3.20e-02,-8.60e-05,
737,3.20e-02,4.00e-01,
738,3.20e-02,-8.60e-05,
739,4.00e-02,-8.60e-05,
740,3.20e-02,-8.60e-05,
741,3.20e-02,-8.60e-05,
742,3.20e-02,-8.60e-05,
743,4.00e-02,-8.60e-05,
744,3.20e-02,-8.60e-05,
745,3.20e-02,-8.60e-05,
746,3.20e-02,-8.60e-05,
747,3.20e-02,-8.60e-05,
748,3.20e-02,-8.60e-05,
749,4.00e-02,-8.60e-05,
750,3.20e-02,-8.60e-05,
751,4.00e-02,-8.60e-05,
752,3.20e-02,-8.60e-05,
753,3.20e-02,-8.60e-05,
754,3.20e-02,-8.60e-05,
755,4.00e-02,-8.60e-05,
756,3.20e-02,-8.60e-05,
757,3.20e-02,-8.60e-05,
758,3.20e-02,-8.60e-05,
759,4.00e-02,-4.00e-01,
760,3.20e-02,-8.60e-05,
761,4.00e-02,-8.60e-05,
762,4.00e-02,-8.60e-05,
763,4.00e-02,-8.60e-05,
764,3.20e-02,-8.60e-05,
765,3.20e-02,-8.60e-05,
766,3.20e-02,-8.60e-05,
767,4.00e-02,-8.60e-05,
768,3.20e-02,-8.60e-05,
769,4.00e-02,-8.60e-05,
770,3.20e-02,-8.60e-05,
771,4.00e-02,-8.60e-05,
772,3.20e-02,-8.60e-05,
773,4.00e-02,-8.60e-05,
774,3.20e-02,-8.60e-05,
775,4.00e-02,-8.60e-05,
776,3.20e-02,-8.60e-05,
777,4.00e-02,-8.60e-05,
778,3.20e-02,-8.60e-05,
779,4.00e-02,-8.60e-05,
780,4.00e-02,-8.60e-05,
781,3.20e-02,-8.60e-05,
782,4.00e-02,-8.60e-05,
783,4.00e-02,-8.60e-05,
784,3.20e-02,-8.60e-05,
785,4.00e-02,-8.60e-05,
786,3.20e-02,-8.60e-05,
787,4.00e-02,-8.60e-05,
788,3.20e-02,-8.60e-05,
789,4.00e-02,-8.60e-05,
790,4.00e-02,-8.60e-05,
791,4.00e-02,-8.60e-05,
792,3.20e-02,-8.60e-05,
793,4.00e-02,-8.60e-05,
794,4.00e-02,-8.60e-05,
795,4.00e-02,-8.60e-05,
796,3.20e-02,-8.60e-05,
797,4.00e-02,-8.60e-05,
798,4.00e-02,-8.60e-05,
799,4.00e-02,-8.60e-05,
800,3.20e-02,-8.60e-05,
801,4.00e-02,-8.60e-05,
802,4.00e-02,-8.60e-05,
803,4.00e-02,-8.60e-05,
804,4.00e-02,-8.60e-05,
805,4.00e-02,-8.60e-05,
806,4.00e-02,-8.60e-05,
807,4.00e-02,-8.60e-05,
808,4.00e-02,-8.60e-05,
809,4.00e-02,-8.60e-05,
810,4.00e-02,-8.60e-05,
811,4.00e-02,-8.60e-05,
812,4.00e-02,-8.60e-05,
813,4.00e-02,-8.60e-05,
814,4.00e-02,-8.60e-05,
815,4.00e-02,-8.60e-05,
816,4.00e-02,-8.60e-05,
817,4.00e-02,-8.60e-05,
818,4.00e-02,-8.60e-05,
819,4.00e-02,-8.60e-05,
820,4.00e-02,-8.60e-05,
821,4.00e-02,-8.60e-05,
822,4.00e-02,-8.60e-05,
823,4.00e-02,-8.60e-05,
824,4.00e-02,-8.60e-05,
825,4.00e-02,-8.60e-05,
826,4.00e-02,-8.60e-05,
827,4.00e-02,-8.60e-05,
828,4.00e-02,-8.60e-05,
829,4.00e-02,-8.60e-05,
830,4.00e-02,-8.60e-05,
831,4.00e-02,-8.60e-05,
832,4.00e-02,-8.60e-05,
