Lab 8/oscilloscope_data/NewFile3.csv

X,CH1,CH2,Start,Increment,
Sequence,Volt,Volt,-3.000000e-05,2.000000e-09
0,-1.60e-02,1.96e+01,
1,-1.60e-02,1.96e+01,
2,-1.60e-02,1.96e+01,
3,-1.60e-02,1.96e+01,
4,-1.60e-02,1.96e+01,
5,-1.60e-02,1.92e+01,
6,-1.60e-02,1.92e+01,
7,-1.60e-02,1.92e+01,
8,-1.60e-02,1.92e+01,
9,-1.60e-02,1.88e+01,
10,-1.60e-02,1.92e+01,
11,-1.60e-02,1.88e+01,
12,-1.60e-02,1.88e+01,
13,-1.60e-02,1.88e+01,
14,-1.60e-02,1.88e+01,
15,-1.60e-02,1.84e+01,
16,-1.60e-02,1.84e+01,
17,-1.60e-02,1.84e+01,
18,-1.60e-02,1.84e+01,
19,-1.60e-02,1.84e+01,
20,-1.60e-02,1.80e+01,
21,-1.60e-02,1.80e+01,
22,-1.60e-02,1.80e+01,
23,-1.60e-02,1.80e+01,
24,-1.60e-02,1.76e+01,
25,-1.60e-02,1.76e+01,
26,-1.60e-02,1.76e+01,
27,-1.60e-02,1.76e+01,
28,-1.60e-02,1.76e+01,
29,-1.60e-02,1.76e+01,
30,-1.60e-02,1.72e+01,
31,-1.60e-02,1.72e+01,
32,-1.60e-02,1.72e+01,
33,-1.60e-02,1.72e+01,
34,-1.60e-02,1.72e+01,
35,-1.60e-02,1.72e+01,
36,-1.60e-02,1.72e+01,
37,-1.60e-02,1.68e+01,
38,-1.60e-02,1.68e+01,
39,-1.60e-02,1.68e+01,
40,-1.60e-02,1.68e+01,
41,-1.60e-02,1.64e+01,
42,-1.60e-02,1.64e+01,
43,-1.60e-02,1.64e+01,
44,-1.60e-02,1.64e+01,
45,-1.60e-02,1.64e+01,
46,-1.60e-02,1.60e+01,
47,-1.60e-02,1.60e+01,
48,-1.60e-02,1.60e+01,
49,-1.60e-02,1.60e+01,
50,-1.60e-02,1.60e+01,
51,-1.60e-02,1.60e+01,
52,-1.60e-02,1.52e+01,
53,-1.60e-02,1.52e+01,
54,-1.60e-02,1.52e+01,
55,-1.60e-02,1.52e+01,
56,-1.60e-02,1.52e+01,
57,-1.60e-02,1.48e+01,
58,-1.60e-02,1.48e+01,
59,-1.60e-02,1.48e+01,
60,-1.60e-02,1.48e+01,
61,-1.60e-02,1.48e+01,
62,-1.60e-02,1.48e+01,
63,-1.60e-02,1.44e+01,
64,-1.60e-02,1.44e+01,
65,-1.60e-02,1.44e+01,
66,-1.60e-02,1.44e+01,
67,-1.60e-02,1.44e+01,
68,-1.60e-02,1.40e+01,
69,-1.60e-02,1.40e+01,
70,-1.60e-02,1.40e+01,
71,-1.60e-02,1.40e+01,
72,-1.60e-02,1.40e+01,
73,-1.60e-02,1.36e+01,
74,-1.60e-02,1.36e+01,
75,-1.60e-02,1.36e+01,
76,-1.60e-02,1.36e+01,
77,-1.60e-02,1.36e+01,
78,-1.60e-02,1.36e+01,
79,-1.60e-02,1.32e+01,
80,-1.60e-02,1.32e+01,
81,-1.60e-02,1.32e+01,
82,-1.60e-02,1.32e+01,
83,-1.60e-02,1.32e+01,
84,-1.60e-02,1.28e+01,
85,-1.60e-02,1.28e+01,
86,-1.60e-02,1.28e+01,
87,-1.60e-02,1.28e+01,
88,-1.60e-02,1.28e+01,
89,-1.60e-02,1.24e+01,
90,-1.60e-02,1.24e+01,
91,-1.60e-02,1.24e+01,
92,-1.60e-02,1.24e+01,
93,-1.60e-02,1.24e+01,
94,-1.60e-02,1.24e+01,
95,-1.60e-02,1.24e+01,
96,-1.60e-02,1.20e+01,
97,-1.60e-02,1.20e+01,
98,-1.60e-02,1.20e+01,
99,-1.60e-02,1.20e+01,
100,-1.60e-02,1.20e+01,
101,-1.60e-02,1.16e+01,
102,-1.60e-02,1.16e+01,
103,-1.60e-02,1.16e+01,
104,-1.60e-02,1.16e+01,
105,-1.60e-02,1.16e+01,
106,-1.60e-02,1.16e+01,
107,-1.60e-02,1.16e+01,
108,-1.60e-02,1.12e+01,
109,-1.60e-02,1.12e+01,
110,-1.60e-02,1.12e+01,
111,-1.60e-02,1.12e+01,
112,-1.60e-02,1.12e+01,
113,-1.60e-02,1.12e+01,
114,-1.60e-02,1.12e+01,
115,-1.60e-02,1.08e+01,
116,-1.60e-02,1.08e+01,
117,-1.60e-02,1.08e+01,
118,-1.60e-02,1.08e+01,
119,-1.60e-02,1.08e+01,
120,-1.60e-02,1.04e+01,
121,-1.60e-02,1.04e+01,
122,-1.60e-02,1.04e+01,
123,-1.60e-02,1.04e+01,
124,-1.60e-02,1.04e+01,
125,-1.60e-02,1.04e+01,
126,-1.60e-02,1.04e+01,
127,-1.60e-02,9.60e+00,
128,-1.60e-02,9.60e+00,
129,-1.60e-02,9.60e+00,
130,-1.60e-02,9.60e+00,
131,-1.60e-02,9.60e+00,
132,-1.60e-02,9.60e+00,
133,-1.60e-02,9.20e+00,
134,-1.60e-02,9.20e+00,
135,-1.60e-02,9.20e+00,
136,-1.60e-02,9.20e+00,
137,-1.60e-02,9.20e+00,
138,-1.60e-02,9.20e+00,
139,-1.60e-02,9.20e+00,
140,-1.60e-02,8.80e+00,
141,-1.60e-02,8.80e+00,
142,-1.60e-02,8.80e+00,
143,-1.60e-02,8.80e+00,
144,-1.60e-02,8.80e+00,
145,-1.60e-02,8.40e+00,
146,-1.60e-02,8.80e+00,
147,-1.60e-02,8.80e+00,
148,-1.60e-02,8.80e+00,
149,-1.60e-02,8.40e+00,
150,-1.60e-02,8.40e+00,
151,-1.60e-02,8.40e+00,
152,-1.60e-02,8.40e+00,
153,-1.60e-02,8.00e+00,
154,-1.60e-02,8.40e+00,
155,-1.60e-02,8.40e+00,
156,-1.60e-02,8.00e+00,
157,-1.60e-02,8.00e+00,
158,-1.60e-02,8.00e+00,
159,-1.60e-02,8.00e+00,
160,-1.60e-02,8.00e+00,
161,-1.60e-02,8.00e+00,
162,-1.60e-02,8.00e+00,
163,-1.60e-02,8.00e+00,
164,-1.60e-02,7.60e+00,
165,-1.60e-02,7.60e+00,
166,-1.60e-02,7.60e+00,
167,-1.60e-02,7.60e+00,
168,-1.60e-02,7.60e+00,
169,-1.60e-02,7.60e+00,
170,-1.60e-02,7.60e+00,
171,-1.60e-02,7.20e+00,
172,-1.60e-02,7.20e+00,
173,-1.60e-02,7.20e+00,
174,-1.60e-02,7.20e+00,
175,-1.60e-02,7.20e+00,
176,-1.60e-02,7.20e+00,
177,-1.60e-02,7.20e+00,
178,-1.60e-02,7.20e+00,
179,-1.60e-02,7.20e+00,
180,-1.60e-02,7.20e+00,
181,-1.60e-02,6.80e+00,
182,-1.60e-02,7.20e+00,
183,-1.60e-02,7.20e+00,
184,-1.60e-02,6.80e+00,
185,-1.60e-02,6.80e+00,
186,-1.60e-02,6.80e+00,
187,-1.60e-02,6.80e+00,
188,-1.60e-02,6.80e+00,
189,-1.60e-02,6.80e+00,
190,-1.60e-02,6.80e+00,
191,-1.60e-02,6.80e+00,
192,-1.60e-02,6.80e+00,
193,-1.60e-02,6.40e+00,
194,-1.60e-02,6.80e+00,
195,-1.60e-02,6.80e+00,
196,-1.60e-02,6.40e+00,
197,-1.60e-02,6.40e+00,
198,-1.60e-02,6.40e+00,
199,-1.60e-02,6.40e+00,
200,-1.60e-02,6.40e+00,
201,-1.60e-02,6.40e+00,
202,-1.60e-02,6.40e+00,
203,-1.60e-02,6.40e+00,
204,-1.60e-02,6.40e+00,
205,-1.60e-02,6.00e+00,
206,-1.60e-02,6.00e+00,
207,-1.60e-02,6.00e+00,
208,-1.60e-02,6.00e+00,
209,-1.60e-02,6.00e+00,
210,-1.60e-02,6.00e+00,
211,-1.60e-02,6.00e+00,
212,-1.60e-02,6.00e+00,
213,-1.60e-02,6.00e+00,
214,-1.60e-02,6.00e+00,
215,-1.60e-02,6.00e+00,
216,-1.60e-02,6.00e+00,
217,-1.60e-02,6.00e+00,
218,-1.60e-02,6.00e+00,
219,-1.60e-02,6.00e+00,
220,-1.60e-02,5.60e+00,
221,-1.60e-02,5.60e+00,
222,-1.60e-02,6.00e+00,
223,-1.60e-02,5.60e+00,
224,-1.60e-02,5.60e+00,
225,-1.60e-02,5.60e+00,
226,-1.60e-02,6.00e+00,
227,-1.60e-02,6.00e+00,
228,-1.60e-02,5.60e+00,
229,-1.60e-02,5.60e+00,
230,-1.60e-02,5.60e+00,
231,-1.60e-02,5.60e+00,
232,-1.60e-02,5.60e+00,
233,-1.60e-02,5.60e+00,
234,-1.60e-02,5.60e+00,
235,-1.60e-02,5.60e+00,
236,-1.60e-02,5.60e+00,
237,-1.60e-02,5.60e+00,
238,-1.60e-02,5.60e+00,
239,-1.60e-02,5.60e+00,
240,-1.60e-02,5.60e+00,
241,-1.60e-02,5.20e+00,
242,-1.60e-02,5.60e+00,
243,-1.60e-02,5.60e+00,
244,-1.60e-02,5.20e+00,
245,-1.60e-02,5.20e+00,
246,-1.60e-02,5.20e+00,
247,-1.60e-02,5.60e+00,
248,-1.60e-02,5.20e+00,
249,-1.60e-02,5.20e+00,
250,-1.60e-02,5.20e+00,
251,-1.60e-02,5.60e+00,
252,-1.60e-02,5.20e+00,
253,-1.60e-02,5.20e+00,
254,-1.60e-02,5.20e+00,
255,-1.60e-02,5.20e+00,
256,-1.60e-02,5.20e+00,
257,-1.60e-02,5.20e+00,
258,-1.60e-02,5.20e+00,
259,-1.60e-02,5.20e+00,
260,-1.60e-02,5.20e+00,
261,-8.00e-03,5.20e+00,
262,-1.60e-02,5.20e+00,
263,-1.60e-02,5.20e+00,
264,-1.60e-02,5.20e+00,
265,-1.60e-02,5.20e+00,
266,-1.60e-02,5.20e+00,
267,-1.60e-02,5.20e+00,
268,-1.60e-02,5.20e+00,
269,-1.60e-02,5.20e+00,
270,-1.60e-02,5.20e+00,
271,-1.60e-02,5.20e+00,
272,-1.60e-02,5.20e+00,
273,-1.60e-02,5.20e+00,
274,-1.60e-02,5.20e+00,
275,-1.60e-02,5.20e+00,
276,-1.60e-02,5.20e+00,
277,-1.60e-02,5.20e+00,
278,-1.60e-02,5.20e+00,
279,-1.60e-02,5.20e+00,
280,-1.60e-02,5.20e+00,
281,-8.00e-03,5.20e+00,
282,-1.60e-02,5.20e+00,
283,-1.60e-02,5.20e+00,
284,-1.60e-02,5.20e+00,
285,-1.60e-02,5.20e+00,
286,-1.60e-02,5.20e+00,
287,-1.60e-02,5.20e+00,
288,-1.60e-02,5.20e+00,
289,-1.60e-02,5.20e+00,
290,-1.60e-02,5.20e+00,
291,-1.60e-02,5.60e+00,
292,-1.60e-02,5.20e+00,
293,-8.00e-03,5.20e+00,
294,-1.60e-02,5.20e+00,
295,-1.60e-02,5.20e+00,
296,-1.60e-02,5.20e+00,
297,-1.60e-02,5.20e+00,
298,-1.60e-02,5.20e+00,
299,-1.60e-02,5.60e+00,
300,-1.60e-02,5.20e+00,
301,-1.60e-02,5.60e+00,
302,-1.60e-02,5.60e+00,
303,-8.00e-03,5.20e+00,
304,-8.00e-03,5.60e+00,
305,8.00e-03,5.20e+00,
306,8.00e-03,5.60e+00,
307,8.00e-03,5.60e+00,
308,1.60e-02,5.60e+00,
309,2.40e-02,5.60e+00,
310,2.40e-02,5.60e+00,
311,1.60e-02,5.60e+00,
312,1.60e-02,5.60e+00,
313,1.60e-02,5.60e+00,
314,8.00e-03,5.60e+00,
315,1.60e-02,5.60e+00,
316,8.00e-03,5.60e+00,
317,1.60e-02,5.60e+00,
318,1.60e-02,5.60e+00,
319,1.60e-02,6.00e+00,
320,1.60e-02,6.00e+00,
321,2.40e-02,6.00e+00,
322,1.60e-02,6.00e+00,
323,1.60e-02,6.00e+00,
324,8.00e-03,6.00e+00,
325,0.00e+00,6.00e+00,
326,-8.00e-03,6.00e+00,
327,-8.00e-03,6.00e+00,
328,-8.00e-03,6.00e+00,
329,-8.00e-03,6.00e+00,
330,-8.00e-03,6.40e+00,
331,-8.00e-03,6.40e+00,
332,-8.00e-03,6.40e+00,
333,-8.00e-03,6.40e+00,
334,-8.00e-03,6.40e+00,
335,-8.00e-03,6.40e+00,
336,-8.00e-03,6.40e+00,
337,0.00e+00,6.40e+00,
338,8.00e-03,6.40e+00,
339,2.40e-02,6.40e+00,
340,4.00e-02,5.60e+00,
341,5.60e-02,5.60e+00,
342,5.60e-02,5.20e+00,
343,5.60e-02,4.40e+00,
344,4.00e-02,4.40e+00,
345,4.00e-02,4.00e+00,
346,2.40e-02,3.60e+00,
347,2.40e-02,3.60e+00,
348,1.60e-02,3.20e+00,
349,2.40e-02,3.20e+00,
350,2.40e-02,2.80e+00,
351,2.40e-02,2.80e+00,
352,2.40e-02,2.40e+00,
353,2.40e-02,2.40e+00,
354,2.40e-02,2.40e+00,
355,1.60e-02,2.00e+00,
356,1.60e-02,2.00e+00,
357,1.60e-02,1.60e+00,
358,8.00e-03,1.60e+00,
359,8.00e-03,1.60e+00,
360,1.60e-02,1.20e+00,
361,1.60e-02,1.20e+00,
362,1.60e-02,8.00e-01,
363,2.40e-02,8.00e-01,
364,1.60e-02,8.00e-01,
365,1.60e-02,4.00e-01,
366,8.00e-03,4.00e-01,
367,8.00e-03,4.00e-01,
368,8.00e-03,-8.60e-05,
369,8.00e-03,-8.60e-05,
370,0.00e+00,-8.60e-05,
371,8.00e-03,-8.60e-05,
372,0.00e+00,-8.60e-05,
373,0.00e+00,-8.60e-05,
374,0.00e+00,-4.00e-01,
375,-8.00e-03,-8.60e-05,
376,-8.00e-03,-4.00e-01,
377,-8.00e-03,-4.00e-01,
378,-8.00e-03,-8.60e-05,
379,-8.00e-03,-8.60e-05,
380,-8.00e-03,-4.00e-01,
381,-8.00e-03,-4.00e-01,
382,-8.00e-03,-8.60e-05,
383,0.00e+00,-8.60e-05,
384,0.00e+00,-8.60e-05,
385,0.00e+00,-8.60e-05,
386,-8.00e-03,-8.60e-05,
387,0.00e+00,-8.60e-05,
388,-8.00e-03,-8.60e-05,
389,0.00e+00,-8.60e-05,
390,0.00e+00,-8.60e-05,
391,0.00e+00,-8.60e-05,
392,-8.00e-03,-8.60e-05,
393,0.00e+00,-4.00e-01,
394,0.00e+00,-8.60e-05,
395,0.00e+00,-8.60e-05,
396,0.00e+00,-8.60e-05,
397,0.00e+00,-8.60e-05,
398,0.00e+00,-8.60e-05,
399,0.00e+00,-8.60e-05,
400,0.00e+00,-8.60e-05,
401,0.00e+00,-4.00e-01,
402,0.00e+00,-8.60e-05,
403,0.00e+00,-8.60e-05,
404,0.00e+00,-8.60e-05,
405,0.00e+00,-8.60e-05,
406,0.00e+00,-8.60e-05,
407,0.00e+00,-8.60e-05,
408,0.00e+00,-8.60e-05,
409,0.00e+00,-8.60e-05,
410,0.00e+00,-8.60e-05,
411,0.00e+00,-8.60e-05,
412,0.00e+00,-8.60e-05,
413,8.00e-03,-8.60e-05,
414,0.00e+00,-8.60e-05,
415,0.00e+00,-8.60e-05,
416,0.00e+00,-8.60e-05,
417,0.00e+00,-8.60e-05,
418,0.00e+00,-8.60e-05,
419,0.00e+00,-8.60e-05,
420,0.00e+00,-8.60e-05,
421,0.00e+00,-8.60e-05,
422,0.00e+00,-8.60e-05,
423,0.00e+00,-8.60e-05,
424,0.00e+00,-8.60e-05,
425,8.00e-03,-4.00e-01,
426,0.00e+00,-8.60e-05,
427,0.00e+00,-8.60e-05,
428,0.00e+00,-8.60e-05,
429,0.00e+00,-8.60e-05,
430,0.00e+00,-8.60e-05,
431,0.00e+00,-8.60e-05,
432,0.00e+00,-8.60e-05,
433,0.00e+00,-4.00e-01,
434,0.00e+00,-8.60e-05,
435,0.00e+00,-8.60e-05,
436,0.00e+00,-8.60e-05,
437,0.00e+00,-8.60e-05,
438,0.00e+00,-8.60e-05,
439,0.00e+00,-8.60e-05,
440,0.00e+00,-8.60e-05,
441,8.00e-03,-8.60e-05,
442,0.00e+00,-8.60e-05,
443,0.00e+00,-8.60e-05,
444,8.00e-03,-8.60e-05,
445,8.00e-03,-8.60e-05,
446,0.00e+00,-8.60e-05,
447,0.00e+00,-8.60e-05,
448,0.00e+00,-8.60e-05,
449,0.00e+00,-8.60e-05,
450,0.00e+00,-8.60e-05,
451,0.00e+00,-8.60e-05,
452,0.00e+00,-8.60e-05,
453,8.00e-03,-8.60e-05,
454,0.00e+00,-8.60e-05,
455,8.00e-03,-8.60e-05,
456,0.00e+00,-8.60e-05,
457,8.00e-03,-8.60e-05,
458,0.00e+00,-8.60e-05,
459,0.00e+00,-8.60e-05,
460,8.00e-03,-8.60e-05,
461,8.00e-03,-8.60e-05,
462,0.00e+00,-8.60e-05,
463,8.00e-03,-8.60e-05,
464,0.00e+00,-8.60e-05,
465,8.00e-03,-4.00e-01,
466,8.00e-03,-8.60e-05,
467,8.00e-03,-8.60e-05,
468,0.00e+00,-8.60e-05,
469,8.00e-03,-8.60e-05,
470,8.00e-03,-8.60e-05,
471,8.00e-03,-8.60e-05,
472,0.00e+00,-8.60e-05,
473,8.00e-03,-4.00e-01,
474,0.00e+00,-8.60e-05,
475,8.00e-03,-8.60e-05,
476,8.00e-03,-8.60e-05,
477,8.00e-03,-8.60e-05,
478,0.00e+00,-8.60e-05,
479,8.00e-03,-8.60e-05,
480,8.00e-03,-8.60e-05,
481,8.00e-03,-8.60e-05,
482,0.00e+00,-8.60e-05,
483,8.00e-03,-8.60e-05,
484,8.00e-03,-8.60e-05,
485,8.00e-03,-8.60e-05,
486,0.00e+00,-8.60e-05,
487,8.00e-03,-8.60e-05,
488,8.00e-03,-8.60e-05,
489,8.00e-03,-4.00e-01,
490,8.00e-03,-8.60e-05,
491,8.00e-03,-8.60e-05,
492,0.00e+00,-8.60e-05,
493,8.00e-03,-4.00e-01,
494,0.00e+00,-8.60e-05,
495,8.00e-03,-8.60e-05,
496,0.00e+00,-8.60e-05,
497,8.00e-03,-8.60e-05,
498,8.00e-03,-8.60e-05,
499,8.00e-03,-8.60e-05,
500,8.00e-03,-8.60e-05,
501,8.00e-03,-8.60e-05,
502,8.00e-03,-8.60e-05,
503,8.00e-03,-8.60e-05,
504,8.00e-03,-8.60e-05,
505,8.00e-03,-8.60e-05,
506,8.00e-03,-8.60e-05,
507,8.00e-03,-8.60e-05,
508,8.00e-03,-8.60e-05,
509,8.00e-03,-8.60e-05,
510,8.00e-03,-8.60e-05,
511,8.00e-03,-8.60e-05,
512,8.00e-03,-8.60e-05,
513,8.00e-03,-8.60e-05,
514,8.00e-03,-8.60e-05,
515,8.00e-03,-8.60e-05,
516,8.00e-03,-8.60e-05,
517,8.00e-03,-8.60e-05,
518,8.00e-03,-8.60e-05,
519,8.00e-03,-8.60e-05,
520,8.00e-03,-8.60e-05,
521,8.00e-03,-8.60e-05,
522,8.00e-03,-8.60e-05,
523,8.00e-03,-8.60e-05,
524,8.00e-03,-8.60e-05,
525,8.00e-03,-8.60e-05,
526,8.00e-03,-8.60e-05,
527,8.00e-03,-8.60e-05,
528,8.00e-03,-4.00e-01,
529,8.00e-03,-8.60e-05,
530,8.00e-03,-8.60e-05,
531,8.00e-03,-8.60e-05,
532,8.00e-03,-8.60e-05,
533,8.00e-03,-8.60e-05,
534,8.00e-03,-8.60e-05,
535,8.00e-03,-8.60e-05,
536,8.00e-03,-8.60e-05,
537,8.00e-03,-8.60e-05,
538,8.00e-03,-8.60e-05,
539,8.00e-03,-8.60e-05,
540,8.00e-03,-8.60e-05,
541,8.00e-03,-8.60e-05,
542,8.00e-03,-8.60e-05,
543,8.00e-03,-8.60e-05,
544,8.00e-03,-8.60e-05,
545,8.00e-03,-4.00e-01,
546,8.00e-03,-8.60e-05,
547,8.00e-03,-8.60e-05,
548,8.00e-03,-8.60e-05,
549,8.00e-03,-8.60e-05,
550,8.00e-03,-8.60e-05,
551,8.00e-03,-8.60e-05,
552,8.00e-03,-8.60e-05,
553,1.60e-02,-4.00e-01,
554,8.00e-03,-8.60e-05,
555,8.00e-03,-8.60e-05,
556,8.00e-03,-8.60e-05,
557,1.60e-02,-8.60e-05,
558,8.00e-03,-8.60e-05,
559,8.00e-03,-8.60e-05,
560,8.00e-03,-8.60e-05,
561,8.00e-03,-8.60e-05,
562,8.00e-03,-8.60e-05,
563,8.00e-03,-8.60e-05,
564,8.00e-03,-8.60e-05,
565,1.60e-02,-8.60e-05,
566,8.00e-03,-8.60e-05,
567,8.00e-03,-8.60e-05,
568,8.00e-03,-8.60e-05,
569,1.60e-02,-8.60e-05,
570,8.00e-03,-8.60e-05,
571,1.60e-02,-8.60e-05,
572,8.00e-03,-8.60e-05,
573,1.60e-02,-8.60e-05,
574,1.60e-02,-4.00e-01,
575,8.00e-03,-8.60e-05,
576,1.60e-02,-8.60e-05,
577,1.60e-02,-8.60e-05,
578,8.00e-03,-8.60e-05,
579,1.60e-02,-8.60e-05,
580,8.00e-03,-8.60e-05,
581,1.60e-02,-8.60e-05,
582,8.00e-03,-8.60e-05,
583,8.00e-03,-8.60e-05,
584,8.00e-03,-8.60e-05,
585,1.60e-02,-8.60e-05,
586,8.00e-03,-8.60e-05,
587,8.00e-03,-8.60e-05,
588,8.00e-03,-8.60e-05,
589,1.60e-02,-8.60e-05,
590,1.60e-02,-8.60e-05,
591,1.60e-02,-8.60e-05,
592,8.00e-03,-8.60e-05,
593,1.60e-02,-4.00e-01,
594,8.00e-03,-8.60e-05,
595,1.60e-02,-8.60e-05,
596,1.60e-02,-8.60e-05,
597,1.60e-02,-8.60e-05,
598,8.00e-03,-8.60e-05,
599,1.60e-02,-8.60e-05,
600,1.60e-02,-8.60e-05,
601,1.60e-02,-8.60e-05,
602,8.00e-03,-8.60e-05,
603,1.60e-02,-8.60e-05,
604,1.60e-02,-8.60e-05,
605,1.60e-02,-8.60e-05,
606,1.60e-02,-8.60e-05,
607,1.60e-02,-8.60e-05,
608,1.60e-02,-8.60e-05,
609,1.60e-02,-8.60e-05,
610,1.60e-02,-8.60e-05,
611,1.60e-02,-8.60e-05,
612,1.60e-02,-8.60e-05,
613,1.60e-02,-8.60e-05,
614,8.00e-03,-8.60e-05,
615,1.60e-02,-8.60e-05,
616,1.60e-02,-8.60e-05,
617,1.60e-02,-8.60e-05,
618,1.60e-02,-8.60e-05,
619,1.60e-02,-8.60e-05,
620,1.60e-02,-8.60e-05,
621,1.60e-02,-8.60e-05,
622,8.00e-03,-8.60e-05,
623,1.60e-02,-8.60e-05,
624,1.60e-02,-8.60e-05,
625,1.60e-02,-8.60e-05,
626,1.60e-02,-8.60e-05,
627,1.60e-02,-8.60e-05,
628,1.60e-02,-8.60e-05,
629,1.60e-02,-8.60e-05,
630,1.60e-02,-8.60e-05,
631,1.60e-02,-8.60e-05,
632,1.60e-02,-8.60e-05,
633,1.60e-02,-8.60e-05,
634,1.60e-02,-8.60e-05,
635,1.60e-02,-8.60e-05,
636,1.60e-02,-8.60e-05,
637,1.60e-02,-8.60e-05,
638,1.60e-02,-8.60e-05,
639,1.60e-02,-8.60e-05,
640,1.60e-02,-8.60e-05,
641,1.60e-02,-8.60e-05,
642,1.60e-02,-8.60e-05,
643,1.60e-02,-8.60e-05,
644,1.60e-02,-8.60e-05,
645,1.60e-02,-8.60e-05,
646,1.60e-02,-8.60e-05,
647,1.60e-02,-8.60e-05,
648,1.60e-02,-8.60e-05,
649,1.60e-02,-8.60e-05,
650,1.60e-02,-8.60e-05,
651,1.60e-02,-8.60e-05,
652,1.60e-02,-8.60e-05,
653,1.60e-02,-8.60e-05,
654,1.60e-02,-8.60e-05,
655,1.60e-02,-8.60e-05,
656,1.60e-02,-8.60e-05,
657,2.40e-02,-4.00e-01,
658,1.60e-02,-8.60e-05,
659,1.60e-02,-8.60e-05,
660,1.60e-02,-8.60e-05,
661,2.40e-02,-8.60e-05,
662,1.60e-02,-8.60e-05,
663,1.60e-02,-8.60e-05,
664,1.60e-02,-8.60e-05,
665,1.60e-02,-8.60e-05,
666,1.60e-02,-8.60e-05,
667,1.60e-02,-8.60e-05,
668,1.60e-02,-8.60e-05,
669,1.60e-02,-8.60e-05,
670,1.60e-02,-8.60e-05,
671,1.60e-02,-8.60e-05,
672,1.60e-02,-8.60e-05,
673,2.40e-02,-8.60e-05,
674,1.60e-02,-8.60e-05,
675,1.60e-02,-8.60e-05,
676,1.60e-02,-8.60e-05,
677,1.60e-02,-8.60e-05,
678,1.60e-02,-8.60e-05,
679,1.60e-02,-8.60e-05,
680,1.60e-02,-8.60e-05,
681,1.60e-02,-8.60e-05,
682,1.60e-02,-8.60e-05,
683,2.40e-02,-8.60e-05,
684,2.40e-02,-8.60e-05,
685,2.40e-02,-8.60e-05,
686,1.60e-02,-8.60e-05,
687,2.40e-02,-8.60e-05,
688,2.40e-02,-8.60e-05,
689,2.40e-02,-8.60e-05,
690,2.40e-02,-8.60e-05,
691,1.60e-02,-8.60e-05,
692,2.40e-02,-8.60e-05,
693,2.40e-02,-8.60e-05,
694,2.40e-02,-8.60e-05,
695,2.40e-02,-8.60e-05,
696,2.40e-02,-8.60e-05,
697,2.40e-02,-8.60e-05,
698,1.60e-02,-8.60e-05,
699,2.40e-02,-8.60e-05,
700,1.60e-02,-8.60e-05,
701,2.40e-02,-8.60e-05,
702,1.60e-02,-8.60e-05,
703,2.40e-02,-8.60e-05,
704,2.40e-02,-8.60e-05,
705,2.40e-02,-8.60e-05,
706,2.40e-02,-8.60e-05,
707,2.40e-02,-8.60e-05,
708,2.40e-02,-8.60e-05,
709,2.40e-02,-8.60e-05,
710,2.40e-02,-8.60e-05,
711,2.40e-02,-8.60e-05,
712,2.40e-02,-8.60e-05,
713,2.40e-02,-8.60e-05,
714,2.40e-02,-8.60e-05,
715,2.40e-02,-8.60e-05,
716,2.40e-02,-8.60e-05,
717,2.40e-02,-8.60e-05,
718,2.40e-02,-8.60e-05,
719,2.40e-02,-8.60e-05,
720,2.40e-02,-8.60e-05,
721,2.40e-02,-8.60e-05,
722,2.40e-02,-8.60e-05,
723,2.40e-02,-8.60e-05,
724,2.40e-02,-8.60e-05,
725,2.40e-02,-8.60e-05,
726,2.40e-02,-8.60e-05,
727,2.40e-02,-8.60e-05,
728,2.40e-02,-8.60e-05,
729,2.40e-02,-8.60e-05,
730,2.40e-02,-8.60e-05,
731,2.40e-02,-8.60e-05,
732,2.40e-02,-8.60e-05,
733,2.40e-02,-8.60e-05,
734,2.40e-02,-8.60e-05,
735,2.40e-02,-8.60e-05,
736,2.40e-02,-8.60e-05,
737,2.40e-02,-8.60e-05,
738,2.40e-02,-8.60e-05,
739,2.40e-02,-8.60e-05,
740,2.40e-02,-8.60e-05,
741,2.40e-02,-8.60e-05,
742,2.40e-02,-8.60e-05,
743,2.40e-02,-8.60e-05,
744,2.40e-02,-8.60e-05,
745,2.40e-02,-8.60e-05,
746,2.40e-02,-8.60e-05,
747,2.40e-02,-8.60e-05,
748,2.40e-02,-8.60e-05,
749,2.40e-02,-8.60e-05,
750,2.40e-02,-8.60e-05,
751,2.40e-02,-8.60e-05,
752,2.40e-02,-8.60e-05,
753,2.40e-02,-8.60e-05,
754,2.40e-02,-8.60e-05,
755,2.40e-02,-8.60e-05,
756,2.40e-02,-8.60e-05,
757,2.40e-02,-8.60e-05,
758,2.40e-02,-8.60e-05,
759,2.40e-02,-8.60e-05,
760,2.40e-02,-8.60e-05,
761,2.40e-02,-8.60e-05,
762,2.40e-02,-8.60e-05,
763,2.40e-02,-8.60e-05,
764,2.40e-02,-8.60e-05,
765,3.20e-02,-8.60e-05,
766,2.40e-02,-8.60e-05,
767,2.40e-02,-8.60e-05,
768,2.40e-02,-8.60e-05,
769,2.40e-02,-8.60e-05,
770,2.40e-02,-8.60e-05,
771,3.20e-02,-8.60e-05,
772,2.40e-02,-8.60e-05,
773,3.20e-02,-8.60e-05,
774,2.40e-02,-8.60e-05,
775,2.40e-02,4.00e-01,
776,3.20e-02,-8.60e-05,
777,3.20e-02,-8.60e-05,
778,2.40e-02,-8.60e-05,
779,3.20e-02,-8.60e-05,
780,2.40e-02,-8.60e-05,
781,3.20e-02,-8.60e-05,
782,2.40e-02,-8.60e-05,
783,3.20e-02,-8.60e-05,
784,2.40e-02,-8.60e-05,
785,2.40e-02,-8.60e-05,
786,2.40e-02,-8.60e-05,
787,2.40e-02,-8.60e-05,
788,2.40e-02,-8.60e-05,
789,3.20e-02,-8.60e-05,
790,2.40e-02,-8.60e-05,
791,3.20e-02,-8.60e-05,
792,2.40e-02,-8.60e-05,
793,3.20e-02,-8.60e-05,
794,3.20e-02,-8.60e-05,
795,3.20e-02,-8.60e-05,
796,3.20e-02,-8.60e-05,
797,3.20e-02,-8.60e-05,
798,2.40e-02,-8.60e-05,
799,3.20e-02,-8.60e-05,
800,2.40e-02,-8.60e-05,
801,3.20e-02,-8.60e-05,
802,3.20e-02,-8.60e-05,
803,3.20e-02,-8.60e-05,
804,2.40e-02,-8.60e-05,
805,3.20e-02,-8.60e-05,
806,3.20e-02,-8.60e-05,
807,3.20e-02,-8.60e-05,
808,3.20e-02,-8.60e-05,
809,3.20e-02,-8.60e-05,
810,3.20e-02,-8.60e-05,
811,3.20e-02,-8.60e-05,
812,3.20e-02,-8.60e-05,
813,3.20e-02,-8.60e-05,
814,3.20e-02,-8.60e-05,
815,3.20e-02,-8.60e-05,
816,3.20e-02,-8.60e-05,
817,3.20e-02,-8.60e-05,
818,3.20e-02,-8.60e-05,
819,3.20e-02,-8.60e-05,
820,3.20e-02,-8.60e-05,
821,3.20e-02,-8.60e-05,
822,3.20e-02,-8.60e-05,
823,3.20e-02,-8.60e-05,
824,3.20e-02,-8.60e-05,
825,3.20e-02,-8.60e-05,
826,3.20e-02,-8.60e-05,
827,3.20e-02,-8.60e-05,
828,3.20e-02,-8.60e-05,
829,3.20e-02,-8.60e-05,
830,3.20e-02,-8.60e-05,
831,3.20e-02,-8.60e-05,
832,3.20e-02,-8.60e-05,
833,3.20e-02,-8.60e-05,
834,3.20e-02,-8.60e-05,
835,3.20e-02,-8.60e-05,
